EESchema Schematic File Version 4
LIBS:io-cache
EELAYER 26 0
EELAYER END
$Descr A2 23386 16535
encoding utf-8
Sheet 1 1
Title ""
Date ""
Rev ""
Comp ""
Comment1 ""
Comment2 ""
Comment3 ""
Comment4 ""
$EndDescr
$Comp
L io-rescue:ESP32-WROOM-32D-ESP32-WROOM-32D-sierros-rescue U?
U 1 1 5BFE5502
P 2600 14100
F 0 "U?" H 2600 15667 50  0000 C CNN
F 1 "ESP32-WROOM-32D" H 2600 15576 50  0000 C CNN
F 2 "MODULE_ESP32-WROOM-32D" H 2600 14100 50  0001 L BNN
F 3 "IC: SoC; GPIO, I2C, I2S, IR, SD, SDIO, SPI, UART; 2.7÷3.6VDC; 20dBm" H 2600 14100 50  0001 L BNN
F 4 "None" H 2600 14100 50  0001 L BNN "Field4"
F 5 "ESP32-WROOM-32D" H 2600 14100 50  0001 L BNN "Field5"
F 6 "Unavailable" H 2600 14100 50  0001 L BNN "Field6"
F 7 "Espressif Systems" H 2600 14100 50  0001 L BNN "Field7"
F 8 "Module Espressif Systems" H 2600 14100 50  0001 L BNN "Field8"
	1    2600 14100
	1    0    0    -1  
$EndComp
$Comp
L io-rescue:max30100-module-gy-max30100-sierros-rescue U?
U 1 1 5BFE57D5
P 14900 2450
F 0 "U?" H 14600 2565 50  0000 C CNN
F 1 "max30100-module" H 14600 2474 50  0000 C CNN
F 2 "" H 14900 2450 50  0001 C CNN
F 3 "" H 14900 2450 50  0001 C CNN
	1    14900 2450
	1    0    0    -1  
$EndComp
$Comp
L io-rescue:ad8232_module-AD8232-sierros-rescue U?
U 1 1 5BFE6243
P 13950 1500
F 0 "U?" H 13800 2015 50  0000 C CNN
F 1 "ad8232_module" H 13800 1924 50  0000 C CNN
F 2 "" H 13950 1500 50  0001 C CNN
F 3 "" H 13950 1500 50  0001 C CNN
	1    13950 1500
	1    0    0    -1  
$EndComp
$Comp
L power:+3.3V #PWR?
U 1 1 5BFE6327
P 3300 12800
F 0 "#PWR?" H 3300 12650 50  0001 C CNN
F 1 "+3.3V" H 3315 12973 50  0000 C CNN
F 2 "" H 3300 12800 50  0001 C CNN
F 3 "" H 3300 12800 50  0001 C CNN
	1    3300 12800
	1    0    0    -1  
$EndComp
$Comp
L power:+3.3V #PWR?
U 1 1 5BFE6364
P 13350 1450
F 0 "#PWR?" H 13350 1300 50  0001 C CNN
F 1 "+3.3V" V 13365 1578 50  0000 L CNN
F 2 "" H 13350 1450 50  0001 C CNN
F 3 "" H 13350 1450 50  0001 C CNN
	1    13350 1450
	0    -1   -1   0   
$EndComp
$Comp
L power:+3.3V #PWR?
U 1 1 5BFE6395
P 14250 2650
F 0 "#PWR?" H 14250 2500 50  0001 C CNN
F 1 "+3.3V" V 14265 2778 50  0000 L CNN
F 2 "" H 14250 2650 50  0001 C CNN
F 3 "" H 14250 2650 50  0001 C CNN
	1    14250 2650
	0    -1   -1   0   
$EndComp
Text Notes 13650 2500 0    50   ~ 0
1.8V ou 3.3V ?\n
$Comp
L power:GND #PWR?
U 1 1 5BFE6406
P 14250 2750
F 0 "#PWR?" H 14250 2500 50  0001 C CNN
F 1 "GND" H 14255 2577 50  0000 C CNN
F 2 "" H 14250 2750 50  0001 C CNN
F 3 "" H 14250 2750 50  0001 C CNN
	1    14250 2750
	1    0    0    -1  
$EndComp
$Comp
L power:GND #PWR?
U 1 1 5BFE6443
P 13350 1350
F 0 "#PWR?" H 13350 1100 50  0001 C CNN
F 1 "GND" H 13355 1177 50  0000 C CNN
F 2 "" H 13350 1350 50  0001 C CNN
F 3 "" H 13350 1350 50  0001 C CNN
	1    13350 1350
	-1   0    0    1   
$EndComp
$Comp
L power:GND #PWR?
U 1 1 5BFE6486
P 3300 15400
F 0 "#PWR?" H 3300 15150 50  0001 C CNN
F 1 "GND" H 3305 15227 50  0000 C CNN
F 2 "" H 3300 15400 50  0001 C CNN
F 3 "" H 3300 15400 50  0001 C CNN
	1    3300 15400
	1    0    0    -1  
$EndComp
Text Label 14950 2600 0    50   ~ 0
INT_MAX30100
Text Label 14250 1350 0    50   ~ 0
LO-
Text Label 14250 1450 0    50   ~ 0
LO+
Text Label 14250 1250 0    50   ~ 0
OUTPUT_ad8232
Text Label 14250 1550 0    50   ~ 0
SDN
$Comp
L power:+3.3V #PWR?
U 1 1 5BFE6766
P 1050 13000
F 0 "#PWR?" H 1050 12850 50  0001 C CNN
F 1 "+3.3V" V 1065 13128 50  0000 L CNN
F 2 "" H 1050 13000 50  0001 C CNN
F 3 "" H 1050 13000 50  0001 C CNN
	1    1050 13000
	0    -1   -1   0   
$EndComp
$Comp
L Switch:SW_Push SW?
U 1 1 5BFE6B5A
P 3850 12650
F 0 "SW?" H 3850 12935 50  0000 C CNN
F 1 "SW_Push" H 3850 12844 50  0000 C CNN
F 2 "" H 3850 12850 50  0001 C CNN
F 3 "" H 3850 12850 50  0001 C CNN
	1    3850 12650
	1    0    0    -1  
$EndComp
Wire Wire Line
	3300 13000 3500 13000
$Comp
L power:GND #PWR?
U 1 1 5BFE6C16
P 4050 12650
F 0 "#PWR?" H 4050 12400 50  0001 C CNN
F 1 "GND" V 4055 12522 50  0000 R CNN
F 2 "" H 4050 12650 50  0001 C CNN
F 3 "" H 4050 12650 50  0001 C CNN
	1    4050 12650
	0    -1   -1   0   
$EndComp
Wire Wire Line
	3650 12650 3500 12650
Wire Wire Line
	3500 12650 3500 13000
NoConn ~ 3300 13700
NoConn ~ 3300 13300
NoConn ~ 3300 14800
NoConn ~ 3300 14900
$Comp
L power:GND #PWR?
U 1 1 5BFE6E07
P 1250 12650
F 0 "#PWR?" H 1250 12400 50  0001 C CNN
F 1 "GND" V 1255 12522 50  0000 R CNN
F 2 "" H 1250 12650 50  0001 C CNN
F 3 "" H 1250 12650 50  0001 C CNN
	1    1250 12650
	0    1    1    0   
$EndComp
$Comp
L Switch:SW_Push SW?
U 1 1 5BFE6E31
P 1450 12650
F 0 "SW?" H 1450 12935 50  0000 C CNN
F 1 "SW_Push" H 1450 12844 50  0000 C CNN
F 2 "" H 1450 12850 50  0001 C CNN
F 3 "" H 1450 12850 50  0001 C CNN
	1    1450 12650
	1    0    0    -1  
$EndComp
Wire Wire Line
	1650 12650 1900 12650
Wire Wire Line
	1900 12650 1900 13000
Wire Wire Line
	1050 13000 1250 13000
Connection ~ 1900 13000
$Comp
L Device:R 10k
U 1 1 5BFE6F55
P 1400 13000
F 0 "10k" V 1400 13000 50  0000 C CNN
F 1 "R" V 1284 13000 50  0000 C CNN
F 2 "" V 1330 13000 50  0001 C CNN
F 3 "~" H 1400 13000 50  0001 C CNN
	1    1400 13000
	0    1    1    0   
$EndComp
Wire Wire Line
	1550 13000 1900 13000
Text GLabel 1900 13700 0    50   Output ~ 0
TX_ESP32
Text GLabel 1900 13800 0    50   Input ~ 0
RX_ESP32
$Comp
L Interface_USB:FT232RL U?
U 1 1 5BFE7328
P 8800 2000
F 0 "U?" H 8800 3178 50  0000 C CNN
F 1 "FT232RL" H 8800 3087 50  0000 C CNN
F 2 "Package_SO:SSOP-28_5.3x10.2mm_P0.65mm" H 8800 2000 50  0001 C CNN
F 3 "http://www.ftdichip.com/Products/ICs/FT232RL.htm" H 8800 2000 50  0001 C CNN
	1    8800 2000
	1    0    0    -1  
$EndComp
$Comp
L Connector:USB_B_Micro J?
U 1 1 5BFE749F
P 6850 1600
F 0 "J?" H 6905 2067 50  0000 C CNN
F 1 "USB_B_Micro" H 6905 1976 50  0000 C CNN
F 2 "" H 7000 1550 50  0001 C CNN
F 3 "~" H 7000 1550 50  0001 C CNN
	1    6850 1600
	1    0    0    -1  
$EndComp
Wire Wire Line
	8000 1700 7150 1700
Wire Wire Line
	7150 1600 8000 1600
NoConn ~ 7150 1800
Text GLabel 9600 1300 2    50   Output ~ 0
RX_ESP32
Text GLabel 9600 1400 2    50   Input ~ 0
TX_ESP32
$Comp
L power:+3.3V #PWR?
U 1 1 5BFE7C7B
P 8550 1000
F 0 "#PWR?" H 8550 850 50  0001 C CNN
F 1 "+3.3V" V 8565 1128 50  0000 L CNN
F 2 "" H 8550 1000 50  0001 C CNN
F 3 "" H 8550 1000 50  0001 C CNN
	1    8550 1000
	0    -1   -1   0   
$EndComp
Wire Wire Line
	8550 1000 8700 1000
$Comp
L power:+5V #PWR?
U 1 1 5BFE7DFD
P 7150 1400
F 0 "#PWR?" H 7150 1250 50  0001 C CNN
F 1 "+5V" V 7165 1528 50  0000 L CNN
F 2 "" H 7150 1400 50  0001 C CNN
F 3 "" H 7150 1400 50  0001 C CNN
	1    7150 1400
	0    1    1    0   
$EndComp
$Comp
L power:+5V #PWR?
U 1 1 5BFE7E37
P 9050 1000
F 0 "#PWR?" H 9050 850 50  0001 C CNN
F 1 "+5V" H 9065 1173 50  0000 C CNN
F 2 "" H 9050 1000 50  0001 C CNN
F 3 "" H 9050 1000 50  0001 C CNN
	1    9050 1000
	1    0    0    -1  
$EndComp
Wire Wire Line
	8900 1000 9050 1000
$Comp
L power:GND #PWR?
U 1 1 5C077FA6
P 6850 2000
F 0 "#PWR?" H 6850 1750 50  0001 C CNN
F 1 "GND" H 6855 1827 50  0000 C CNN
F 2 "" H 6850 2000 50  0001 C CNN
F 3 "" H 6850 2000 50  0001 C CNN
	1    6850 2000
	1    0    0    -1  
$EndComp
$Comp
L power:GND #PWR?
U 1 1 5C077FD8
P 6750 2000
F 0 "#PWR?" H 6750 1750 50  0001 C CNN
F 1 "GND" H 6755 1827 50  0000 C CNN
F 2 "" H 6750 2000 50  0001 C CNN
F 3 "" H 6750 2000 50  0001 C CNN
	1    6750 2000
	1    0    0    -1  
$EndComp
$Comp
L power:GND #PWR?
U 1 1 5C07801F
P 8800 3000
F 0 "#PWR?" H 8800 2750 50  0001 C CNN
F 1 "GND" H 8805 2827 50  0000 C CNN
F 2 "" H 8800 3000 50  0001 C CNN
F 3 "" H 8800 3000 50  0001 C CNN
	1    8800 3000
	1    0    0    -1  
$EndComp
$Comp
L power:GND #PWR?
U 1 1 5C078051
P 8900 3000
F 0 "#PWR?" H 8900 2750 50  0001 C CNN
F 1 "GND" H 8905 2827 50  0000 C CNN
F 2 "" H 8900 3000 50  0001 C CNN
F 3 "" H 8900 3000 50  0001 C CNN
	1    8900 3000
	1    0    0    -1  
$EndComp
$Comp
L power:GND #PWR?
U 1 1 5C078083
P 9000 3000
F 0 "#PWR?" H 9000 2750 50  0001 C CNN
F 1 "GND" H 9005 2827 50  0000 C CNN
F 2 "" H 9000 3000 50  0001 C CNN
F 3 "" H 9000 3000 50  0001 C CNN
	1    9000 3000
	1    0    0    -1  
$EndComp
$Comp
L power:GND #PWR?
U 1 1 5C0780B5
P 8600 3000
F 0 "#PWR?" H 8600 2750 50  0001 C CNN
F 1 "GND" H 8605 2827 50  0000 C CNN
F 2 "" H 8600 3000 50  0001 C CNN
F 3 "" H 8600 3000 50  0001 C CNN
	1    8600 3000
	1    0    0    -1  
$EndComp
$Comp
L power:+3.3V #PWR?
U 1 1 5C0780FC
P 8000 2000
F 0 "#PWR?" H 8000 1850 50  0001 C CNN
F 1 "+3.3V" H 8015 2173 50  0000 C CNN
F 2 "" H 8000 2000 50  0001 C CNN
F 3 "" H 8000 2000 50  0001 C CNN
	1    8000 2000
	1    0    0    -1  
$EndComp
$Comp
L power:GND #PWR?
U 1 1 5C07813C
P 8000 2700
F 0 "#PWR?" H 8000 2450 50  0001 C CNN
F 1 "GND" V 8005 2572 50  0000 R CNN
F 2 "" H 8000 2700 50  0001 C CNN
F 3 "" H 8000 2700 50  0001 C CNN
	1    8000 2700
	0    1    1    0   
$EndComp
NoConn ~ 8000 1300
NoConn ~ 9600 1500
NoConn ~ 9600 1600
NoConn ~ 9600 1700
NoConn ~ 9600 1800
NoConn ~ 9600 1900
NoConn ~ 9600 2000
NoConn ~ 8000 2400
NoConn ~ 8000 2200
$Comp
L Device:LED D?
U 1 1 5C0786E3
P 10000 2250
F 0 "D?" H 9991 2466 50  0000 C CNN
F 1 "LED" H 9991 2375 50  0000 C CNN
F 2 "" H 10000 2250 50  0001 C CNN
F 3 "~" H 10000 2250 50  0001 C CNN
	1    10000 2250
	1    0    0    -1  
$EndComp
$Comp
L Device:LED D?
U 1 1 5C078756
P 10350 2400
F 0 "D?" H 10341 2616 50  0000 C CNN
F 1 "LED" H 10341 2525 50  0000 C CNN
F 2 "" H 10350 2400 50  0001 C CNN
F 3 "~" H 10350 2400 50  0001 C CNN
	1    10350 2400
	1    0    0    -1  
$EndComp
Wire Wire Line
	9600 2300 9600 2250
Wire Wire Line
	9600 2250 9850 2250
Wire Wire Line
	9600 2400 10200 2400
$Comp
L Device:R 120R
U 1 1 5C07897C
P 10650 2400
F 0 "120R" V 10650 2400 50  0000 C CNN
F 1 "R" V 10534 2400 50  0000 C CNN
F 2 "" V 10580 2400 50  0001 C CNN
F 3 "~" H 10650 2400 50  0001 C CNN
	1    10650 2400
	0    1    1    0   
$EndComp
$Comp
L Device:R 120R
U 1 1 5C0789CC
P 10150 2100
F 0 "120R" V 10150 2000 50  0000 L CNN
F 1 "R" H 10220 2055 50  0000 L CNN
F 2 "" V 10080 2100 50  0001 C CNN
F 3 "~" H 10150 2100 50  0001 C CNN
	1    10150 2100
	1    0    0    -1  
$EndComp
$Comp
L power:+3.3V #PWR?
U 1 1 5C078A3F
P 10150 1950
F 0 "#PWR?" H 10150 1800 50  0001 C CNN
F 1 "+3.3V" H 10165 2123 50  0000 C CNN
F 2 "" H 10150 1950 50  0001 C CNN
F 3 "" H 10150 1950 50  0001 C CNN
	1    10150 1950
	1    0    0    -1  
$EndComp
$Comp
L power:+3.3V #PWR?
U 1 1 5C078A79
P 10800 2400
F 0 "#PWR?" H 10800 2250 50  0001 C CNN
F 1 "+3.3V" V 10815 2528 50  0000 L CNN
F 2 "" H 10800 2400 50  0001 C CNN
F 3 "" H 10800 2400 50  0001 C CNN
	1    10800 2400
	0    1    1    0   
$EndComp
NoConn ~ 9600 2500
NoConn ~ 9600 2600
NoConn ~ 9600 2700
Text Notes 9850 2950 0    50   ~ 0
Partie finie (à tester)
NoConn ~ 1900 14700
NoConn ~ 1900 14800
NoConn ~ 1900 14100
NoConn ~ 1900 14200
NoConn ~ 1900 14300
NoConn ~ 1900 14400
NoConn ~ 3300 13400
Text Notes 3400 14900 0    50   ~ 0
Connected to crystal. Do not use
Text Notes 4150 15100 0    50   ~ 0
34 - 35: Input only
Text Notes 3400 13350 0    50   ~ 0
Strapping pins: 0 2 5 12 15
NoConn ~ 3300 13100
Text Notes 1350 15800 0    50   ~ 0
Usables GPIO:\n25 26 27 14 13 4 16 17 18 19 21 22 23\n + 35 34 (Input only)
Text Notes 450  13400 0    50   ~ 0
Sensor_VP (IO36): Input only\nSensor_VN (IO39): Input only
Text GLabel 3300 14200 2    50   BiDi ~ 0
SDA
Text GLabel 3300 14300 2    50   BiDi ~ 0
SCL
Text Label 3300 15100 0    50   ~ 0
OUTPUT_ad8232
Text Label 3300 14700 0    50   ~ 0
INT_MAX30100
$Comp
L Connector:Raspberry_Pi_2_3 J?
U 1 1 5C07B150
P 2050 8600
F 0 "J?" H 2000 8400 50  0000 C CNN
F 1 "Raspberry_Pi_2_3" H 2050 9600 50  0000 C CNN
F 2 "" H 2050 8600 50  0001 C CNN
F 3 "https://www.raspberrypi.org/documentation/hardware/raspberrypi/schematics/rpi_SCH_3bplus_1p0_reduced.pdf" H 2050 8600 50  0001 C CNN
	1    2050 8600
	1    0    0    -1  
$EndComp
$Comp
L power:GND #PWR?
U 1 1 5C07B3A5
P 2000 10050
F 0 "#PWR?" H 2000 9800 50  0001 C CNN
F 1 "GND" H 2005 9877 50  0000 C CNN
F 2 "" H 2000 10050 50  0001 C CNN
F 3 "" H 2000 10050 50  0001 C CNN
	1    2000 10050
	1    0    0    -1  
$EndComp
Wire Wire Line
	1650 9900 1750 9900
Connection ~ 1750 9900
Wire Wire Line
	1750 9900 1850 9900
Connection ~ 1850 9900
Wire Wire Line
	1850 9900 1950 9900
Connection ~ 1950 9900
Wire Wire Line
	1950 9900 2000 9900
Connection ~ 2050 9900
Wire Wire Line
	2050 9900 2150 9900
Connection ~ 2150 9900
Wire Wire Line
	2150 9900 2250 9900
Connection ~ 2250 9900
Wire Wire Line
	2250 9900 2350 9900
Wire Wire Line
	2000 10050 2000 9900
Connection ~ 2000 9900
Wire Wire Line
	2000 9900 2050 9900
$Comp
L power:+5V #PWR?
U 1 1 5C07B867
P 1900 7250
F 0 "#PWR?" H 1900 7100 50  0001 C CNN
F 1 "+5V" H 1915 7423 50  0000 C CNN
F 2 "" H 1900 7250 50  0001 C CNN
F 3 "" H 1900 7250 50  0001 C CNN
	1    1900 7250
	1    0    0    -1  
$EndComp
$Comp
L power:+3.3V #PWR?
U 1 1 5C07B8B1
P 2200 7250
F 0 "#PWR?" H 2200 7100 50  0001 C CNN
F 1 "+3.3V" H 2215 7423 50  0000 C CNN
F 2 "" H 2200 7250 50  0001 C CNN
F 3 "" H 2200 7250 50  0001 C CNN
	1    2200 7250
	1    0    0    -1  
$EndComp
Wire Wire Line
	2250 7250 2250 7300
Wire Wire Line
	2250 7250 2200 7250
Wire Wire Line
	2150 7250 2150 7300
Connection ~ 2200 7250
Wire Wire Line
	2200 7250 2150 7250
Wire Wire Line
	1850 7300 1850 7250
Wire Wire Line
	1850 7250 1900 7250
Wire Wire Line
	1950 7250 1950 7300
Connection ~ 1900 7250
Wire Wire Line
	1900 7250 1950 7250
$Comp
L RF:SIM800C U?
U 1 1 5C07CA87
P 13050 6300
F 0 "U?" H 13050 6050 50  0000 C CNN
F 1 "SIM800C" H 13000 5850 50  0000 C CNN
F 2 "RF_Module:SIMCom_SIM800C" H 13650 5250 50  0001 C CNN
F 3 "http://simcom.ee/documents/SIM800C/SIM800C_Hardware_Design_V1.05.pdf" H 8400 3950 50  0001 C CNN
	1    13050 6300
	1    0    0    -1  
$EndComp
$Comp
L Connector:Conn_Coaxial J?
U 1 1 5C07CDD2
P 14250 5200
F 0 "J?" H 14349 5176 50  0000 L CNN
F 1 "Conn_Coaxial" H 14349 5085 50  0000 L CNN
F 2 "" H 14250 5200 50  0001 C CNN
F 3 " ~" H 14250 5200 50  0001 C CNN
	1    14250 5200
	0    -1   -1   0   
$EndComp
$Comp
L power:GND #PWR?
U 1 1 5C07CF22
P 13050 7400
F 0 "#PWR?" H 13050 7150 50  0001 C CNN
F 1 "GND" H 13055 7227 50  0000 C CNN
F 2 "" H 13050 7400 50  0001 C CNN
F 3 "" H 13050 7400 50  0001 C CNN
	1    13050 7400
	1    0    0    -1  
$EndComp
Text Label 2850 9000 0    50   ~ 0
LCD_MI
Text Label 2850 8900 0    50   ~ 0
LCD_MO
Text Label 2850 9100 0    50   ~ 0
LCD_CLK
Text Label 1250 9100 2    50   ~ 0
LCD_IRQ
Text Label 2850 8700 0    50   ~ 0
LCD_CS
Text Notes 13550 1800 0    50   ~ 0
Pour ECG
Text Notes 14150 3050 0    50   ~ 0
Saturomètre (déporté)
NoConn ~ 12850 5200
$Comp
L Connector:SIM_Card J?
U 1 1 5C10D488
P 17700 5150
F 0 "J?" H 18329 5250 50  0000 L CNN
F 1 "SIM_Card" H 18329 5159 50  0000 L CNN
F 2 "" H 17700 5500 50  0001 C CNN
F 3 " ~" H 17650 5150 50  0001 C CNN
	1    17700 5150
	1    0    0    -1  
$EndComp
$Comp
L power:GND #PWR?
U 1 1 5C10FB72
P 17200 5150
F 0 "#PWR?" H 17200 4900 50  0001 C CNN
F 1 "GND" V 17205 5022 50  0000 R CNN
F 2 "" H 17200 5150 50  0001 C CNN
F 3 "" H 17200 5150 50  0001 C CNN
	1    17200 5150
	0    1    1    0   
$EndComp
$Comp
L Device:C C?
U 1 1 5C10FC12
P 14350 7600
F 0 "C?" H 14465 7646 50  0000 L CNN
F 1 "10pF" H 14465 7555 50  0000 L CNN
F 2 "" H 14388 7450 50  0001 C CNN
F 3 "~" H 14350 7600 50  0001 C CNN
	1    14350 7600
	1    0    0    -1  
$EndComp
$Comp
L Device:C C?
U 1 1 5C10FD34
P 14350 7900
F 0 "C?" H 14465 7946 50  0000 L CNN
F 1 "10pF" H 14465 7855 50  0000 L CNN
F 2 "" H 14388 7750 50  0001 C CNN
F 3 "~" H 14350 7900 50  0001 C CNN
	1    14350 7900
	1    0    0    -1  
$EndComp
$Comp
L Device:C C?
U 1 1 5C10FD8A
P 14350 8200
F 0 "C?" H 14465 8246 50  0000 L CNN
F 1 "10pF" H 14465 8155 50  0000 L CNN
F 2 "" H 14388 8050 50  0001 C CNN
F 3 "~" H 14350 8200 50  0001 C CNN
	1    14350 8200
	1    0    0    -1  
$EndComp
$Comp
L Device:C C?
U 1 1 5C10FE6F
P 14800 7600
F 0 "C?" H 14915 7646 50  0000 L CNN
F 1 "33pF" H 14915 7555 50  0000 L CNN
F 2 "" H 14838 7450 50  0001 C CNN
F 3 "~" H 14800 7600 50  0001 C CNN
	1    14800 7600
	1    0    0    -1  
$EndComp
$Comp
L Device:C C?
U 1 1 5C10FE76
P 14800 7900
F 0 "C?" H 14915 7946 50  0000 L CNN
F 1 "33pF" H 14915 7855 50  0000 L CNN
F 2 "" H 14838 7750 50  0001 C CNN
F 3 "~" H 14800 7900 50  0001 C CNN
	1    14800 7900
	1    0    0    -1  
$EndComp
$Comp
L Device:C C?
U 1 1 5C10FE7D
P 14800 8200
F 0 "C?" H 14915 8246 50  0000 L CNN
F 1 "33pF" H 14915 8155 50  0000 L CNN
F 2 "" H 14838 8050 50  0001 C CNN
F 3 "~" H 14800 8200 50  0001 C CNN
	1    14800 8200
	1    0    0    -1  
$EndComp
$Comp
L Device:C C?
U 1 1 5C11078E
P 16550 7600
F 0 "C?" H 16665 7646 50  0000 L CNN
F 1 "10pF" H 16665 7555 50  0000 L CNN
F 2 "" H 16588 7450 50  0001 C CNN
F 3 "~" H 16550 7600 50  0001 C CNN
	1    16550 7600
	1    0    0    -1  
$EndComp
$Comp
L Device:C C?
U 1 1 5C110795
P 16550 7900
F 0 "C?" H 16665 7946 50  0000 L CNN
F 1 "10pF" H 16665 7855 50  0000 L CNN
F 2 "" H 16588 7750 50  0001 C CNN
F 3 "~" H 16550 7900 50  0001 C CNN
	1    16550 7900
	1    0    0    -1  
$EndComp
$Comp
L Device:C C?
U 1 1 5C11079C
P 16550 8200
F 0 "C?" H 16665 8246 50  0000 L CNN
F 1 "10pF" H 16665 8155 50  0000 L CNN
F 2 "" H 16588 8050 50  0001 C CNN
F 3 "~" H 16550 8200 50  0001 C CNN
	1    16550 8200
	1    0    0    -1  
$EndComp
$Comp
L Device:C C?
U 1 1 5C1107A3
P 16950 7600
F 0 "C?" H 17065 7646 50  0000 L CNN
F 1 "33pF" H 17065 7555 50  0000 L CNN
F 2 "" H 16988 7450 50  0001 C CNN
F 3 "~" H 16950 7600 50  0001 C CNN
	1    16950 7600
	1    0    0    -1  
$EndComp
$Comp
L Device:C C?
U 1 1 5C1107AA
P 16950 7900
F 0 "C?" H 17065 7946 50  0000 L CNN
F 1 "33pF" H 17065 7855 50  0000 L CNN
F 2 "" H 16988 7750 50  0001 C CNN
F 3 "~" H 16950 7900 50  0001 C CNN
	1    16950 7900
	1    0    0    -1  
$EndComp
$Comp
L Device:C C?
U 1 1 5C1107B1
P 16950 8200
F 0 "C?" H 17065 8246 50  0000 L CNN
F 1 "33pF" H 17065 8155 50  0000 L CNN
F 2 "" H 16988 8050 50  0001 C CNN
F 3 "~" H 16950 8200 50  0001 C CNN
	1    16950 8200
	1    0    0    -1  
$EndComp
Wire Wire Line
	16950 7750 17450 7750
Wire Wire Line
	17550 7750 17550 7850
Connection ~ 16950 7750
Wire Wire Line
	16950 8050 17450 8050
Wire Wire Line
	17550 8050 17550 7950
Connection ~ 16950 8050
Wire Wire Line
	13950 7750 14350 7750
Connection ~ 14350 7750
Connection ~ 14350 8050
$Comp
L power:GND #PWR?
U 1 1 5C117BF2
P 14350 8350
F 0 "#PWR?" H 14350 8100 50  0001 C CNN
F 1 "GND" H 14355 8177 50  0000 C CNN
F 2 "" H 14350 8350 50  0001 C CNN
F 3 "" H 14350 8350 50  0001 C CNN
	1    14350 8350
	1    0    0    -1  
$EndComp
$Comp
L power:GND #PWR?
U 1 1 5C117C50
P 14800 8350
F 0 "#PWR?" H 14800 8100 50  0001 C CNN
F 1 "GND" H 14805 8177 50  0000 C CNN
F 2 "" H 14800 8350 50  0001 C CNN
F 3 "" H 14800 8350 50  0001 C CNN
	1    14800 8350
	1    0    0    -1  
$EndComp
$Comp
L power:GND #PWR?
U 1 1 5C117CAE
P 14800 7450
F 0 "#PWR?" H 14800 7200 50  0001 C CNN
F 1 "GND" H 14805 7277 50  0000 C CNN
F 2 "" H 14800 7450 50  0001 C CNN
F 3 "" H 14800 7450 50  0001 C CNN
	1    14800 7450
	-1   0    0    1   
$EndComp
$Comp
L power:GND #PWR?
U 1 1 5C117D48
P 14350 7450
F 0 "#PWR?" H 14350 7200 50  0001 C CNN
F 1 "GND" H 14355 7277 50  0000 C CNN
F 2 "" H 14350 7450 50  0001 C CNN
F 3 "" H 14350 7450 50  0001 C CNN
	1    14350 7450
	-1   0    0    1   
$EndComp
$Comp
L power:GND #PWR?
U 1 1 5C117DE2
P 16550 7450
F 0 "#PWR?" H 16550 7200 50  0001 C CNN
F 1 "GND" H 16555 7277 50  0000 C CNN
F 2 "" H 16550 7450 50  0001 C CNN
F 3 "" H 16550 7450 50  0001 C CNN
	1    16550 7450
	-1   0    0    1   
$EndComp
$Comp
L power:GND #PWR?
U 1 1 5C117E7C
P 16950 7450
F 0 "#PWR?" H 16950 7200 50  0001 C CNN
F 1 "GND" H 16955 7277 50  0000 C CNN
F 2 "" H 16950 7450 50  0001 C CNN
F 3 "" H 16950 7450 50  0001 C CNN
	1    16950 7450
	-1   0    0    1   
$EndComp
$Comp
L power:GND #PWR?
U 1 1 5C117F16
P 16950 8350
F 0 "#PWR?" H 16950 8100 50  0001 C CNN
F 1 "GND" H 16955 8177 50  0000 C CNN
F 2 "" H 16950 8350 50  0001 C CNN
F 3 "" H 16950 8350 50  0001 C CNN
	1    16950 8350
	1    0    0    -1  
$EndComp
$Comp
L power:GND #PWR?
U 1 1 5C117F74
P 16550 8350
F 0 "#PWR?" H 16550 8100 50  0001 C CNN
F 1 "GND" H 16555 8177 50  0000 C CNN
F 2 "" H 16550 8350 50  0001 C CNN
F 3 "" H 16550 8350 50  0001 C CNN
	1    16550 8350
	1    0    0    -1  
$EndComp
Wire Wire Line
	14800 7750 16550 7750
Wire Wire Line
	14800 8050 16550 8050
$Comp
L Device:D_TVS D?
U 1 1 5C11B5C6
P 17450 7600
F 0 "D?" V 17404 7679 50  0000 L CNN
F 1 "D_TVS" V 17495 7679 50  0000 L CNN
F 2 "" H 17450 7600 50  0001 C CNN
F 3 "~" H 17450 7600 50  0001 C CNN
	1    17450 7600
	0    1    1    0   
$EndComp
Connection ~ 17450 7750
Wire Wire Line
	17450 7750 17550 7750
$Comp
L Device:D_TVS D?
U 1 1 5C11B688
P 17450 8200
F 0 "D?" V 17404 8279 50  0000 L CNN
F 1 "D_TVS" V 17495 8279 50  0000 L CNN
F 2 "" H 17450 8200 50  0001 C CNN
F 3 "~" H 17450 8200 50  0001 C CNN
	1    17450 8200
	0    1    1    0   
$EndComp
Connection ~ 17450 8050
Wire Wire Line
	17450 8050 17550 8050
$Comp
L power:GND #PWR?
U 1 1 5C11B756
P 17450 8350
F 0 "#PWR?" H 17450 8100 50  0001 C CNN
F 1 "GND" H 17455 8177 50  0000 C CNN
F 2 "" H 17450 8350 50  0001 C CNN
F 3 "" H 17450 8350 50  0001 C CNN
	1    17450 8350
	1    0    0    -1  
$EndComp
$Comp
L power:GND #PWR?
U 1 1 5C11B822
P 17450 7450
F 0 "#PWR?" H 17450 7200 50  0001 C CNN
F 1 "GND" H 17455 7277 50  0000 C CNN
F 2 "" H 17450 7450 50  0001 C CNN
F 3 "" H 17450 7450 50  0001 C CNN
	1    17450 7450
	-1   0    0    1   
$EndComp
Text Notes 16750 8700 0    50   ~ 0
Proche du speaker
Text Notes 14200 8700 0    50   ~ 0
Proche du SIM800
Text Notes 17750 7550 0    50   ~ 0
TVS pour ESD
$Comp
L Device:C C?
U 1 1 5C11BD49
P 11050 6850
F 0 "C?" H 11165 6896 50  0000 L CNN
F 1 "33pF" H 11165 6805 50  0000 L CNN
F 2 "" H 11088 6700 50  0001 C CNN
F 3 "~" H 11050 6850 50  0001 C CNN
	1    11050 6850
	1    0    0    -1  
$EndComp
$Comp
L Device:C C?
U 1 1 5C11BD50
P 11050 7150
F 0 "C?" H 11165 7196 50  0000 L CNN
F 1 "33pF" H 11165 7105 50  0000 L CNN
F 2 "" H 11088 7000 50  0001 C CNN
F 3 "~" H 11050 7150 50  0001 C CNN
	1    11050 7150
	1    0    0    -1  
$EndComp
$Comp
L Device:C C?
U 1 1 5C11BD57
P 11050 7450
F 0 "C?" H 11165 7496 50  0000 L CNN
F 1 "33pF" H 11165 7405 50  0000 L CNN
F 2 "" H 11088 7300 50  0001 C CNN
F 3 "~" H 11050 7450 50  0001 C CNN
	1    11050 7450
	1    0    0    -1  
$EndComp
$Comp
L Device:C C?
U 1 1 5C11BD5E
P 11450 6850
F 0 "C?" H 11565 6896 50  0000 L CNN
F 1 "10pF" H 11565 6805 50  0000 L CNN
F 2 "" H 11488 6700 50  0001 C CNN
F 3 "~" H 11450 6850 50  0001 C CNN
	1    11450 6850
	1    0    0    -1  
$EndComp
$Comp
L Device:C C?
U 1 1 5C11BD65
P 11450 7150
F 0 "C?" H 11565 7196 50  0000 L CNN
F 1 "10pF" H 11565 7105 50  0000 L CNN
F 2 "" H 11488 7000 50  0001 C CNN
F 3 "~" H 11450 7150 50  0001 C CNN
	1    11450 7150
	1    0    0    -1  
$EndComp
$Comp
L Device:C C?
U 1 1 5C11BD6C
P 11450 7450
F 0 "C?" H 11565 7496 50  0000 L CNN
F 1 "10pF" H 11565 7405 50  0000 L CNN
F 2 "" H 11488 7300 50  0001 C CNN
F 3 "~" H 11450 7450 50  0001 C CNN
	1    11450 7450
	1    0    0    -1  
$EndComp
$Comp
L power:GND #PWR?
U 1 1 5C11BD7B
P 11050 7600
F 0 "#PWR?" H 11050 7350 50  0001 C CNN
F 1 "GND" H 11055 7427 50  0000 C CNN
F 2 "" H 11050 7600 50  0001 C CNN
F 3 "" H 11050 7600 50  0001 C CNN
	1    11050 7600
	1    0    0    -1  
$EndComp
$Comp
L power:GND #PWR?
U 1 1 5C11BD81
P 11450 7600
F 0 "#PWR?" H 11450 7350 50  0001 C CNN
F 1 "GND" H 11455 7427 50  0000 C CNN
F 2 "" H 11450 7600 50  0001 C CNN
F 3 "" H 11450 7600 50  0001 C CNN
	1    11450 7600
	1    0    0    -1  
$EndComp
$Comp
L power:GND #PWR?
U 1 1 5C11BD87
P 11450 6700
F 0 "#PWR?" H 11450 6450 50  0001 C CNN
F 1 "GND" H 11455 6527 50  0000 C CNN
F 2 "" H 11450 6700 50  0001 C CNN
F 3 "" H 11450 6700 50  0001 C CNN
	1    11450 6700
	-1   0    0    1   
$EndComp
$Comp
L power:GND #PWR?
U 1 1 5C11BD8D
P 11050 6700
F 0 "#PWR?" H 11050 6450 50  0001 C CNN
F 1 "GND" H 11055 6527 50  0000 C CNN
F 2 "" H 11050 6700 50  0001 C CNN
F 3 "" H 11050 6700 50  0001 C CNN
	1    11050 6700
	-1   0    0    1   
$EndComp
Wire Wire Line
	12250 7000 11450 7000
Wire Wire Line
	12250 7000 12250 7100
Connection ~ 11450 7000
Wire Wire Line
	12250 7200 12250 7300
Wire Wire Line
	12250 7300 11450 7300
Connection ~ 11450 7300
$Comp
L Device:Microphone MK?
U 1 1 5C12F0AF
P 10250 7150
F 0 "MK?" H 10380 7196 50  0000 L CNN
F 1 "Microphone" H 9850 7150 50  0000 L CNN
F 2 "" V 10250 7250 50  0001 C CNN
F 3 "~" V 10250 7250 50  0001 C CNN
	1    10250 7150
	1    0    0    -1  
$EndComp
$Comp
L Device:D_TVS D?
U 1 1 5C12F30F
P 10650 6850
F 0 "D?" V 10604 6929 50  0000 L CNN
F 1 "D_TVS" V 10695 6929 50  0000 L CNN
F 2 "" H 10650 6850 50  0001 C CNN
F 3 "~" H 10650 6850 50  0001 C CNN
	1    10650 6850
	0    1    1    0   
$EndComp
$Comp
L Device:D_TVS D?
U 1 1 5C12F3CE
P 10650 7450
F 0 "D?" V 10604 7529 50  0000 L CNN
F 1 "D_TVS" V 10695 7529 50  0000 L CNN
F 2 "" H 10650 7450 50  0001 C CNN
F 3 "~" H 10650 7450 50  0001 C CNN
	1    10650 7450
	0    1    1    0   
$EndComp
Wire Wire Line
	10650 7000 11050 7000
Wire Wire Line
	11050 7300 10650 7300
Wire Wire Line
	10250 6950 10500 6950
Wire Wire Line
	10500 6950 10500 7000
Wire Wire Line
	10500 7000 10650 7000
Connection ~ 10650 7000
Wire Wire Line
	10250 7350 10500 7350
Wire Wire Line
	10500 7350 10500 7300
Wire Wire Line
	10500 7300 10650 7300
Connection ~ 10650 7300
Connection ~ 14800 7750
Connection ~ 14800 8050
Wire Wire Line
	14350 7750 14800 7750
Wire Wire Line
	14350 8050 14800 8050
Connection ~ 11050 7000
Connection ~ 11050 7300
Wire Wire Line
	11050 7000 11450 7000
Wire Wire Line
	11050 7300 11450 7300
Connection ~ 16550 7750
Connection ~ 16550 8050
Wire Wire Line
	16550 7750 16950 7750
Wire Wire Line
	16550 8050 16950 8050
$Comp
L power:GND #PWR?
U 1 1 5C14F571
P 10650 7600
F 0 "#PWR?" H 10650 7350 50  0001 C CNN
F 1 "GND" H 10655 7427 50  0000 C CNN
F 2 "" H 10650 7600 50  0001 C CNN
F 3 "" H 10650 7600 50  0001 C CNN
	1    10650 7600
	1    0    0    -1  
$EndComp
$Comp
L power:GND #PWR?
U 1 1 5C14F5E5
P 10650 6700
F 0 "#PWR?" H 10650 6450 50  0001 C CNN
F 1 "GND" H 10655 6527 50  0000 C CNN
F 2 "" H 10650 6700 50  0001 C CNN
F 3 "" H 10650 6700 50  0001 C CNN
	1    10650 6700
	-1   0    0    1   
$EndComp
$Comp
L io-rescue:PAM8406-pam8406-sierros-rescue U?
U 1 1 5C1515AE
P 18200 12450
F 0 "U?" V 18179 12878 50  0000 L CNN
F 1 "PAM8406" V 18270 12878 50  0000 L CNN
F 2 "" H 18150 12450 50  0001 C CNN
F 3 "" H 18150 12450 50  0001 C CNN
	1    18200 12450
	0    1    1    0   
$EndComp
Text Label 2850 9300 0    50   ~ 0
RPI_AUDIO_L
Text Label 2850 9400 0    50   ~ 0
RPI_AUDIO_R
$Comp
L Device:C C?
U 1 1 5C15B22B
P 17500 11950
F 0 "C?" V 17248 11950 50  0000 C CNN
F 1 "1uF" V 17339 11950 50  0000 C CNN
F 2 "" H 17538 11800 50  0001 C CNN
F 3 "~" H 17500 11950 50  0001 C CNN
	1    17500 11950
	0    1    1    0   
$EndComp
$Comp
L Device:C C?
U 1 1 5C15B32B
P 17350 11550
F 0 "C?" V 17602 11550 50  0000 C CNN
F 1 "1uF" V 17511 11550 50  0000 C CNN
F 2 "" H 17388 11400 50  0001 C CNN
F 3 "~" H 17350 11550 50  0001 C CNN
	1    17350 11550
	0    -1   -1   0   
$EndComp
$Comp
L Device:R R?
U 1 1 5C15B509
P 17650 11550
F 0 "R?" V 17443 11550 50  0000 C CNN
F 1 "10k" V 17534 11550 50  0000 C CNN
F 2 "" V 17580 11550 50  0001 C CNN
F 3 "~" H 17650 11550 50  0001 C CNN
	1    17650 11550
	0    1    1    0   
$EndComp
$Comp
L power:GND #PWR?
U 1 1 5C15B68B
P 17200 11550
F 0 "#PWR?" H 17200 11300 50  0001 C CNN
F 1 "GND" V 17205 11422 50  0000 R CNN
F 2 "" H 17200 11550 50  0001 C CNN
F 3 "" H 17200 11550 50  0001 C CNN
	1    17200 11550
	0    1    1    0   
$EndComp
$Comp
L Device:C C?
U 1 1 5C15B73B
P 17800 11250
F 0 "C?" V 17548 11250 50  0000 C CNN
F 1 "1uF" V 17639 11250 50  0000 C CNN
F 2 "" H 17838 11100 50  0001 C CNN
F 3 "~" H 17800 11250 50  0001 C CNN
	1    17800 11250
	0    1    1    0   
$EndComp
Wire Wire Line
	17650 11950 17750 11950
Wire Wire Line
	17750 11950 17750 12000
Wire Wire Line
	17850 12000 17850 11550
Wire Wire Line
	17850 11550 17800 11550
Wire Wire Line
	17950 12000 17950 11250
$Comp
L power:GND #PWR?
U 1 1 5C160ED0
P 17650 11200
F 0 "#PWR?" H 17650 10950 50  0001 C CNN
F 1 "GND" V 17655 11072 50  0000 R CNN
F 2 "" H 17650 11200 50  0001 C CNN
F 3 "" H 17650 11200 50  0001 C CNN
	1    17650 11200
	0    1    1    0   
$EndComp
Connection ~ 17950 11250
$Comp
L power:+5V #PWR?
U 1 1 5C161033
P 17950 11250
F 0 "#PWR?" H 17950 11100 50  0001 C CNN
F 1 "+5V" H 17965 11423 50  0000 C CNN
F 2 "" H 17950 11250 50  0001 C CNN
F 3 "" H 17950 11250 50  0001 C CNN
	1    17950 11250
	1    0    0    -1  
$EndComp
Wire Wire Line
	17650 11200 17650 11250
Text Label 18050 12000 1    50   ~ 0
MUTE
Wire Wire Line
	18150 12000 18150 11750
Wire Wire Line
	18150 11250 17950 11250
$Comp
L power:GND #PWR?
U 1 1 5C167620
P 18500 11200
F 0 "#PWR?" H 18500 10950 50  0001 C CNN
F 1 "GND" H 18505 11027 50  0000 C CNN
F 2 "" H 18500 11200 50  0001 C CNN
F 3 "" H 18500 11200 50  0001 C CNN
	1    18500 11200
	-1   0    0    1   
$EndComp
$Comp
L Device:C C?
U 1 1 5C167705
P 18300 11350
F 0 "C?" V 18048 11350 50  0000 C CNN
F 1 "10uF" V 18139 11350 50  0000 C CNN
F 2 "" H 18338 11200 50  0001 C CNN
F 3 "~" H 18300 11350 50  0001 C CNN
	1    18300 11350
	0    1    1    0   
$EndComp
$Comp
L Device:C C?
U 1 1 5C1677C4
P 18300 11750
F 0 "C?" V 18048 11750 50  0000 C CNN
F 1 "1uF" V 18139 11750 50  0000 C CNN
F 2 "" H 18338 11600 50  0001 C CNN
F 3 "~" H 18300 11750 50  0001 C CNN
	1    18300 11750
	0    1    1    0   
$EndComp
Connection ~ 18150 11350
Wire Wire Line
	18150 11350 18150 11250
Connection ~ 18150 11750
Wire Wire Line
	18150 11750 18150 11350
Wire Wire Line
	18500 11200 18500 11350
Wire Wire Line
	18500 11350 18450 11350
Wire Wire Line
	18500 11350 18500 11750
Wire Wire Line
	18500 11750 18450 11750
Connection ~ 18500 11350
Wire Wire Line
	18350 12000 18350 11850
Wire Wire Line
	18350 11850 18500 11850
Wire Wire Line
	18500 11850 18500 11750
Connection ~ 18500 11750
$Comp
L Device:Speaker LS?
U 1 1 5C16E280
P 19650 11800
F 0 "LS?" H 19820 11796 50  0000 L CNN
F 1 "Speaker" H 19820 11705 50  0000 L CNN
F 2 "" H 19650 11600 50  0001 C CNN
F 3 "~" H 19640 11750 50  0001 C CNN
	1    19650 11800
	1    0    0    -1  
$EndComp
$Comp
L Device:C C?
U 1 1 5C16E329
P 19400 11550
F 0 "C?" H 19515 11596 50  0000 L CNN
F 1 "220pF" H 19515 11505 50  0000 L CNN
F 2 "" H 19438 11400 50  0001 C CNN
F 3 "~" H 19400 11550 50  0001 C CNN
	1    19400 11550
	1    0    0    -1  
$EndComp
$Comp
L Device:C C?
U 1 1 5C16E3BD
P 19400 12150
F 0 "C?" H 19515 12196 50  0000 L CNN
F 1 "220pF" H 19515 12105 50  0000 L CNN
F 2 "" H 19438 12000 50  0001 C CNN
F 3 "~" H 19400 12150 50  0001 C CNN
	1    19400 12150
	1    0    0    -1  
$EndComp
Wire Wire Line
	19450 11900 19400 11900
Wire Wire Line
	19400 11900 19400 12000
Connection ~ 19400 12000
Wire Wire Line
	19450 11800 19450 11700
Wire Wire Line
	19450 11700 19400 11700
Connection ~ 19400 11700
Wire Wire Line
	18750 11700 18750 11900
Wire Wire Line
	18750 11900 18250 11900
Wire Wire Line
	18250 11900 18250 12000
$Comp
L power:GND #PWR?
U 1 1 5C17C8AE
P 19400 12300
F 0 "#PWR?" H 19400 12050 50  0001 C CNN
F 1 "GND" H 19405 12127 50  0000 C CNN
F 2 "" H 19400 12300 50  0001 C CNN
F 3 "" H 19400 12300 50  0001 C CNN
	1    19400 12300
	1    0    0    -1  
$EndComp
$Comp
L power:GND #PWR?
U 1 1 5C17C93C
P 19400 11400
F 0 "#PWR?" H 19400 11150 50  0001 C CNN
F 1 "GND" H 19405 11227 50  0000 C CNN
F 2 "" H 19400 11400 50  0001 C CNN
F 3 "" H 19400 11400 50  0001 C CNN
	1    19400 11400
	-1   0    0    1   
$EndComp
$Comp
L Device:R R?
U 1 1 5C17CA60
P 17600 13400
F 0 "R?" V 17393 13400 50  0000 C CNN
F 1 "10k" V 17484 13400 50  0000 C CNN
F 2 "" V 17530 13400 50  0001 C CNN
F 3 "~" H 17600 13400 50  0001 C CNN
	1    17600 13400
	0    1    1    0   
$EndComp
$Comp
L Device:C C?
U 1 1 5C17CB63
P 17300 13400
F 0 "C?" V 17048 13400 50  0000 C CNN
F 1 "1uF" V 17139 13400 50  0000 C CNN
F 2 "" H 17338 13250 50  0001 C CNN
F 3 "~" H 17300 13400 50  0001 C CNN
	1    17300 13400
	0    1    1    0   
$EndComp
Wire Wire Line
	17850 12950 17850 13400
Wire Wire Line
	17850 13400 17750 13400
$Comp
L power:GND #PWR?
U 1 1 5C182105
P 17950 12950
F 0 "#PWR?" H 17950 12700 50  0001 C CNN
F 1 "GND" H 17955 12777 50  0000 C CNN
F 2 "" H 17950 12950 50  0001 C CNN
F 3 "" H 17950 12950 50  0001 C CNN
	1    17950 12950
	1    0    0    -1  
$EndComp
Text Label 17650 13800 2    50   ~ 0
Shutdown_PAM
$Comp
L Device:C C?
U 1 1 5C184E80
P 18250 13400
F 0 "C?" V 18502 13400 50  0000 C CNN
F 1 "1uF" V 18411 13400 50  0000 C CNN
F 2 "" H 18288 13250 50  0001 C CNN
F 3 "~" H 18250 13400 50  0001 C CNN
	1    18250 13400
	0    -1   -1   0   
$EndComp
$Comp
L Device:C C?
U 1 1 5C184FF2
P 18250 13650
F 0 "C?" V 18400 13650 50  0000 C CNN
F 1 "10uF" V 18150 13650 50  0000 C CNN
F 2 "" H 18288 13500 50  0001 C CNN
F 3 "~" H 18250 13650 50  0001 C CNN
	1    18250 13650
	0    1    1    0   
$EndComp
$Comp
L Device:C C?
U 1 1 5C185591
P 19400 13500
F 0 "C?" H 19515 13546 50  0000 L CNN
F 1 "220pF" H 19515 13455 50  0000 L CNN
F 2 "" H 19438 13350 50  0001 C CNN
F 3 "~" H 19400 13500 50  0001 C CNN
	1    19400 13500
	1    0    0    -1  
$EndComp
$Comp
L Device:C C?
U 1 1 5C185689
P 19400 12900
F 0 "C?" H 19515 12946 50  0000 L CNN
F 1 "220pF" H 19515 12855 50  0000 L CNN
F 2 "" H 19438 12750 50  0001 C CNN
F 3 "~" H 19400 12900 50  0001 C CNN
	1    19400 12900
	1    0    0    -1  
$EndComp
$Comp
L Device:Speaker LS?
U 1 1 5C185744
P 19650 13150
F 0 "LS?" H 19820 13146 50  0000 L CNN
F 1 "Speaker" H 19820 13055 50  0000 L CNN
F 2 "" H 19650 12950 50  0001 C CNN
F 3 "~" H 19640 13100 50  0001 C CNN
	1    19650 13150
	1    0    0    -1  
$EndComp
Wire Wire Line
	19400 13050 19450 13050
Wire Wire Line
	19450 13050 19450 13150
Wire Wire Line
	19450 13250 19450 13350
Wire Wire Line
	19450 13350 19400 13350
Connection ~ 19400 13350
Connection ~ 19400 13050
Wire Wire Line
	18450 12950 18450 13050
Wire Wire Line
	18150 12950 18150 13300
Wire Wire Line
	18150 13300 18100 13300
Wire Wire Line
	18100 13300 18100 13400
Wire Wire Line
	18100 13400 18100 13650
Connection ~ 18100 13400
$Comp
L power:+5V #PWR?
U 1 1 5C1A1628
P 18100 13800
F 0 "#PWR?" H 18100 13650 50  0001 C CNN
F 1 "+5V" H 18115 13973 50  0000 C CNN
F 2 "" H 18100 13800 50  0001 C CNN
F 3 "" H 18100 13800 50  0001 C CNN
	1    18100 13800
	-1   0    0    1   
$EndComp
$Comp
L power:GND #PWR?
U 1 1 5C1A1746
P 18400 13800
F 0 "#PWR?" H 18400 13550 50  0001 C CNN
F 1 "GND" H 18405 13627 50  0000 C CNN
F 2 "" H 18400 13800 50  0001 C CNN
F 3 "" H 18400 13800 50  0001 C CNN
	1    18400 13800
	1    0    0    -1  
$EndComp
Wire Wire Line
	18100 13650 18100 13800
Connection ~ 18100 13650
Wire Wire Line
	18400 13400 18400 13650
Connection ~ 18400 13650
Wire Wire Line
	18400 13650 18400 13800
Wire Wire Line
	18350 12950 18350 13300
Wire Wire Line
	18350 13300 18400 13300
Wire Wire Line
	18400 13300 18400 13400
Connection ~ 18400 13400
Wire Wire Line
	18250 12950 18250 13100
Wire Wire Line
	18250 13100 18700 13100
Wire Wire Line
	18700 13100 18700 13350
$Comp
L power:GND #PWR?
U 1 1 5C1AF907
P 19400 12750
F 0 "#PWR?" H 19400 12500 50  0001 C CNN
F 1 "GND" H 19405 12577 50  0000 C CNN
F 2 "" H 19400 12750 50  0001 C CNN
F 3 "" H 19400 12750 50  0001 C CNN
	1    19400 12750
	-1   0    0    1   
$EndComp
$Comp
L power:GND #PWR?
U 1 1 5C1AFA25
P 19400 13650
F 0 "#PWR?" H 19400 13400 50  0001 C CNN
F 1 "GND" H 19405 13477 50  0000 C CNN
F 2 "" H 19400 13650 50  0001 C CNN
F 3 "" H 19400 13650 50  0001 C CNN
	1    19400 13650
	1    0    0    -1  
$EndComp
Text Notes 15150 8950 0    50   ~ 0
Signal entre 0 et 5V ou entre -5V et 5V ?
Text Label 17550 7850 0    50   ~ 0
SIM800_AUDIO+
Text Label 17550 7950 0    50   ~ 0
SIM800_AUDIO-
Text Label 11600 5900 2    50   ~ 0
SIM800_TX
Text Label 11600 6000 2    50   ~ 0
SIM800_RX
Text Label 11550 5500 2    50   ~ 0
SIM800_RI
$Comp
L power:+BATT #PWR?
U 1 1 5C23A04D
P 13250 5100
F 0 "#PWR?" H 13250 4950 50  0001 C CNN
F 1 "+BATT" V 13265 5228 50  0000 L CNN
F 2 "" H 13250 5100 50  0001 C CNN
F 3 "" H 13250 5100 50  0001 C CNN
	1    13250 5100
	0    1    1    0   
$EndComp
$Comp
L Device:R R?
U 1 1 5C23C53A
P 12100 5900
F 0 "R?" V 12000 5900 50  0000 C CNN
F 1 "1k" V 12100 5900 50  0000 C CNN
F 2 "" V 12030 5900 50  0001 C CNN
F 3 "~" H 12100 5900 50  0001 C CNN
	1    12100 5900
	0    1    1    0   
$EndComp
$Comp
L Device:R R?
U 1 1 5C23C712
P 12100 6000
F 0 "R?" V 12200 6000 50  0000 C CNN
F 1 "1k" V 12100 6000 50  0000 C CNN
F 2 "" V 12030 6000 50  0001 C CNN
F 3 "~" H 12100 6000 50  0001 C CNN
	1    12100 6000
	0    1    1    0   
$EndComp
$Comp
L Device:R R?
U 1 1 5C23CEB0
P 11750 6200
F 0 "R?" H 11820 6246 50  0000 L CNN
F 1 "5.6k" H 11820 6155 50  0000 L CNN
F 2 "" V 11680 6200 50  0001 C CNN
F 3 "~" H 11750 6200 50  0001 C CNN
	1    11750 6200
	1    0    0    -1  
$EndComp
Wire Wire Line
	11600 6000 11750 6000
Wire Wire Line
	11750 6050 11750 6000
Connection ~ 11750 6000
Wire Wire Line
	11750 6000 11950 6000
$Comp
L power:GND #PWR?
U 1 1 5C244C0C
P 11750 6350
F 0 "#PWR?" H 11750 6100 50  0001 C CNN
F 1 "GND" H 11755 6177 50  0000 C CNN
F 2 "" H 11750 6350 50  0001 C CNN
F 3 "" H 11750 6350 50  0001 C CNN
	1    11750 6350
	1    0    0    -1  
$EndComp
Wire Wire Line
	11600 5900 11950 5900
$Comp
L Device:R R?
U 1 1 5C2493E6
P 12100 5500
F 0 "R?" V 12000 5500 50  0000 C CNN
F 1 "1k" V 12100 5500 50  0000 C CNN
F 2 "" V 12030 5500 50  0001 C CNN
F 3 "~" H 12100 5500 50  0001 C CNN
	1    12100 5500
	0    1    1    0   
$EndComp
$Comp
L io-rescue:SMF05C-smf05c U?
U 1 1 5C25BB0B
P 15600 4500
F 0 "U?" H 15600 4865 50  0000 C CNN
F 1 "SMF05C" H 15600 4774 50  0000 C CNN
F 2 "" H 15600 4500 50  0001 C CNN
F 3 "" H 15600 4500 50  0001 C CNN
	1    15600 4500
	1    0    0    -1  
$EndComp
$Comp
L Device:R R?
U 1 1 5C25BEDA
P 17050 5350
F 0 "R?" V 16950 5350 50  0000 C CNN
F 1 "51R" V 17050 5350 50  0000 C CNN
F 2 "" V 16980 5350 50  0001 C CNN
F 3 "~" H 17050 5350 50  0001 C CNN
	1    17050 5350
	0    -1   -1   0   
$EndComp
$Comp
L Device:R R?
U 1 1 5C25C2B9
P 17050 4950
F 0 "R?" V 16950 4950 50  0000 C CNN
F 1 "51R" V 17050 4950 50  0000 C CNN
F 2 "" V 16980 4950 50  0001 C CNN
F 3 "~" H 17050 4950 50  0001 C CNN
	1    17050 4950
	0    1    1    0   
$EndComp
$Comp
L Device:R R?
U 1 1 5C25C530
P 16750 5050
F 0 "R?" V 16850 5050 50  0000 C CNN
F 1 "51R" V 16750 5050 50  0000 C CNN
F 2 "" V 16680 5050 50  0001 C CNN
F 3 "~" H 16750 5050 50  0001 C CNN
	1    16750 5050
	0    1    1    0   
$EndComp
$Comp
L Device:C C?
U 1 1 5C26DF04
P 16700 5500
F 0 "C?" H 16815 5546 50  0000 L CNN
F 1 "22pF" H 16815 5455 50  0000 L CNN
F 2 "" H 16738 5350 50  0001 C CNN
F 3 "~" H 16700 5500 50  0001 C CNN
	1    16700 5500
	1    0    0    -1  
$EndComp
$Comp
L power:GND #PWR?
U 1 1 5C26E0C6
P 16700 5650
F 0 "#PWR?" H 16700 5400 50  0001 C CNN
F 1 "GND" H 16705 5477 50  0000 C CNN
F 2 "" H 16700 5650 50  0001 C CNN
F 3 "" H 16700 5650 50  0001 C CNN
	1    16700 5650
	1    0    0    -1  
$EndComp
$Comp
L Device:C C?
U 1 1 5C26E17F
P 16800 4650
F 0 "C?" H 16915 4696 50  0000 L CNN
F 1 "100nF" H 16915 4605 50  0000 L CNN
F 2 "" H 16838 4500 50  0001 C CNN
F 3 "~" H 16800 4650 50  0001 C CNN
	1    16800 4650
	1    0    0    -1  
$EndComp
$Comp
L power:GND #PWR?
U 1 1 5C26E346
P 16800 4500
F 0 "#PWR?" H 16800 4250 50  0001 C CNN
F 1 "GND" H 16805 4327 50  0000 C CNN
F 2 "" H 16800 4500 50  0001 C CNN
F 3 "" H 16800 4500 50  0001 C CNN
	1    16800 4500
	-1   0    0    1   
$EndComp
Wire Wire Line
	17150 5050 16900 5050
Wire Wire Line
	17200 4850 17200 4800
Wire Wire Line
	17200 4800 16800 4800
Connection ~ 16800 4800
Wire Wire Line
	16800 4800 16650 4800
Wire Wire Line
	16900 5350 16700 5350
Connection ~ 16700 5350
$Comp
L power:GND #PWR?
U 1 1 5C28207F
P 15150 4500
F 0 "#PWR?" H 15150 4250 50  0001 C CNN
F 1 "GND" V 15155 4372 50  0000 R CNN
F 2 "" H 15150 4500 50  0001 C CNN
F 3 "" H 15150 4500 50  0001 C CNN
	1    15150 4500
	0    1    1    0   
$EndComp
Wire Wire Line
	16050 4400 16350 4400
Wire Wire Line
	16650 4400 16650 4800
Wire Wire Line
	16900 4950 16500 4950
Wire Wire Line
	16500 4950 16500 4500
Wire Wire Line
	16500 4500 16050 4500
Wire Wire Line
	16600 5050 16050 5050
Wire Wire Line
	16050 5050 16050 4600
Wire Wire Line
	15150 5350 15150 4600
Wire Wire Line
	15150 5350 16700 5350
NoConn ~ 15150 4400
NoConn ~ 17200 5250
NoConn ~ 13850 6200
$Comp
L power:GND #PWR?
U 1 1 5C2C505A
P 14450 5200
F 0 "#PWR?" H 14450 4950 50  0001 C CNN
F 1 "GND" H 14455 5027 50  0000 C CNN
F 2 "" H 14450 5200 50  0001 C CNN
F 3 "" H 14450 5200 50  0001 C CNN
	1    14450 5200
	0    -1   -1   0   
$EndComp
NoConn ~ 12250 6700
NoConn ~ 12250 6300
NoConn ~ 12250 6200
NoConn ~ 12250 5800
NoConn ~ 12250 5700
NoConn ~ 12250 5600
NoConn ~ 13850 6900
NoConn ~ 13850 5500
NoConn ~ 13850 5600
$Comp
L Connector:USB_B_Micro J?
U 1 1 5C3148B5
P 15650 6950
F 0 "J?" H 15421 6848 50  0000 R CNN
F 1 "USB_B_Micro" H 15421 6939 50  0000 R CNN
F 2 "" H 15800 6900 50  0001 C CNN
F 3 "~" H 15800 6900 50  0001 C CNN
	1    15650 6950
	-1   0    0    1   
$EndComp
Wire Wire Line
	13850 8050 14350 8050
$Comp
L power:GND #PWR?
U 1 1 5C392BC1
P 15700 6550
F 0 "#PWR?" H 15700 6300 50  0001 C CNN
F 1 "GND" H 15705 6377 50  0000 C CNN
F 2 "" H 15700 6550 50  0001 C CNN
F 3 "" H 15700 6550 50  0001 C CNN
	1    15700 6550
	-1   0    0    1   
$EndComp
Wire Wire Line
	15150 5900 13850 5900
Wire Wire Line
	15150 5350 15150 5900
Connection ~ 15150 5350
Wire Wire Line
	16050 6000 13850 6000
Wire Wire Line
	16050 5050 16050 6000
Connection ~ 16050 5050
Connection ~ 15700 6550
Wire Wire Line
	15650 6550 15700 6550
Wire Wire Line
	15700 6550 15750 6550
Wire Wire Line
	15350 7150 14750 7150
Wire Wire Line
	13850 6400 14750 6400
Wire Wire Line
	14750 6400 14750 7150
Wire Wire Line
	15100 6500 15100 6950
Wire Wire Line
	15100 6950 15350 6950
Wire Wire Line
	15350 6850 14300 6850
Wire Wire Line
	14300 6600 13850 6600
Wire Wire Line
	14300 6600 14300 6850
Wire Wire Line
	13850 6500 15100 6500
NoConn ~ 15350 6750
Wire Wire Line
	16500 4950 16500 6100
Wire Wire Line
	13850 6100 16500 6100
Connection ~ 16500 4950
Wire Wire Line
	13850 8050 13850 7200
Wire Wire Line
	13850 7100 13950 7100
Wire Wire Line
	13950 7100 13950 7750
Wire Wire Line
	13850 5800 14800 5800
Wire Wire Line
	14800 5800 14800 4000
Wire Wire Line
	16350 4000 16350 4400
Wire Wire Line
	14800 4000 16350 4000
Connection ~ 16350 4400
Wire Wire Line
	16350 4400 16650 4400
NoConn ~ 13050 5200
$Comp
L Device:CP C?
U 1 1 5C40BF8E
P 12600 4800
F 0 "C?" H 12550 4700 50  0000 R CNN
F 1 "100uF" H 12500 4900 50  0000 R CNN
F 2 "" H 12638 4650 50  0001 C CNN
F 3 "~" H 12600 4800 50  0001 C CNN
	1    12600 4800
	-1   0    0    1   
$EndComp
$Comp
L Device:C C?
U 1 1 5C40C069
P 12950 4800
F 0 "C?" H 13000 4900 50  0000 L CNN
F 1 "10uF" H 13000 4700 50  0000 L CNN
F 2 "" H 12988 4650 50  0001 C CNN
F 3 "~" H 12950 4800 50  0001 C CNN
	1    12950 4800
	1    0    0    -1  
$EndComp
$Comp
L Device:C C?
U 1 1 5C40C129
P 13250 4800
F 0 "C?" H 13300 4900 50  0000 L CNN
F 1 "33pF" H 13300 4700 50  0000 L CNN
F 2 "" H 13288 4650 50  0001 C CNN
F 3 "~" H 13250 4800 50  0001 C CNN
	1    13250 4800
	1    0    0    -1  
$EndComp
$Comp
L Device:C C?
U 1 1 5C40C238
P 13550 4800
F 0 "C?" H 13600 4900 50  0000 L CNN
F 1 "10pF" H 13600 4700 50  0000 L CNN
F 2 "" H 13588 4650 50  0001 C CNN
F 3 "~" H 13550 4800 50  0001 C CNN
	1    13550 4800
	1    0    0    -1  
$EndComp
$Comp
L Device:D_Zener D?
U 1 1 5C40C349
P 13850 4800
F 0 "D?" V 13950 4750 50  0000 R CNN
F 1 "5.1V 0,5W" V 13750 4750 50  0000 R CNN
F 2 "" H 13850 4800 50  0001 C CNN
F 3 "~" H 13850 4800 50  0001 C CNN
	1    13850 4800
	0    -1   -1   0   
$EndComp
Wire Wire Line
	13850 5400 14250 5400
Wire Wire Line
	12600 4650 12950 4650
Connection ~ 12950 4650
Wire Wire Line
	12950 4650 13250 4650
Connection ~ 13250 4650
Wire Wire Line
	13250 4650 13550 4650
Connection ~ 13550 4650
Wire Wire Line
	13550 4650 13850 4650
$Comp
L power:GND #PWR?
U 1 1 5C42D419
P 13250 4500
F 0 "#PWR?" H 13250 4250 50  0001 C CNN
F 1 "GND" H 13255 4327 50  0000 C CNN
F 2 "" H 13250 4500 50  0001 C CNN
F 3 "" H 13250 4500 50  0001 C CNN
	1    13250 4500
	-1   0    0    1   
$EndComp
Wire Wire Line
	13250 4500 13250 4650
Wire Wire Line
	12600 4950 12950 4950
Connection ~ 12950 4950
Wire Wire Line
	12950 4950 13250 4950
Connection ~ 13250 4950
Wire Wire Line
	13250 4950 13550 4950
Connection ~ 13550 4950
Wire Wire Line
	13550 4950 13850 4950
Wire Wire Line
	13250 5200 13250 5100
Connection ~ 13250 5100
Wire Wire Line
	13250 5100 13250 4950
$Comp
L Device:R R?
U 1 1 5C44B36D
P 12100 6500
F 0 "R?" V 12000 6500 50  0000 C CNN
F 1 "1k" V 12100 6500 50  0000 C CNN
F 2 "" V 12030 6500 50  0001 C CNN
F 3 "~" H 12100 6500 50  0001 C CNN
	1    12100 6500
	0    1    1    0   
$EndComp
Text Label 11950 6500 3    50   ~ 0
PWRKEY
Wire Notes Line
	18800 9050 9650 9050
Wire Notes Line
	9650 9050 9650 3800
Wire Notes Line
	9650 3800 18800 3800
Wire Notes Line
	18800 3800 18800 9050
$Comp
L power:+3.3V #PWR?
U 1 1 5C26702E
P 17700 13000
F 0 "#PWR?" H 17700 12850 50  0001 C CNN
F 1 "+3.3V" V 17715 13128 50  0000 L CNN
F 2 "" H 17700 13000 50  0001 C CNN
F 3 "" H 17700 13000 50  0001 C CNN
	1    17700 13000
	0    -1   -1   0   
$EndComp
Wire Wire Line
	17700 13000 17750 13000
Wire Wire Line
	17750 13000 17750 12950
Text Notes 17000 12800 0    50   ~ 0
High: Class-D\n
$Comp
L Device:R R?
U 1 1 5C26F811
P 17800 13950
F 0 "R?" H 17870 13996 50  0000 L CNN
F 1 "100k" V 17800 13850 50  0000 L CNN
F 2 "" V 17730 13950 50  0001 C CNN
F 3 "~" H 17800 13950 50  0001 C CNN
	1    17800 13950
	1    0    0    -1  
$EndComp
$Comp
L power:GND #PWR?
U 1 1 5C26FB99
P 17800 14100
F 0 "#PWR?" H 17800 13850 50  0001 C CNN
F 1 "GND" H 17805 13927 50  0000 C CNN
F 2 "" H 17800 14100 50  0001 C CNN
F 3 "" H 17800 14100 50  0001 C CNN
	1    17800 14100
	1    0    0    -1  
$EndComp
Wire Wire Line
	18050 13800 17800 13800
Wire Wire Line
	18050 12950 18050 13800
Connection ~ 17800 13800
Wire Wire Line
	17800 13800 17650 13800
$Comp
L Interface_Expansion:PCF8574 U?
U 1 1 5C243E0B
P 11250 14150
F 0 "U?" H 11250 14150 50  0000 C CNN
F 1 "PCF8574" H 11150 13900 50  0000 C CNN
F 2 "" H 11250 14150 50  0001 C CNN
F 3 "http://www.nxp.com/documents/data_sheet/PCF8574_PCF8574A.pdf" H 11250 14150 50  0001 C CNN
	1    11250 14150
	1    0    0    -1  
$EndComp
$Comp
L Interface_Expansion:TCA9548APWR U?
U 1 1 5C243F44
P 7300 11100
F 0 "U?" H 7300 11150 50  0000 C CNN
F 1 "TCA9548APWR" H 7300 12400 50  0000 C CNN
F 2 "Package_SO:TSSOP-24_4.4x7.8mm_P0.65mm" H 7300 10100 50  0001 C CNN
F 3 "http://www.ti.com/lit/ds/symlink/tca9548a.pdf" H 7350 11350 50  0001 C CNN
	1    7300 11100
	1    0    0    -1  
$EndComp
$Comp
L power:GND #PWR?
U 1 1 5C2457F1
P 6900 11500
F 0 "#PWR?" H 6900 11250 50  0001 C CNN
F 1 "GND" V 6905 11372 50  0000 R CNN
F 2 "" H 6900 11500 50  0001 C CNN
F 3 "" H 6900 11500 50  0001 C CNN
	1    6900 11500
	0    1    1    0   
$EndComp
$Comp
L power:GND #PWR?
U 1 1 5C245909
P 7300 12100
F 0 "#PWR?" H 7300 11850 50  0001 C CNN
F 1 "GND" H 7305 11927 50  0000 C CNN
F 2 "" H 7300 12100 50  0001 C CNN
F 3 "" H 7300 12100 50  0001 C CNN
	1    7300 12100
	1    0    0    -1  
$EndComp
$Comp
L power:+3.3V #PWR?
U 1 1 5C2459E4
P 7300 10200
F 0 "#PWR?" H 7300 10050 50  0001 C CNN
F 1 "+3.3V" H 7315 10373 50  0000 C CNN
F 2 "" H 7300 10200 50  0001 C CNN
F 3 "" H 7300 10200 50  0001 C CNN
	1    7300 10200
	1    0    0    -1  
$EndComp
Wire Wire Line
	6900 11400 6900 11500
Connection ~ 6900 11500
Wire Wire Line
	6900 11500 6900 11600
Text Label 10750 13750 2    50   ~ 0
SCL_PCF8574
Text Label 10750 13850 2    50   ~ 0
SDA_PCF8574
$Comp
L power:GND #PWR?
U 1 1 5C24F187
P 10700 14150
F 0 "#PWR?" H 10700 13900 50  0001 C CNN
F 1 "GND" V 10705 14022 50  0000 R CNN
F 2 "" H 10700 14150 50  0001 C CNN
F 3 "" H 10700 14150 50  0001 C CNN
	1    10700 14150
	0    1    1    0   
$EndComp
Wire Wire Line
	10750 14050 10750 14150
Connection ~ 10750 14150
Wire Wire Line
	10750 14150 10750 14250
Wire Wire Line
	10700 14150 10750 14150
$Comp
L power:GND #PWR?
U 1 1 5C25FB42
P 11250 14850
F 0 "#PWR?" H 11250 14600 50  0001 C CNN
F 1 "GND" H 11255 14677 50  0000 C CNN
F 2 "" H 11250 14850 50  0001 C CNN
F 3 "" H 11250 14850 50  0001 C CNN
	1    11250 14850
	1    0    0    -1  
$EndComp
$Comp
L power:+3.3V #PWR?
U 1 1 5C25FE4D
P 11250 13450
F 0 "#PWR?" H 11250 13300 50  0001 C CNN
F 1 "+3.3V" H 11265 13623 50  0000 C CNN
F 2 "" H 11250 13450 50  0001 C CNN
F 3 "" H 11250 13450 50  0001 C CNN
	1    11250 13450
	1    0    0    -1  
$EndComp
Text GLabel 6200 10500 0    50   BiDi ~ 0
SDA
Text GLabel 6700 10400 0    50   BiDi ~ 0
SCL
Text Label 7800 10400 0    50   ~ 0
SCL_PCF8574
Text Label 8450 10500 0    50   ~ 0
SDA_PCF8574
Text Label 14950 2700 0    50   ~ 0
SDA_MAX30100
Text Label 14950 2800 0    50   ~ 0
SCL_MAX30100
Text Label 9100 10600 0    50   ~ 0
SCL_MAX30100
Text Label 9850 10700 0    50   ~ 0
SDA_MAX30100
Text Label 10550 10800 0    50   ~ 0
SCL_RPI
Text Label 11000 10900 0    50   ~ 0
SDA_RPI
Text Label 2850 8000 0    50   ~ 0
SDA_RPI
Text Label 2850 8100 0    50   ~ 0
SCL_RPI
Text Label 11750 13750 0    50   ~ 0
Shutdown_PAM
Text Label 11750 13850 0    50   ~ 0
PWRKEY
Text Label 11750 13950 0    50   ~ 0
MUTE
$Comp
L Device:R R?
U 1 1 5C267EB5
P 6750 10900
F 0 "R?" V 6650 10900 50  0000 C CNN
F 1 "100k" V 6750 10900 50  0000 C CNN
F 2 "" V 6680 10900 50  0001 C CNN
F 3 "~" H 6750 10900 50  0001 C CNN
	1    6750 10900
	0    1    1    0   
$EndComp
$Comp
L power:+3.3V #PWR?
U 1 1 5C268296
P 6600 10900
F 0 "#PWR?" H 6600 10750 50  0001 C CNN
F 1 "+3.3V" V 6615 11028 50  0000 L CNN
F 2 "" H 6600 10900 50  0001 C CNN
F 3 "" H 6600 10900 50  0001 C CNN
	1    6600 10900
	0    -1   -1   0   
$EndComp
$Comp
L Device:R R?
U 1 1 5C2685F8
P 7750 10250
F 0 "R?" H 7820 10296 50  0000 L CNN
F 1 "100k" V 7750 10150 50  0000 L CNN
F 2 "" V 7680 10250 50  0001 C CNN
F 3 "~" H 7750 10250 50  0001 C CNN
	1    7750 10250
	1    0    0    -1  
$EndComp
$Comp
L Device:R R?
U 1 1 5C268B07
P 8400 10350
F 0 "R?" H 8470 10396 50  0000 L CNN
F 1 "100k" V 8400 10250 50  0000 L CNN
F 2 "" V 8330 10350 50  0001 C CNN
F 3 "~" H 8400 10350 50  0001 C CNN
	1    8400 10350
	1    0    0    -1  
$EndComp
$Comp
L Device:R R?
U 1 1 5C268BE1
P 9050 10450
F 0 "R?" H 9120 10496 50  0000 L CNN
F 1 "100k" V 9050 10350 50  0000 L CNN
F 2 "" V 8980 10450 50  0001 C CNN
F 3 "~" H 9050 10450 50  0001 C CNN
	1    9050 10450
	1    0    0    -1  
$EndComp
Wire Wire Line
	7800 10400 7750 10400
Connection ~ 7750 10400
Wire Wire Line
	7750 10400 7700 10400
Wire Wire Line
	7700 10500 8400 10500
Wire Wire Line
	8400 10500 8450 10500
Connection ~ 8400 10500
Wire Wire Line
	7700 10600 9050 10600
Wire Wire Line
	9050 10600 9100 10600
Connection ~ 9050 10600
$Comp
L Device:R R?
U 1 1 5C296005
P 9800 10550
F 0 "R?" H 9870 10596 50  0000 L CNN
F 1 "100k" V 9800 10450 50  0000 L CNN
F 2 "" V 9730 10550 50  0001 C CNN
F 3 "~" H 9800 10550 50  0001 C CNN
	1    9800 10550
	1    0    0    -1  
$EndComp
Wire Wire Line
	7700 10700 9800 10700
Connection ~ 9800 10700
Wire Wire Line
	9800 10700 9850 10700
$Comp
L Device:R R?
U 1 1 5C29FA8A
P 10500 10650
F 0 "R?" H 10570 10696 50  0000 L CNN
F 1 "100k" V 10500 10550 50  0000 L CNN
F 2 "" V 10430 10650 50  0001 C CNN
F 3 "~" H 10500 10650 50  0001 C CNN
	1    10500 10650
	1    0    0    -1  
$EndComp
Wire Wire Line
	7700 10800 10500 10800
Connection ~ 10500 10800
Wire Wire Line
	10500 10800 10550 10800
$Comp
L Device:R R?
U 1 1 5C2A97D9
P 10950 10750
F 0 "R?" H 11020 10796 50  0000 L CNN
F 1 "100k" V 10950 10650 50  0000 L CNN
F 2 "" V 10880 10750 50  0001 C CNN
F 3 "~" H 10950 10750 50  0001 C CNN
	1    10950 10750
	1    0    0    -1  
$EndComp
Wire Wire Line
	7700 10900 10950 10900
Connection ~ 10950 10900
Wire Wire Line
	10950 10900 11000 10900
$Comp
L power:+3.3V #PWR?
U 1 1 5C2B3A14
P 10950 10600
F 0 "#PWR?" H 10950 10450 50  0001 C CNN
F 1 "+3.3V" H 10965 10773 50  0000 C CNN
F 2 "" H 10950 10600 50  0001 C CNN
F 3 "" H 10950 10600 50  0001 C CNN
	1    10950 10600
	1    0    0    -1  
$EndComp
$Comp
L power:+3.3V #PWR?
U 1 1 5C2B3AE8
P 10500 10500
F 0 "#PWR?" H 10500 10350 50  0001 C CNN
F 1 "+3.3V" H 10515 10673 50  0000 C CNN
F 2 "" H 10500 10500 50  0001 C CNN
F 3 "" H 10500 10500 50  0001 C CNN
	1    10500 10500
	1    0    0    -1  
$EndComp
$Comp
L power:+3.3V #PWR?
U 1 1 5C2B3BBC
P 9800 10400
F 0 "#PWR?" H 9800 10250 50  0001 C CNN
F 1 "+3.3V" H 9815 10573 50  0000 C CNN
F 2 "" H 9800 10400 50  0001 C CNN
F 3 "" H 9800 10400 50  0001 C CNN
	1    9800 10400
	1    0    0    -1  
$EndComp
$Comp
L power:+3.3V #PWR?
U 1 1 5C2B3C90
P 9050 10300
F 0 "#PWR?" H 9050 10150 50  0001 C CNN
F 1 "+3.3V" H 9065 10473 50  0000 C CNN
F 2 "" H 9050 10300 50  0001 C CNN
F 3 "" H 9050 10300 50  0001 C CNN
	1    9050 10300
	1    0    0    -1  
$EndComp
$Comp
L power:+3.3V #PWR?
U 1 1 5C2B3D64
P 8400 10200
F 0 "#PWR?" H 8400 10050 50  0001 C CNN
F 1 "+3.3V" H 8415 10373 50  0000 C CNN
F 2 "" H 8400 10200 50  0001 C CNN
F 3 "" H 8400 10200 50  0001 C CNN
	1    8400 10200
	1    0    0    -1  
$EndComp
$Comp
L power:+3.3V #PWR?
U 1 1 5C2B3E38
P 7750 10100
F 0 "#PWR?" H 7750 9950 50  0001 C CNN
F 1 "+3.3V" H 7765 10273 50  0000 C CNN
F 2 "" H 7750 10100 50  0001 C CNN
F 3 "" H 7750 10100 50  0001 C CNN
	1    7750 10100
	1    0    0    -1  
$EndComp
Text Label 13850 6800 0    50   ~ 0
STATUS
Text Label 3300 13500 0    50   ~ 0
STATUS
Text Label 3300 13600 0    50   ~ 0
LO-
Text Label 3300 15000 0    50   ~ 0
LO+
$Comp
L Device:R R?
U 1 1 5C2B83E8
P 6800 10250
F 0 "R?" H 6870 10296 50  0000 L CNN
F 1 "100k" V 6800 10150 50  0000 L CNN
F 2 "" V 6730 10250 50  0001 C CNN
F 3 "~" H 6800 10250 50  0001 C CNN
	1    6800 10250
	1    0    0    -1  
$EndComp
$Comp
L Device:R R?
U 1 1 5C2B8AAF
P 6300 10350
F 0 "R?" H 6370 10396 50  0000 L CNN
F 1 "100k" V 6300 10250 50  0000 L CNN
F 2 "" V 6230 10350 50  0001 C CNN
F 3 "~" H 6300 10350 50  0001 C CNN
	1    6300 10350
	1    0    0    -1  
$EndComp
Wire Wire Line
	6700 10400 6800 10400
Connection ~ 6800 10400
Wire Wire Line
	6800 10400 6900 10400
Wire Wire Line
	6200 10500 6300 10500
Connection ~ 6300 10500
Wire Wire Line
	6300 10500 6900 10500
$Comp
L power:+3.3V #PWR?
U 1 1 5C2CDD91
P 6300 10200
F 0 "#PWR?" H 6300 10050 50  0001 C CNN
F 1 "+3.3V" H 6315 10373 50  0000 C CNN
F 2 "" H 6300 10200 50  0001 C CNN
F 3 "" H 6300 10200 50  0001 C CNN
	1    6300 10200
	1    0    0    -1  
$EndComp
$Comp
L power:+3.3V #PWR?
U 1 1 5C2CDE69
P 6800 10100
F 0 "#PWR?" H 6800 9950 50  0001 C CNN
F 1 "+3.3V" H 6815 10273 50  0000 C CNN
F 2 "" H 6800 10100 50  0001 C CNN
F 3 "" H 6800 10100 50  0001 C CNN
	1    6800 10100
	1    0    0    -1  
$EndComp
Text Notes 18300 7850 0    50   ~ 0
Sortie différentielle (differential = balanced audio)
$Comp
L Connector:Conn_01x05_Male J?
U 1 1 5C2E4423
P 11950 14250
F 0 "J?" H 11923 14180 50  0000 R CNN
F 1 "Conn_01x05_Male" H 11923 14271 50  0000 R CNN
F 2 "" H 11950 14250 50  0001 C CNN
F 3 "~" H 11950 14250 50  0001 C CNN
	1    11950 14250
	-1   0    0    1   
$EndComp
Text Notes 12200 14400 0    50   ~ 0
Vers carte moteur
$Comp
L Connector:Conn_01x04_Male J?
U 1 1 5C2E71F1
P 3250 4200
F 0 "J?" H 3356 4478 50  0000 C CNN
F 1 "Conn_01x04_Male" H 3356 4387 50  0000 C CNN
F 2 "" H 3250 4200 50  0001 C CNN
F 3 "~" H 3250 4200 50  0001 C CNN
	1    3250 4200
	1    0    0    -1  
$EndComp
$Comp
L power:GND #PWR?
U 1 1 5C2E76AA
P 3450 4100
F 0 "#PWR?" H 3450 3850 50  0001 C CNN
F 1 "GND" V 3455 3972 50  0000 R CNN
F 2 "" H 3450 4100 50  0001 C CNN
F 3 "" H 3450 4100 50  0001 C CNN
	1    3450 4100
	0    -1   -1   0   
$EndComp
$Comp
L power:+BATT #PWR?
U 1 1 5C2E78C7
P 3450 4200
F 0 "#PWR?" H 3450 4050 50  0001 C CNN
F 1 "+BATT" V 3465 4328 50  0000 L CNN
F 2 "" H 3450 4200 50  0001 C CNN
F 3 "" H 3450 4200 50  0001 C CNN
	1    3450 4200
	0    1    1    0   
$EndComp
$Comp
L power:+3.3V #PWR?
U 1 1 5C2E7A15
P 3450 4300
F 0 "#PWR?" H 3450 4150 50  0001 C CNN
F 1 "+3.3V" V 3465 4428 50  0000 L CNN
F 2 "" H 3450 4300 50  0001 C CNN
F 3 "" H 3450 4300 50  0001 C CNN
	1    3450 4300
	0    1    1    0   
$EndComp
$Comp
L power:+5V #PWR?
U 1 1 5C2E7CD0
P 3450 4400
F 0 "#PWR?" H 3450 4250 50  0001 C CNN
F 1 "+5V" V 3465 4528 50  0000 L CNN
F 2 "" H 3450 4400 50  0001 C CNN
F 3 "" H 3450 4400 50  0001 C CNN
	1    3450 4400
	0    1    1    0   
$EndComp
Wire Wire Line
	11550 5500 11950 5500
Text Label 3300 14000 0    50   ~ 0
SIM800_RI
Text Label 17150 13400 2    50   ~ 0
INR
Text Label 17350 11950 2    50   ~ 0
INL
$Comp
L Device:Ferrite_Bead_Small FB?
U 1 1 5C25C4C1
P 18950 13350
F 0 "FB?" V 19100 13350 50  0000 C CNN
F 1 "FB 120Ohm 2A" V 18800 13350 50  0000 C CNN
F 2 "" V 18880 13350 50  0001 C CNN
F 3 "~" H 18950 13350 50  0001 C CNN
	1    18950 13350
	0    -1   -1   0   
$EndComp
$Comp
L Device:Ferrite_Bead_Small FB?
U 1 1 5C25CDC5
P 18950 13050
F 0 "FB?" V 19200 13050 50  0000 C CNN
F 1 "FB 120Ohm 2A" V 19100 13050 50  0000 C CNN
F 2 "" V 18880 13050 50  0001 C CNN
F 3 "~" H 18950 13050 50  0001 C CNN
	1    18950 13050
	0    -1   -1   0   
$EndComp
$Comp
L Device:Ferrite_Bead_Small FB?
U 1 1 5C25D2E8
P 19000 11700
F 0 "FB?" V 19250 11700 50  0000 C CNN
F 1 "FB 120Ohm 2A" V 19150 11700 50  0000 C CNN
F 2 "" V 18930 11700 50  0001 C CNN
F 3 "~" H 19000 11700 50  0001 C CNN
	1    19000 11700
	0    -1   -1   0   
$EndComp
$Comp
L Device:Ferrite_Bead_Small FB?
U 1 1 5C25D3B4
P 19000 12000
F 0 "FB?" V 19150 12000 50  0000 C CNN
F 1 "FB 120Ohm 2A" V 18850 12000 50  0000 C CNN
F 2 "" V 18930 12000 50  0001 C CNN
F 3 "~" H 19000 12000 50  0001 C CNN
	1    19000 12000
	0    -1   -1   0   
$EndComp
Wire Wire Line
	19100 11700 19400 11700
Wire Wire Line
	18750 11700 18900 11700
Wire Wire Line
	18450 12000 18900 12000
Wire Wire Line
	19100 12000 19400 12000
Wire Wire Line
	19050 13050 19400 13050
Wire Wire Line
	18450 13050 18850 13050
Wire Wire Line
	18700 13350 18850 13350
Wire Wire Line
	19050 13350 19400 13350
$EndSCHEMATC
