EESchema Schematic File Version 4
LIBS:devboard_io-cache
EELAYER 26 0
EELAYER END
$Descr A3 16535 11693
encoding utf-8
Sheet 1 1
Title ""
Date ""
Rev ""
Comp ""
Comment1 ""
Comment2 ""
Comment3 ""
Comment4 ""
$EndDescr
$Comp
L devboard_io-rescue:ESP32-WROOM-32D-ESP32-WROOM-32D-sierros-rescue U6
U 1 1 5BFE5502
P 2900 5300
F 0 "U6" H 2900 6867 50  0000 C CNN
F 1 "ESP32-WROOM-32D" H 2900 6776 50  0000 C CNN
F 2 "ESP32-footprints-Lib:ESP32-WROOM" H 2900 5300 50  0001 L BNN
F 3 "IC: SoC; GPIO, I2C, I2S, IR, SD, SDIO, SPI, UART; 2.7÷3.6VDC; 20dBm" H 2900 5300 50  0001 L BNN
F 4 "None" H 2900 5300 50  0001 L BNN "Field4"
F 5 "ESP32-WROOM-32D" H 2900 5300 50  0001 L BNN "Field5"
F 6 "Unavailable" H 2900 5300 50  0001 L BNN "Field6"
F 7 "Espressif Systems" H 2900 5300 50  0001 L BNN "Field7"
F 8 "Module Espressif Systems" H 2900 5300 50  0001 L BNN "Field8"
	1    2900 5300
	1    0    0    -1  
$EndComp
$Comp
L power:+3.3V #PWR0101
U 1 1 5BFE6327
P 3600 4000
F 0 "#PWR0101" H 3600 3850 50  0001 C CNN
F 1 "+3.3V" H 3615 4173 50  0000 C CNN
F 2 "" H 3600 4000 50  0001 C CNN
F 3 "" H 3600 4000 50  0001 C CNN
	1    3600 4000
	1    0    0    -1  
$EndComp
$Comp
L power:+3.3V #PWR0102
U 1 1 5BFE6364
P 5850 1350
F 0 "#PWR0102" H 5850 1200 50  0001 C CNN
F 1 "+3.3V" V 5865 1478 50  0000 L CNN
F 2 "" H 5850 1350 50  0001 C CNN
F 3 "" H 5850 1350 50  0001 C CNN
	1    5850 1350
	1    0    0    -1  
$EndComp
$Comp
L power:+3.3V #PWR0103
U 1 1 5BFE6395
P 6850 1350
F 0 "#PWR0103" H 6850 1200 50  0001 C CNN
F 1 "+3.3V" V 6865 1478 50  0000 L CNN
F 2 "" H 6850 1350 50  0001 C CNN
F 3 "" H 6850 1350 50  0001 C CNN
	1    6850 1350
	1    0    0    -1  
$EndComp
$Comp
L power:GND #PWR0104
U 1 1 5BFE6406
P 6950 1350
F 0 "#PWR0104" H 6950 1100 50  0001 C CNN
F 1 "GND" H 6955 1177 50  0000 C CNN
F 2 "" H 6950 1350 50  0001 C CNN
F 3 "" H 6950 1350 50  0001 C CNN
	1    6950 1350
	-1   0    0    1   
$EndComp
$Comp
L power:GND #PWR0105
U 1 1 5BFE6443
P 5750 1350
F 0 "#PWR0105" H 5750 1100 50  0001 C CNN
F 1 "GND" H 5755 1177 50  0000 C CNN
F 2 "" H 5750 1350 50  0001 C CNN
F 3 "" H 5750 1350 50  0001 C CNN
	1    5750 1350
	-1   0    0    1   
$EndComp
$Comp
L power:GND #PWR0106
U 1 1 5BFE6486
P 3600 6600
F 0 "#PWR0106" H 3600 6350 50  0001 C CNN
F 1 "GND" H 3605 6427 50  0000 C CNN
F 2 "" H 3600 6600 50  0001 C CNN
F 3 "" H 3600 6600 50  0001 C CNN
	1    3600 6600
	1    0    0    -1  
$EndComp
Text Label 7250 1350 1    50   ~ 0
INT_MAX30100
Text Label 6050 1350 1    50   ~ 0
LO-
Text Label 6150 1350 1    50   ~ 0
LO+
Text Label 5950 1350 1    50   ~ 0
OUTPUT_ad8232
Text Label 6250 1350 1    50   ~ 0
SDN
$Comp
L power:+3.3V #PWR0107
U 1 1 5BFE6766
P 1350 4200
F 0 "#PWR0107" H 1350 4050 50  0001 C CNN
F 1 "+3.3V" V 1365 4328 50  0000 L CNN
F 2 "" H 1350 4200 50  0001 C CNN
F 3 "" H 1350 4200 50  0001 C CNN
	1    1350 4200
	0    -1   -1   0   
$EndComp
$Comp
L Switch:SW_Push SW2
U 1 1 5BFE6B5A
P 4150 3850
F 0 "SW2" H 4150 4135 50  0000 C CNN
F 1 "SW_Push" H 4150 4044 50  0000 C CNN
F 2 "push_smd:smd_4x4_push" H 4150 4050 50  0001 C CNN
F 3 "" H 4150 4050 50  0001 C CNN
	1    4150 3850
	1    0    0    -1  
$EndComp
Wire Wire Line
	3600 4200 3800 4200
$Comp
L power:GND #PWR0108
U 1 1 5BFE6C16
P 4350 3850
F 0 "#PWR0108" H 4350 3600 50  0001 C CNN
F 1 "GND" V 4355 3722 50  0000 R CNN
F 2 "" H 4350 3850 50  0001 C CNN
F 3 "" H 4350 3850 50  0001 C CNN
	1    4350 3850
	0    -1   -1   0   
$EndComp
Wire Wire Line
	3950 3850 3800 3850
Wire Wire Line
	3800 3850 3800 4200
$Comp
L power:GND #PWR0109
U 1 1 5BFE6E07
P 1550 3850
F 0 "#PWR0109" H 1550 3600 50  0001 C CNN
F 1 "GND" V 1555 3722 50  0000 R CNN
F 2 "" H 1550 3850 50  0001 C CNN
F 3 "" H 1550 3850 50  0001 C CNN
	1    1550 3850
	0    1    1    0   
$EndComp
$Comp
L Switch:SW_Push SW1
U 1 1 5BFE6E31
P 1750 3850
F 0 "SW1" H 1750 4135 50  0000 C CNN
F 1 "SW_Push" H 1750 4044 50  0000 C CNN
F 2 "push_smd:smd_4x4_push" H 1750 4050 50  0001 C CNN
F 3 "" H 1750 4050 50  0001 C CNN
	1    1750 3850
	1    0    0    -1  
$EndComp
Wire Wire Line
	1950 3850 2200 3850
Wire Wire Line
	2200 3850 2200 4200
Wire Wire Line
	1350 4200 1550 4200
Connection ~ 2200 4200
$Comp
L Device:R 10k1
U 1 1 5BFE6F55
P 1700 4200
F 0 "10k1" V 1700 4200 50  0000 C CNN
F 1 "R" V 1584 4200 50  0000 C CNN
F 2 "Resistors_SMD:R_1206_HandSoldering" V 1630 4200 50  0001 C CNN
F 3 "~" H 1700 4200 50  0001 C CNN
	1    1700 4200
	0    1    1    0   
$EndComp
Wire Wire Line
	1850 4200 2200 4200
Text GLabel 1700 4900 0    50   Output ~ 0
TX_ESP32
Text GLabel 1700 5000 0    50   Input ~ 0
RX_ESP32
$Comp
L Interface_USB:FT232RL U1
U 1 1 5BFE7328
P 2800 1800
F 0 "U1" H 2800 2978 50  0000 C CNN
F 1 "FT232RL" H 2800 2887 50  0000 C CNN
F 2 "Housings_SSOP:SSOP-28_5.3x10.2mm_Pitch0.65mm" H 2800 1800 50  0001 C CNN
F 3 "http://www.ftdichip.com/Products/ICs/FT232RL.htm" H 2800 1800 50  0001 C CNN
	1    2800 1800
	1    0    0    -1  
$EndComp
$Comp
L Connector:USB_B_Micro J2
U 1 1 5BFE749F
P 850 1400
F 0 "J2" H 905 1867 50  0000 C CNN
F 1 "USB_B_Micro" H 905 1776 50  0000 C CNN
F 2 "USB-MICRO-MK5P-2:USB-MICRO-B" H 1000 1350 50  0001 C CNN
F 3 "~" H 1000 1350 50  0001 C CNN
	1    850  1400
	1    0    0    -1  
$EndComp
Wire Wire Line
	2000 1500 1150 1500
Wire Wire Line
	1150 1400 2000 1400
NoConn ~ 1150 1600
Text GLabel 3600 1100 2    50   Output ~ 0
RX_ESP32
Text GLabel 3600 1200 2    50   Input ~ 0
TX_ESP32
$Comp
L power:+3.3V #PWR0110
U 1 1 5BFE7C7B
P 2550 800
F 0 "#PWR0110" H 2550 650 50  0001 C CNN
F 1 "+3.3V" V 2565 928 50  0000 L CNN
F 2 "" H 2550 800 50  0001 C CNN
F 3 "" H 2550 800 50  0001 C CNN
	1    2550 800 
	0    -1   -1   0   
$EndComp
Wire Wire Line
	2550 800  2700 800 
$Comp
L power:+5V #PWR0111
U 1 1 5BFE7DFD
P 1150 1200
F 0 "#PWR0111" H 1150 1050 50  0001 C CNN
F 1 "+5V" V 1165 1328 50  0000 L CNN
F 2 "" H 1150 1200 50  0001 C CNN
F 3 "" H 1150 1200 50  0001 C CNN
	1    1150 1200
	0    1    1    0   
$EndComp
$Comp
L power:+5V #PWR0112
U 1 1 5BFE7E37
P 3050 800
F 0 "#PWR0112" H 3050 650 50  0001 C CNN
F 1 "+5V" H 3065 973 50  0000 C CNN
F 2 "" H 3050 800 50  0001 C CNN
F 3 "" H 3050 800 50  0001 C CNN
	1    3050 800 
	1    0    0    -1  
$EndComp
Wire Wire Line
	2900 800  3050 800 
$Comp
L power:GND #PWR0113
U 1 1 5C077FA6
P 850 1800
F 0 "#PWR0113" H 850 1550 50  0001 C CNN
F 1 "GND" H 855 1627 50  0000 C CNN
F 2 "" H 850 1800 50  0001 C CNN
F 3 "" H 850 1800 50  0001 C CNN
	1    850  1800
	1    0    0    -1  
$EndComp
$Comp
L power:GND #PWR0114
U 1 1 5C077FD8
P 750 1800
F 0 "#PWR0114" H 750 1550 50  0001 C CNN
F 1 "GND" H 755 1627 50  0000 C CNN
F 2 "" H 750 1800 50  0001 C CNN
F 3 "" H 750 1800 50  0001 C CNN
	1    750  1800
	1    0    0    -1  
$EndComp
$Comp
L power:GND #PWR0115
U 1 1 5C07801F
P 2800 2800
F 0 "#PWR0115" H 2800 2550 50  0001 C CNN
F 1 "GND" H 2805 2627 50  0000 C CNN
F 2 "" H 2800 2800 50  0001 C CNN
F 3 "" H 2800 2800 50  0001 C CNN
	1    2800 2800
	1    0    0    -1  
$EndComp
$Comp
L power:GND #PWR0116
U 1 1 5C078051
P 2900 2800
F 0 "#PWR0116" H 2900 2550 50  0001 C CNN
F 1 "GND" H 2905 2627 50  0000 C CNN
F 2 "" H 2900 2800 50  0001 C CNN
F 3 "" H 2900 2800 50  0001 C CNN
	1    2900 2800
	1    0    0    -1  
$EndComp
$Comp
L power:GND #PWR0117
U 1 1 5C078083
P 3000 2800
F 0 "#PWR0117" H 3000 2550 50  0001 C CNN
F 1 "GND" H 3005 2627 50  0000 C CNN
F 2 "" H 3000 2800 50  0001 C CNN
F 3 "" H 3000 2800 50  0001 C CNN
	1    3000 2800
	1    0    0    -1  
$EndComp
$Comp
L power:GND #PWR0118
U 1 1 5C0780B5
P 2600 2800
F 0 "#PWR0118" H 2600 2550 50  0001 C CNN
F 1 "GND" H 2605 2627 50  0000 C CNN
F 2 "" H 2600 2800 50  0001 C CNN
F 3 "" H 2600 2800 50  0001 C CNN
	1    2600 2800
	1    0    0    -1  
$EndComp
$Comp
L power:+3.3V #PWR0119
U 1 1 5C0780FC
P 2000 1800
F 0 "#PWR0119" H 2000 1650 50  0001 C CNN
F 1 "+3.3V" H 2015 1973 50  0000 C CNN
F 2 "" H 2000 1800 50  0001 C CNN
F 3 "" H 2000 1800 50  0001 C CNN
	1    2000 1800
	1    0    0    -1  
$EndComp
$Comp
L power:GND #PWR0120
U 1 1 5C07813C
P 2000 2500
F 0 "#PWR0120" H 2000 2250 50  0001 C CNN
F 1 "GND" V 2005 2372 50  0000 R CNN
F 2 "" H 2000 2500 50  0001 C CNN
F 3 "" H 2000 2500 50  0001 C CNN
	1    2000 2500
	0    1    1    0   
$EndComp
NoConn ~ 2000 2200
NoConn ~ 2000 2000
$Comp
L Device:LED D1
U 1 1 5C0786E3
P 5250 2050
F 0 "D1" H 5241 2266 50  0000 C CNN
F 1 "LED" H 5241 2175 50  0000 C CNN
F 2 "LEDs:LED_0805_HandSoldering" H 5250 2050 50  0001 C CNN
F 3 "~" H 5250 2050 50  0001 C CNN
	1    5250 2050
	1    0    0    -1  
$EndComp
$Comp
L Device:LED D2
U 1 1 5C078756
P 5900 2200
F 0 "D2" H 5891 2416 50  0000 C CNN
F 1 "LED" H 5891 2325 50  0000 C CNN
F 2 "LEDs:LED_0805_HandSoldering" H 5900 2200 50  0001 C CNN
F 3 "~" H 5900 2200 50  0001 C CNN
	1    5900 2200
	1    0    0    -1  
$EndComp
Wire Wire Line
	3600 2100 3600 2050
$Comp
L Device:R 120R2
U 1 1 5C07897C
P 6200 2200
F 0 "120R2" V 6200 2200 50  0000 C CNN
F 1 "R" V 6084 2200 50  0000 C CNN
F 2 "Resistors_SMD:R_1206_HandSoldering" V 6130 2200 50  0001 C CNN
F 3 "~" H 6200 2200 50  0001 C CNN
	1    6200 2200
	0    1    1    0   
$EndComp
$Comp
L Device:R 120R1
U 1 1 5C0789CC
P 5400 1900
F 0 "120R1" V 5400 1800 50  0000 L CNN
F 1 "R" H 5470 1855 50  0000 L CNN
F 2 "Resistors_SMD:R_1206_HandSoldering" V 5330 1900 50  0001 C CNN
F 3 "~" H 5400 1900 50  0001 C CNN
	1    5400 1900
	1    0    0    -1  
$EndComp
$Comp
L power:+3.3V #PWR0121
U 1 1 5C078A3F
P 5400 1750
F 0 "#PWR0121" H 5400 1600 50  0001 C CNN
F 1 "+3.3V" H 5415 1923 50  0000 C CNN
F 2 "" H 5400 1750 50  0001 C CNN
F 3 "" H 5400 1750 50  0001 C CNN
	1    5400 1750
	1    0    0    -1  
$EndComp
$Comp
L power:+3.3V #PWR0122
U 1 1 5C078A79
P 6350 2200
F 0 "#PWR0122" H 6350 2050 50  0001 C CNN
F 1 "+3.3V" V 6365 2328 50  0000 L CNN
F 2 "" H 6350 2200 50  0001 C CNN
F 3 "" H 6350 2200 50  0001 C CNN
	1    6350 2200
	0    1    1    0   
$EndComp
Text Notes 3850 2750 0    50   ~ 0
Partie finie (à tester)
Text Notes 3700 6100 0    50   ~ 0
Connected to crystal. Do not use
Text Notes 4450 6300 0    50   ~ 0
34 - 35: Input only
Text Notes 3700 4550 0    50   ~ 0
Strapping pins: 0 2 5 12 15
Text Notes 1650 7000 0    50   ~ 0
Usables GPIO:\n25 26 27 14 13 4 16 17 18 19 21 22 23\n + 35 34 (Input only)
Text Notes -600 3400 0    50   ~ 0
Sensor_VP (IO36): Input only\nSensor_VN (IO39): Input only
Text GLabel 3600 5400 2    50   BiDi ~ 0
SDA
Text GLabel 3600 5500 2    50   BiDi ~ 0
SCL
Text Label 3600 6300 0    50   ~ 0
OUTPUT_ad8232
Text Label 3600 5900 0    50   ~ 0
INT_MAX30100
$Comp
L power:+5V #PWR0123
U 1 1 5C07B867
P 8100 1350
F 0 "#PWR0123" H 8100 1200 50  0001 C CNN
F 1 "+5V" H 8115 1523 50  0000 C CNN
F 2 "" H 8100 1350 50  0001 C CNN
F 3 "" H 8100 1350 50  0001 C CNN
	1    8100 1350
	1    0    0    -1  
$EndComp
$Comp
L power:+3.3V #PWR0124
U 1 1 5C07B8B1
P 8000 1350
F 0 "#PWR0124" H 8000 1200 50  0001 C CNN
F 1 "+3.3V" H 8015 1523 50  0000 C CNN
F 2 "" H 8000 1350 50  0001 C CNN
F 3 "" H 8000 1350 50  0001 C CNN
	1    8000 1350
	0    -1   -1   0   
$EndComp
$Comp
L RF:SIM800C U3
U 1 1 5C07CA87
P 9650 5900
F 0 "U3" H 9650 5650 50  0000 C CNN
F 1 "SIM800C" H 9600 5450 50  0000 C CNN
F 2 "SIMCOM:SIM800C" H 10250 4850 50  0001 C CNN
F 3 "http://simcom.ee/documents/SIM800C/SIM800C_Hardware_Design_V1.05.pdf" H 5000 3550 50  0001 C CNN
	1    9650 5900
	1    0    0    -1  
$EndComp
$Comp
L Connector:Conn_Coaxial J6
U 1 1 5C07CDD2
P 10850 4800
F 0 "J6" H 10949 4776 50  0000 L CNN
F 1 "Conn_Coaxial" H 10949 4685 50  0000 L CNN
F 2 "Connectors:SMA_THT_Jack_Straight" H 10850 4800 50  0001 C CNN
F 3 " ~" H 10850 4800 50  0001 C CNN
	1    10850 4800
	0    -1   -1   0   
$EndComp
$Comp
L power:GND #PWR0125
U 1 1 5C07CF22
P 9650 7000
F 0 "#PWR0125" H 9650 6750 50  0001 C CNN
F 1 "GND" H 9655 6827 50  0000 C CNN
F 2 "" H 9650 7000 50  0001 C CNN
F 3 "" H 9650 7000 50  0001 C CNN
	1    9650 7000
	1    0    0    -1  
$EndComp
Text Notes 6450 1650 1    50   ~ 0
Pour ECG
Text Notes 7450 1500 1    50   ~ 0
Saturomètre (déporté)
NoConn ~ 9450 4800
$Comp
L Connector:SIM_Card J5
U 1 1 5C10D488
P 14300 4750
F 0 "J5" H 14929 4850 50  0000 L CNN
F 1 "SIM_Card" H 14929 4759 50  0000 L CNN
F 2 "SIM:sim_5051" H 14300 5100 50  0001 C CNN
F 3 " ~" H 14250 4750 50  0001 C CNN
	1    14300 4750
	1    0    0    -1  
$EndComp
$Comp
L power:GND #PWR0126
U 1 1 5C10FB72
P 13800 4750
F 0 "#PWR0126" H 13800 4500 50  0001 C CNN
F 1 "GND" V 13805 4622 50  0000 R CNN
F 2 "" H 13800 4750 50  0001 C CNN
F 3 "" H 13800 4750 50  0001 C CNN
	1    13800 4750
	0    1    1    0   
$EndComp
$Comp
L Device:C C13
U 1 1 5C10FC12
P 10950 7200
F 0 "C13" H 11065 7246 50  0000 L CNN
F 1 "10pF" H 11065 7155 50  0000 L CNN
F 2 "Capacitors_SMD:C_0805_HandSoldering" H 10988 7050 50  0001 C CNN
F 3 "~" H 10950 7200 50  0001 C CNN
	1    10950 7200
	1    0    0    -1  
$EndComp
$Comp
L Device:C C17
U 1 1 5C10FD34
P 10950 7500
F 0 "C17" H 11065 7546 50  0000 L CNN
F 1 "10pF" H 11065 7455 50  0000 L CNN
F 2 "Capacitors_SMD:C_0805_HandSoldering" H 10988 7350 50  0001 C CNN
F 3 "~" H 10950 7500 50  0001 C CNN
	1    10950 7500
	1    0    0    -1  
$EndComp
$Comp
L Device:C C21
U 1 1 5C10FD8A
P 10950 7800
F 0 "C21" H 11065 7846 50  0000 L CNN
F 1 "10pF" H 11065 7755 50  0000 L CNN
F 2 "Capacitors_SMD:C_0805_HandSoldering" H 10988 7650 50  0001 C CNN
F 3 "~" H 10950 7800 50  0001 C CNN
	1    10950 7800
	1    0    0    -1  
$EndComp
$Comp
L Device:C C14
U 1 1 5C10FE6F
P 11400 7200
F 0 "C14" H 11515 7246 50  0000 L CNN
F 1 "33pF" H 11515 7155 50  0000 L CNN
F 2 "Capacitors_SMD:C_0603_HandSoldering" H 11438 7050 50  0001 C CNN
F 3 "~" H 11400 7200 50  0001 C CNN
	1    11400 7200
	1    0    0    -1  
$EndComp
$Comp
L Device:C C18
U 1 1 5C10FE76
P 11400 7500
F 0 "C18" H 11515 7546 50  0000 L CNN
F 1 "33pF" H 11515 7455 50  0000 L CNN
F 2 "Capacitors_SMD:C_0603_HandSoldering" H 11438 7350 50  0001 C CNN
F 3 "~" H 11400 7500 50  0001 C CNN
	1    11400 7500
	1    0    0    -1  
$EndComp
$Comp
L Device:C C22
U 1 1 5C10FE7D
P 11400 7800
F 0 "C22" H 11515 7846 50  0000 L CNN
F 1 "33pF" H 11515 7755 50  0000 L CNN
F 2 "Capacitors_SMD:C_0603_HandSoldering" H 11438 7650 50  0001 C CNN
F 3 "~" H 11400 7800 50  0001 C CNN
	1    11400 7800
	1    0    0    -1  
$EndComp
$Comp
L Device:C C15
U 1 1 5C11078E
P 13150 7200
F 0 "C15" H 13265 7246 50  0000 L CNN
F 1 "10pF" H 13265 7155 50  0000 L CNN
F 2 "Capacitors_SMD:C_0805_HandSoldering" H 13188 7050 50  0001 C CNN
F 3 "~" H 13150 7200 50  0001 C CNN
	1    13150 7200
	1    0    0    -1  
$EndComp
$Comp
L Device:C C19
U 1 1 5C110795
P 13150 7500
F 0 "C19" H 13265 7546 50  0000 L CNN
F 1 "10pF" H 13265 7455 50  0000 L CNN
F 2 "Capacitors_SMD:C_0805_HandSoldering" H 13188 7350 50  0001 C CNN
F 3 "~" H 13150 7500 50  0001 C CNN
	1    13150 7500
	1    0    0    -1  
$EndComp
$Comp
L Device:C C23
U 1 1 5C11079C
P 13150 7800
F 0 "C23" H 13265 7846 50  0000 L CNN
F 1 "10pF" H 13265 7755 50  0000 L CNN
F 2 "Capacitors_SMD:C_0805_HandSoldering" H 13188 7650 50  0001 C CNN
F 3 "~" H 13150 7800 50  0001 C CNN
	1    13150 7800
	1    0    0    -1  
$EndComp
$Comp
L Device:C C16
U 1 1 5C1107A3
P 13550 7200
F 0 "C16" H 13665 7246 50  0000 L CNN
F 1 "33pF" H 13665 7155 50  0000 L CNN
F 2 "Capacitors_SMD:C_0603_HandSoldering" H 13588 7050 50  0001 C CNN
F 3 "~" H 13550 7200 50  0001 C CNN
	1    13550 7200
	1    0    0    -1  
$EndComp
$Comp
L Device:C C20
U 1 1 5C1107AA
P 13550 7500
F 0 "C20" H 13665 7546 50  0000 L CNN
F 1 "33pF" H 13665 7455 50  0000 L CNN
F 2 "Capacitors_SMD:C_0603_HandSoldering" H 13588 7350 50  0001 C CNN
F 3 "~" H 13550 7500 50  0001 C CNN
	1    13550 7500
	1    0    0    -1  
$EndComp
$Comp
L Device:C C24
U 1 1 5C1107B1
P 13550 7800
F 0 "C24" H 13665 7846 50  0000 L CNN
F 1 "33pF" H 13665 7755 50  0000 L CNN
F 2 "Capacitors_SMD:C_0603_HandSoldering" H 13588 7650 50  0001 C CNN
F 3 "~" H 13550 7800 50  0001 C CNN
	1    13550 7800
	1    0    0    -1  
$EndComp
Wire Wire Line
	13550 7350 14050 7350
Wire Wire Line
	14150 7350 14150 7450
Connection ~ 13550 7350
Wire Wire Line
	13550 7650 14050 7650
Wire Wire Line
	14150 7650 14150 7550
Connection ~ 13550 7650
Wire Wire Line
	10550 7350 10950 7350
Connection ~ 10950 7350
Connection ~ 10950 7650
$Comp
L power:GND #PWR0127
U 1 1 5C117BF2
P 10950 7950
F 0 "#PWR0127" H 10950 7700 50  0001 C CNN
F 1 "GND" H 10955 7777 50  0000 C CNN
F 2 "" H 10950 7950 50  0001 C CNN
F 3 "" H 10950 7950 50  0001 C CNN
	1    10950 7950
	1    0    0    -1  
$EndComp
$Comp
L power:GND #PWR0128
U 1 1 5C117C50
P 11400 7950
F 0 "#PWR0128" H 11400 7700 50  0001 C CNN
F 1 "GND" H 11405 7777 50  0000 C CNN
F 2 "" H 11400 7950 50  0001 C CNN
F 3 "" H 11400 7950 50  0001 C CNN
	1    11400 7950
	1    0    0    -1  
$EndComp
$Comp
L power:GND #PWR0129
U 1 1 5C117CAE
P 11400 7050
F 0 "#PWR0129" H 11400 6800 50  0001 C CNN
F 1 "GND" H 11405 6877 50  0000 C CNN
F 2 "" H 11400 7050 50  0001 C CNN
F 3 "" H 11400 7050 50  0001 C CNN
	1    11400 7050
	-1   0    0    1   
$EndComp
$Comp
L power:GND #PWR0130
U 1 1 5C117D48
P 10950 7050
F 0 "#PWR0130" H 10950 6800 50  0001 C CNN
F 1 "GND" H 10955 6877 50  0000 C CNN
F 2 "" H 10950 7050 50  0001 C CNN
F 3 "" H 10950 7050 50  0001 C CNN
	1    10950 7050
	-1   0    0    1   
$EndComp
$Comp
L power:GND #PWR0131
U 1 1 5C117DE2
P 13150 7050
F 0 "#PWR0131" H 13150 6800 50  0001 C CNN
F 1 "GND" H 13155 6877 50  0000 C CNN
F 2 "" H 13150 7050 50  0001 C CNN
F 3 "" H 13150 7050 50  0001 C CNN
	1    13150 7050
	-1   0    0    1   
$EndComp
$Comp
L power:GND #PWR0132
U 1 1 5C117E7C
P 13550 7050
F 0 "#PWR0132" H 13550 6800 50  0001 C CNN
F 1 "GND" H 13555 6877 50  0000 C CNN
F 2 "" H 13550 7050 50  0001 C CNN
F 3 "" H 13550 7050 50  0001 C CNN
	1    13550 7050
	-1   0    0    1   
$EndComp
$Comp
L power:GND #PWR0133
U 1 1 5C117F16
P 13550 7950
F 0 "#PWR0133" H 13550 7700 50  0001 C CNN
F 1 "GND" H 13555 7777 50  0000 C CNN
F 2 "" H 13550 7950 50  0001 C CNN
F 3 "" H 13550 7950 50  0001 C CNN
	1    13550 7950
	1    0    0    -1  
$EndComp
$Comp
L power:GND #PWR0134
U 1 1 5C117F74
P 13150 7950
F 0 "#PWR0134" H 13150 7700 50  0001 C CNN
F 1 "GND" H 13155 7777 50  0000 C CNN
F 2 "" H 13150 7950 50  0001 C CNN
F 3 "" H 13150 7950 50  0001 C CNN
	1    13150 7950
	1    0    0    -1  
$EndComp
Wire Wire Line
	11400 7350 13150 7350
Wire Wire Line
	11400 7650 13150 7650
$Comp
L Device:D_TVS D6
U 1 1 5C11B5C6
P 14050 7200
F 0 "D6" V 14004 7279 50  0000 L CNN
F 1 "D_TVS" V 14095 7279 50  0000 L CNN
F 2 "Diodes_SMD:D_SMA_Handsoldering" H 14050 7200 50  0001 C CNN
F 3 "~" H 14050 7200 50  0001 C CNN
	1    14050 7200
	0    1    1    0   
$EndComp
Connection ~ 14050 7350
Wire Wire Line
	14050 7350 14150 7350
$Comp
L Device:D_TVS D7
U 1 1 5C11B688
P 14050 7800
F 0 "D7" V 14004 7879 50  0000 L CNN
F 1 "D_TVS" V 14095 7879 50  0000 L CNN
F 2 "Diodes_SMD:D_SMA_Handsoldering" H 14050 7800 50  0001 C CNN
F 3 "~" H 14050 7800 50  0001 C CNN
	1    14050 7800
	0    1    1    0   
$EndComp
Connection ~ 14050 7650
Wire Wire Line
	14050 7650 14150 7650
$Comp
L power:GND #PWR0135
U 1 1 5C11B756
P 14050 7950
F 0 "#PWR0135" H 14050 7700 50  0001 C CNN
F 1 "GND" H 14055 7777 50  0000 C CNN
F 2 "" H 14050 7950 50  0001 C CNN
F 3 "" H 14050 7950 50  0001 C CNN
	1    14050 7950
	1    0    0    -1  
$EndComp
$Comp
L power:GND #PWR0136
U 1 1 5C11B822
P 14050 7050
F 0 "#PWR0136" H 14050 6800 50  0001 C CNN
F 1 "GND" H 14055 6877 50  0000 C CNN
F 2 "" H 14050 7050 50  0001 C CNN
F 3 "" H 14050 7050 50  0001 C CNN
	1    14050 7050
	-1   0    0    1   
$EndComp
Text Notes 13350 8300 0    50   ~ 0
Proche du speaker
Text Notes 10800 8300 0    50   ~ 0
Proche du SIM800
Text Notes 14350 7150 0    50   ~ 0
TVS pour ESD
$Comp
L Device:C C7
U 1 1 5C11BD49
P 7650 6450
F 0 "C7" H 7765 6496 50  0000 L CNN
F 1 "33pF" H 7765 6405 50  0000 L CNN
F 2 "Capacitors_SMD:C_0603_HandSoldering" H 7688 6300 50  0001 C CNN
F 3 "~" H 7650 6450 50  0001 C CNN
	1    7650 6450
	1    0    0    -1  
$EndComp
$Comp
L Device:C C9
U 1 1 5C11BD50
P 7650 6750
F 0 "C9" H 7765 6796 50  0000 L CNN
F 1 "33pF" H 7765 6705 50  0000 L CNN
F 2 "Capacitors_SMD:C_0603_HandSoldering" H 7688 6600 50  0001 C CNN
F 3 "~" H 7650 6750 50  0001 C CNN
	1    7650 6750
	1    0    0    -1  
$EndComp
$Comp
L Device:C C11
U 1 1 5C11BD57
P 7650 7050
F 0 "C11" H 7765 7096 50  0000 L CNN
F 1 "33pF" H 7765 7005 50  0000 L CNN
F 2 "Capacitors_SMD:C_0603_HandSoldering" H 7688 6900 50  0001 C CNN
F 3 "~" H 7650 7050 50  0001 C CNN
	1    7650 7050
	1    0    0    -1  
$EndComp
$Comp
L Device:C C8
U 1 1 5C11BD5E
P 8050 6450
F 0 "C8" H 8165 6496 50  0000 L CNN
F 1 "10pF" H 8165 6405 50  0000 L CNN
F 2 "Capacitors_SMD:C_0805_HandSoldering" H 8088 6300 50  0001 C CNN
F 3 "~" H 8050 6450 50  0001 C CNN
	1    8050 6450
	1    0    0    -1  
$EndComp
$Comp
L Device:C C10
U 1 1 5C11BD65
P 8050 6750
F 0 "C10" H 8165 6796 50  0000 L CNN
F 1 "10pF" H 8165 6705 50  0000 L CNN
F 2 "Capacitors_SMD:C_0805_HandSoldering" H 8088 6600 50  0001 C CNN
F 3 "~" H 8050 6750 50  0001 C CNN
	1    8050 6750
	1    0    0    -1  
$EndComp
$Comp
L Device:C C12
U 1 1 5C11BD6C
P 8050 7050
F 0 "C12" H 8165 7096 50  0000 L CNN
F 1 "10pF" H 8165 7005 50  0000 L CNN
F 2 "Capacitors_SMD:C_0805_HandSoldering" H 8088 6900 50  0001 C CNN
F 3 "~" H 8050 7050 50  0001 C CNN
	1    8050 7050
	1    0    0    -1  
$EndComp
$Comp
L power:GND #PWR0137
U 1 1 5C11BD7B
P 7650 7200
F 0 "#PWR0137" H 7650 6950 50  0001 C CNN
F 1 "GND" H 7655 7027 50  0000 C CNN
F 2 "" H 7650 7200 50  0001 C CNN
F 3 "" H 7650 7200 50  0001 C CNN
	1    7650 7200
	1    0    0    -1  
$EndComp
$Comp
L power:GND #PWR0138
U 1 1 5C11BD81
P 8050 7200
F 0 "#PWR0138" H 8050 6950 50  0001 C CNN
F 1 "GND" H 8055 7027 50  0000 C CNN
F 2 "" H 8050 7200 50  0001 C CNN
F 3 "" H 8050 7200 50  0001 C CNN
	1    8050 7200
	1    0    0    -1  
$EndComp
$Comp
L power:GND #PWR0139
U 1 1 5C11BD87
P 8050 6300
F 0 "#PWR0139" H 8050 6050 50  0001 C CNN
F 1 "GND" H 8055 6127 50  0000 C CNN
F 2 "" H 8050 6300 50  0001 C CNN
F 3 "" H 8050 6300 50  0001 C CNN
	1    8050 6300
	-1   0    0    1   
$EndComp
$Comp
L power:GND #PWR0140
U 1 1 5C11BD8D
P 7650 6300
F 0 "#PWR0140" H 7650 6050 50  0001 C CNN
F 1 "GND" H 7655 6127 50  0000 C CNN
F 2 "" H 7650 6300 50  0001 C CNN
F 3 "" H 7650 6300 50  0001 C CNN
	1    7650 6300
	-1   0    0    1   
$EndComp
Wire Wire Line
	8850 6600 8050 6600
Wire Wire Line
	8850 6600 8850 6700
Connection ~ 8050 6600
Wire Wire Line
	8850 6800 8850 6900
Wire Wire Line
	8850 6900 8050 6900
Connection ~ 8050 6900
$Comp
L Device:D_TVS D4
U 1 1 5C12F30F
P 7250 6450
F 0 "D4" V 7204 6529 50  0000 L CNN
F 1 "D_TVS" V 7295 6529 50  0000 L CNN
F 2 "Diodes_SMD:D_SMA_Handsoldering" H 7250 6450 50  0001 C CNN
F 3 "~" H 7250 6450 50  0001 C CNN
	1    7250 6450
	0    1    1    0   
$EndComp
$Comp
L Device:D_TVS D5
U 1 1 5C12F3CE
P 7250 7050
F 0 "D5" V 7204 7129 50  0000 L CNN
F 1 "D_TVS" V 7295 7129 50  0000 L CNN
F 2 "Diodes_SMD:D_SMA_Handsoldering" H 7250 7050 50  0001 C CNN
F 3 "~" H 7250 7050 50  0001 C CNN
	1    7250 7050
	0    1    1    0   
$EndComp
Wire Wire Line
	7250 6600 7650 6600
Wire Wire Line
	7650 6900 7250 6900
Connection ~ 7250 6600
Wire Wire Line
	7100 6900 7250 6900
Connection ~ 7250 6900
Connection ~ 11400 7350
Connection ~ 11400 7650
Wire Wire Line
	10950 7350 11400 7350
Wire Wire Line
	10950 7650 11400 7650
Connection ~ 7650 6600
Connection ~ 7650 6900
Wire Wire Line
	7650 6600 8050 6600
Wire Wire Line
	7650 6900 8050 6900
Connection ~ 13150 7350
Connection ~ 13150 7650
Wire Wire Line
	13150 7350 13550 7350
Wire Wire Line
	13150 7650 13550 7650
$Comp
L power:GND #PWR0141
U 1 1 5C14F571
P 7250 7200
F 0 "#PWR0141" H 7250 6950 50  0001 C CNN
F 1 "GND" H 7255 7027 50  0000 C CNN
F 2 "" H 7250 7200 50  0001 C CNN
F 3 "" H 7250 7200 50  0001 C CNN
	1    7250 7200
	1    0    0    -1  
$EndComp
$Comp
L power:GND #PWR0142
U 1 1 5C14F5E5
P 7250 6300
F 0 "#PWR0142" H 7250 6050 50  0001 C CNN
F 1 "GND" H 7255 6127 50  0000 C CNN
F 2 "" H 7250 6300 50  0001 C CNN
F 3 "" H 7250 6300 50  0001 C CNN
	1    7250 6300
	-1   0    0    1   
$EndComp
$Comp
L Device:C C30
U 1 1 5C15B22B
P 7100 8650
F 0 "C30" V 6848 8650 50  0000 C CNN
F 1 "1uF" V 6939 8650 50  0000 C CNN
F 2 "Capacitors_SMD:C_0805_HandSoldering" H 7138 8500 50  0001 C CNN
F 3 "~" H 7100 8650 50  0001 C CNN
	1    7100 8650
	0    1    1    0   
$EndComp
$Comp
L Device:C C27
U 1 1 5C15B32B
P 6950 8250
F 0 "C27" V 7202 8250 50  0000 C CNN
F 1 "1uF" V 7111 8250 50  0000 C CNN
F 2 "Capacitors_SMD:C_0805_HandSoldering" H 6988 8100 50  0001 C CNN
F 3 "~" H 6950 8250 50  0001 C CNN
	1    6950 8250
	0    -1   -1   0   
$EndComp
$Comp
L Device:R R18
U 1 1 5C15B509
P 7250 8250
F 0 "R18" V 7043 8250 50  0000 C CNN
F 1 "10k" V 7134 8250 50  0000 C CNN
F 2 "Resistors_SMD:R_1206_HandSoldering" V 7180 8250 50  0001 C CNN
F 3 "~" H 7250 8250 50  0001 C CNN
	1    7250 8250
	0    1    1    0   
$EndComp
$Comp
L power:GND #PWR0143
U 1 1 5C15B68B
P 6950 8650
F 0 "#PWR0143" H 6950 8400 50  0001 C CNN
F 1 "GND" V 6955 8522 50  0000 R CNN
F 2 "" H 6950 8650 50  0001 C CNN
F 3 "" H 6950 8650 50  0001 C CNN
	1    6950 8650
	0    1    1    0   
$EndComp
$Comp
L Device:C C25
U 1 1 5C15B73B
P 7400 7950
F 0 "C25" V 7148 7950 50  0000 C CNN
F 1 "1uF" V 7239 7950 50  0000 C CNN
F 2 "Capacitors_SMD:C_0805_HandSoldering" H 7438 7800 50  0001 C CNN
F 3 "~" H 7400 7950 50  0001 C CNN
	1    7400 7950
	0    1    1    0   
$EndComp
Wire Wire Line
	7250 8650 7350 8650
Wire Wire Line
	7350 8650 7350 8700
Wire Wire Line
	7450 8700 7450 8250
Wire Wire Line
	7450 8250 7400 8250
Wire Wire Line
	7550 8700 7550 7950
$Comp
L power:GND #PWR0144
U 1 1 5C160ED0
P 7250 7900
F 0 "#PWR0144" H 7250 7650 50  0001 C CNN
F 1 "GND" V 7255 7772 50  0000 R CNN
F 2 "" H 7250 7900 50  0001 C CNN
F 3 "" H 7250 7900 50  0001 C CNN
	1    7250 7900
	0    1    1    0   
$EndComp
Connection ~ 7550 7950
$Comp
L power:+5V #PWR0145
U 1 1 5C161033
P 7550 7950
F 0 "#PWR0145" H 7550 7800 50  0001 C CNN
F 1 "+5V" H 7565 8123 50  0000 C CNN
F 2 "" H 7550 7950 50  0001 C CNN
F 3 "" H 7550 7950 50  0001 C CNN
	1    7550 7950
	1    0    0    -1  
$EndComp
Wire Wire Line
	7250 7900 7250 7950
Text Label 7650 8700 1    50   ~ 0
MUTE
Wire Wire Line
	7750 8700 7750 8450
Wire Wire Line
	7750 7950 7550 7950
$Comp
L power:GND #PWR0146
U 1 1 5C167620
P 8100 7900
F 0 "#PWR0146" H 8100 7650 50  0001 C CNN
F 1 "GND" H 8105 7727 50  0000 C CNN
F 2 "" H 8100 7900 50  0001 C CNN
F 3 "" H 8100 7900 50  0001 C CNN
	1    8100 7900
	-1   0    0    1   
$EndComp
$Comp
L Device:C C26
U 1 1 5C167705
P 7900 8050
F 0 "C26" V 7648 8050 50  0000 C CNN
F 1 "10uF" V 7739 8050 50  0000 C CNN
F 2 "Capacitors_SMD:C_1210_HandSoldering" H 7938 7900 50  0001 C CNN
F 3 "~" H 7900 8050 50  0001 C CNN
	1    7900 8050
	0    1    1    0   
$EndComp
$Comp
L Device:C C29
U 1 1 5C1677C4
P 7900 8450
F 0 "C29" V 7648 8450 50  0000 C CNN
F 1 "1uF" V 7739 8450 50  0000 C CNN
F 2 "Capacitors_SMD:C_0805_HandSoldering" H 7938 8300 50  0001 C CNN
F 3 "~" H 7900 8450 50  0001 C CNN
	1    7900 8450
	0    1    1    0   
$EndComp
Connection ~ 7750 8050
Wire Wire Line
	7750 8050 7750 7950
Connection ~ 7750 8450
Wire Wire Line
	7750 8450 7750 8050
Wire Wire Line
	8100 7900 8100 8050
Wire Wire Line
	8100 8050 8050 8050
Wire Wire Line
	8100 8050 8100 8450
Wire Wire Line
	8100 8450 8050 8450
Connection ~ 8100 8050
Wire Wire Line
	7950 8700 7950 8550
Wire Wire Line
	7950 8550 8100 8550
Wire Wire Line
	8100 8550 8100 8450
Connection ~ 8100 8450
$Comp
L Device:Speaker LS1
U 1 1 5C16E280
P 9900 8500
F 0 "LS1" H 10070 8496 50  0000 L CNN
F 1 "Speaker" H 10070 8405 50  0000 L CNN
F 2 "Pin_Headers:Pin_Header_Straight_1x02_Pitch2.54mm" H 9900 8300 50  0001 C CNN
F 3 "~" H 9890 8450 50  0001 C CNN
	1    9900 8500
	1    0    0    -1  
$EndComp
$Comp
L Device:C C28
U 1 1 5C16E329
P 9650 8250
F 0 "C28" H 9765 8296 50  0000 L CNN
F 1 "220pF" H 9765 8205 50  0000 L CNN
F 2 "Capacitors_SMD:C_0805_HandSoldering" H 9688 8100 50  0001 C CNN
F 3 "~" H 9650 8250 50  0001 C CNN
	1    9650 8250
	1    0    0    -1  
$EndComp
$Comp
L Device:C C31
U 1 1 5C16E3BD
P 9650 8850
F 0 "C31" H 9765 8896 50  0000 L CNN
F 1 "220pF" H 9765 8805 50  0000 L CNN
F 2 "Capacitors_SMD:C_0805_HandSoldering" H 9688 8700 50  0001 C CNN
F 3 "~" H 9650 8850 50  0001 C CNN
	1    9650 8850
	1    0    0    -1  
$EndComp
Wire Wire Line
	9700 8600 9650 8600
Wire Wire Line
	9650 8600 9650 8700
Connection ~ 9650 8700
Wire Wire Line
	9700 8500 9700 8400
Wire Wire Line
	9700 8400 9650 8400
Connection ~ 9650 8400
Wire Wire Line
	7850 8600 7850 8700
$Comp
L power:GND #PWR0147
U 1 1 5C17C8AE
P 9650 9000
F 0 "#PWR0147" H 9650 8750 50  0001 C CNN
F 1 "GND" H 9655 8827 50  0000 C CNN
F 2 "" H 9650 9000 50  0001 C CNN
F 3 "" H 9650 9000 50  0001 C CNN
	1    9650 9000
	1    0    0    -1  
$EndComp
$Comp
L power:GND #PWR0148
U 1 1 5C17C93C
P 9650 8100
F 0 "#PWR0148" H 9650 7850 50  0001 C CNN
F 1 "GND" H 9655 7927 50  0000 C CNN
F 2 "" H 9650 8100 50  0001 C CNN
F 3 "" H 9650 8100 50  0001 C CNN
	1    9650 8100
	-1   0    0    1   
$EndComp
$Comp
L Device:R R19
U 1 1 5C17CA60
P 7200 10100
F 0 "R19" V 6993 10100 50  0000 C CNN
F 1 "10k" V 7084 10100 50  0000 C CNN
F 2 "Resistors_SMD:R_1206_HandSoldering" V 7130 10100 50  0001 C CNN
F 3 "~" H 7200 10100 50  0001 C CNN
	1    7200 10100
	0    1    1    0   
$EndComp
$Comp
L Device:C C33
U 1 1 5C17CB63
P 6900 10100
F 0 "C33" V 6648 10100 50  0000 C CNN
F 1 "1uF" V 6739 10100 50  0000 C CNN
F 2 "Capacitors_SMD:C_0805_HandSoldering" H 6938 9950 50  0001 C CNN
F 3 "~" H 6900 10100 50  0001 C CNN
	1    6900 10100
	0    1    1    0   
$EndComp
Wire Wire Line
	7450 9650 7450 10100
Wire Wire Line
	7450 10100 7350 10100
$Comp
L power:GND #PWR0149
U 1 1 5C182105
P 7550 9650
F 0 "#PWR0149" H 7550 9400 50  0001 C CNN
F 1 "GND" H 7555 9477 50  0000 C CNN
F 2 "" H 7550 9650 50  0001 C CNN
F 3 "" H 7550 9650 50  0001 C CNN
	1    7550 9650
	1    0    0    -1  
$EndComp
Text Label 7250 10500 2    50   ~ 0
Shutdown_PAM
$Comp
L Device:C C34
U 1 1 5C184E80
P 7850 10100
F 0 "C34" V 8102 10100 50  0000 C CNN
F 1 "1uF" V 8011 10100 50  0000 C CNN
F 2 "Capacitors_SMD:C_0805_HandSoldering" H 7888 9950 50  0001 C CNN
F 3 "~" H 7850 10100 50  0001 C CNN
	1    7850 10100
	0    -1   -1   0   
$EndComp
$Comp
L Device:C C36
U 1 1 5C184FF2
P 7850 10350
F 0 "C36" V 8000 10350 50  0000 C CNN
F 1 "10uF" V 7750 10350 50  0000 C CNN
F 2 "Capacitors_SMD:C_1210_HandSoldering" H 7888 10200 50  0001 C CNN
F 3 "~" H 7850 10350 50  0001 C CNN
	1    7850 10350
	0    1    1    0   
$EndComp
$Comp
L Device:C C35
U 1 1 5C185591
P 9650 10200
F 0 "C35" H 9765 10246 50  0000 L CNN
F 1 "220pF" H 9765 10155 50  0000 L CNN
F 2 "Capacitors_SMD:C_0805_HandSoldering" H 9688 10050 50  0001 C CNN
F 3 "~" H 9650 10200 50  0001 C CNN
	1    9650 10200
	1    0    0    -1  
$EndComp
$Comp
L Device:C C32
U 1 1 5C185689
P 9650 9600
F 0 "C32" H 9765 9646 50  0000 L CNN
F 1 "220pF" H 9765 9555 50  0000 L CNN
F 2 "Capacitors_SMD:C_0805_HandSoldering" H 9688 9450 50  0001 C CNN
F 3 "~" H 9650 9600 50  0001 C CNN
	1    9650 9600
	1    0    0    -1  
$EndComp
$Comp
L Device:Speaker LS2
U 1 1 5C185744
P 9900 9850
F 0 "LS2" H 10070 9846 50  0000 L CNN
F 1 "Speaker" H 10070 9755 50  0000 L CNN
F 2 "Pin_Headers:Pin_Header_Straight_1x02_Pitch2.54mm" H 9900 9650 50  0001 C CNN
F 3 "~" H 9890 9800 50  0001 C CNN
	1    9900 9850
	1    0    0    -1  
$EndComp
Wire Wire Line
	9650 9750 9700 9750
Wire Wire Line
	9700 9750 9700 9850
Wire Wire Line
	9700 9950 9700 10050
Wire Wire Line
	9700 10050 9650 10050
Connection ~ 9650 10050
Connection ~ 9650 9750
Wire Wire Line
	8050 9650 8050 9750
Wire Wire Line
	7750 9650 7750 10000
Wire Wire Line
	7750 10000 7700 10000
Wire Wire Line
	7700 10000 7700 10100
Wire Wire Line
	7700 10100 7700 10350
Connection ~ 7700 10100
$Comp
L power:+5V #PWR0150
U 1 1 5C1A1628
P 7700 10500
F 0 "#PWR0150" H 7700 10350 50  0001 C CNN
F 1 "+5V" H 7715 10673 50  0000 C CNN
F 2 "" H 7700 10500 50  0001 C CNN
F 3 "" H 7700 10500 50  0001 C CNN
	1    7700 10500
	-1   0    0    1   
$EndComp
$Comp
L power:GND #PWR0151
U 1 1 5C1A1746
P 8000 10500
F 0 "#PWR0151" H 8000 10250 50  0001 C CNN
F 1 "GND" H 8005 10327 50  0000 C CNN
F 2 "" H 8000 10500 50  0001 C CNN
F 3 "" H 8000 10500 50  0001 C CNN
	1    8000 10500
	1    0    0    -1  
$EndComp
Wire Wire Line
	7700 10350 7700 10500
Connection ~ 7700 10350
Wire Wire Line
	8000 10100 8000 10350
Connection ~ 8000 10350
Wire Wire Line
	8000 10350 8000 10500
Wire Wire Line
	7950 9650 7950 10000
Wire Wire Line
	7950 10000 8000 10000
Wire Wire Line
	8000 10000 8000 10100
Connection ~ 8000 10100
$Comp
L power:GND #PWR0152
U 1 1 5C1AF907
P 9650 9450
F 0 "#PWR0152" H 9650 9200 50  0001 C CNN
F 1 "GND" H 9655 9277 50  0000 C CNN
F 2 "" H 9650 9450 50  0001 C CNN
F 3 "" H 9650 9450 50  0001 C CNN
	1    9650 9450
	-1   0    0    1   
$EndComp
$Comp
L power:GND #PWR0153
U 1 1 5C1AFA25
P 9650 10350
F 0 "#PWR0153" H 9650 10100 50  0001 C CNN
F 1 "GND" H 9655 10177 50  0000 C CNN
F 2 "" H 9650 10350 50  0001 C CNN
F 3 "" H 9650 10350 50  0001 C CNN
	1    9650 10350
	1    0    0    -1  
$EndComp
Text Notes 11750 8550 0    50   ~ 0
Signal entre 0 et 5V ou entre -5V et 5V ?
Text Label 8000 5500 2    50   ~ 0
SIM800_TX
Text Label 7500 5600 2    50   ~ 0
SIM800_RX
Text Label 8700 4450 2    50   ~ 0
SIM800_RI
$Comp
L power:+BATT #PWR0154
U 1 1 5C23A04D
P 9850 4700
F 0 "#PWR0154" H 9850 4550 50  0001 C CNN
F 1 "+BATT" V 9865 4828 50  0000 L CNN
F 2 "" H 9850 4700 50  0001 C CNN
F 3 "" H 9850 4700 50  0001 C CNN
	1    9850 4700
	0    1    1    0   
$EndComp
$Comp
L Device:R R5
U 1 1 5C23C53A
P 8150 5500
F 0 "R5" V 8050 5500 50  0000 C CNN
F 1 "1k" V 8150 5500 50  0000 C CNN
F 2 "Resistors_SMD:R_1206_HandSoldering" V 8080 5500 50  0001 C CNN
F 3 "~" H 8150 5500 50  0001 C CNN
	1    8150 5500
	0    1    1    0   
$EndComp
$Comp
L Device:R R6
U 1 1 5C23C712
P 8050 5600
F 0 "R6" V 8150 5600 50  0000 C CNN
F 1 "1k" V 8050 5600 50  0000 C CNN
F 2 "Resistors_SMD:R_1206_HandSoldering" V 7980 5600 50  0001 C CNN
F 3 "~" H 8050 5600 50  0001 C CNN
	1    8050 5600
	0    1    1    0   
$EndComp
$Comp
L Device:R R7
U 1 1 5C23CEB0
P 7850 5800
F 0 "R7" H 7920 5846 50  0000 L CNN
F 1 "5.6k" H 7920 5755 50  0000 L CNN
F 2 "Resistors_SMD:R_1206_HandSoldering" V 7780 5800 50  0001 C CNN
F 3 "~" H 7850 5800 50  0001 C CNN
	1    7850 5800
	1    0    0    -1  
$EndComp
$Comp
L power:GND #PWR0155
U 1 1 5C244C0C
P 7850 5950
F 0 "#PWR0155" H 7850 5700 50  0001 C CNN
F 1 "GND" H 7855 5777 50  0000 C CNN
F 2 "" H 7850 5950 50  0001 C CNN
F 3 "" H 7850 5950 50  0001 C CNN
	1    7850 5950
	1    0    0    -1  
$EndComp
$Comp
L Device:R R4
U 1 1 5C2493E6
P 8700 4600
F 0 "R4" V 8600 4600 50  0000 C CNN
F 1 "1k" V 8700 4600 50  0000 C CNN
F 2 "Resistors_SMD:R_1206_HandSoldering" V 8630 4600 50  0001 C CNN
F 3 "~" H 8700 4600 50  0001 C CNN
	1    8700 4600
	-1   0    0    1   
$EndComp
$Comp
L devboard_io-rescue:SMF05C-smf05c U2
U 1 1 5C25BB0B
P 12200 4100
F 0 "U2" H 12200 4465 50  0000 C CNN
F 1 "SMF05C" H 12200 4374 50  0000 C CNN
F 2 "smd_semi:SC-70-6" H 12200 4100 50  0001 C CNN
F 3 "" H 12200 4100 50  0001 C CNN
	1    12200 4100
	1    0    0    -1  
$EndComp
$Comp
L Device:R R3
U 1 1 5C25BEDA
P 13650 4950
F 0 "R3" V 13550 4950 50  0000 C CNN
F 1 "51R" V 13650 4950 50  0000 C CNN
F 2 "Resistors_SMD:R_1206_HandSoldering" V 13580 4950 50  0001 C CNN
F 3 "~" H 13650 4950 50  0001 C CNN
	1    13650 4950
	0    -1   -1   0   
$EndComp
$Comp
L Device:R R1
U 1 1 5C25C2B9
P 13650 4550
F 0 "R1" V 13550 4550 50  0000 C CNN
F 1 "51R" V 13650 4550 50  0000 C CNN
F 2 "Resistors_SMD:R_1206_HandSoldering" V 13580 4550 50  0001 C CNN
F 3 "~" H 13650 4550 50  0001 C CNN
	1    13650 4550
	0    1    1    0   
$EndComp
$Comp
L Device:R R2
U 1 1 5C25C530
P 13350 4650
F 0 "R2" V 13450 4650 50  0000 C CNN
F 1 "51R" V 13350 4650 50  0000 C CNN
F 2 "Resistors_SMD:R_1206_HandSoldering" V 13280 4650 50  0001 C CNN
F 3 "~" H 13350 4650 50  0001 C CNN
	1    13350 4650
	0    1    1    0   
$EndComp
$Comp
L Device:C C6
U 1 1 5C26DF04
P 13300 5100
F 0 "C6" H 13415 5146 50  0000 L CNN
F 1 "22pF" H 13415 5055 50  0000 L CNN
F 2 "Capacitors_SMD:C_1206_HandSoldering" H 13338 4950 50  0001 C CNN
F 3 "~" H 13300 5100 50  0001 C CNN
	1    13300 5100
	1    0    0    -1  
$EndComp
$Comp
L power:GND #PWR0156
U 1 1 5C26E0C6
P 13300 5250
F 0 "#PWR0156" H 13300 5000 50  0001 C CNN
F 1 "GND" H 13305 5077 50  0000 C CNN
F 2 "" H 13300 5250 50  0001 C CNN
F 3 "" H 13300 5250 50  0001 C CNN
	1    13300 5250
	1    0    0    -1  
$EndComp
$Comp
L Device:C C1
U 1 1 5C26E17F
P 13400 4250
F 0 "C1" H 13515 4296 50  0000 L CNN
F 1 "100nF" H 13515 4205 50  0000 L CNN
F 2 "Capacitors_SMD:C_1206_HandSoldering" H 13438 4100 50  0001 C CNN
F 3 "~" H 13400 4250 50  0001 C CNN
	1    13400 4250
	1    0    0    -1  
$EndComp
$Comp
L power:GND #PWR0157
U 1 1 5C26E346
P 13400 4100
F 0 "#PWR0157" H 13400 3850 50  0001 C CNN
F 1 "GND" H 13405 3927 50  0000 C CNN
F 2 "" H 13400 4100 50  0001 C CNN
F 3 "" H 13400 4100 50  0001 C CNN
	1    13400 4100
	-1   0    0    1   
$EndComp
Wire Wire Line
	13800 4450 13800 4400
Wire Wire Line
	13800 4400 13400 4400
Connection ~ 13400 4400
Wire Wire Line
	13400 4400 13250 4400
Wire Wire Line
	13500 4950 13300 4950
Connection ~ 13300 4950
$Comp
L power:GND #PWR0158
U 1 1 5C28207F
P 11750 4100
F 0 "#PWR0158" H 11750 3850 50  0001 C CNN
F 1 "GND" V 11755 3972 50  0000 R CNN
F 2 "" H 11750 4100 50  0001 C CNN
F 3 "" H 11750 4100 50  0001 C CNN
	1    11750 4100
	0    1    1    0   
$EndComp
Wire Wire Line
	12650 4000 12950 4000
Wire Wire Line
	13250 4000 13250 4400
Wire Wire Line
	13500 4550 13100 4550
Wire Wire Line
	13100 4550 13100 4100
Wire Wire Line
	13100 4100 12650 4100
Wire Wire Line
	13200 4650 12650 4650
Wire Wire Line
	12650 4650 12650 4200
Wire Wire Line
	11750 4950 11750 4200
Wire Wire Line
	11750 4950 13300 4950
NoConn ~ 11750 4000
NoConn ~ 13800 4850
$Comp
L power:GND #PWR0159
U 1 1 5C2C505A
P 11050 4800
F 0 "#PWR0159" H 11050 4550 50  0001 C CNN
F 1 "GND" H 11055 4627 50  0000 C CNN
F 2 "" H 11050 4800 50  0001 C CNN
F 3 "" H 11050 4800 50  0001 C CNN
	1    11050 4800
	0    -1   -1   0   
$EndComp
NoConn ~ 8850 6300
NoConn ~ 10450 6500
NoConn ~ 10450 5100
NoConn ~ 10450 5200
$Comp
L Connector:USB_B_Micro J12
U 1 1 5C3148B5
P 12250 6550
F 0 "J12" H 12021 6448 50  0000 R CNN
F 1 "USB_B_Micro" H 12021 6539 50  0000 R CNN
F 2 "USB-MICRO-MK5P-2:USB-MICRO-B" H 12400 6500 50  0001 C CNN
F 3 "~" H 12400 6500 50  0001 C CNN
	1    12250 6550
	-1   0    0    1   
$EndComp
Wire Wire Line
	10450 7650 10950 7650
$Comp
L power:GND #PWR0160
U 1 1 5C392BC1
P 12300 6150
F 0 "#PWR0160" H 12300 5900 50  0001 C CNN
F 1 "GND" H 12305 5977 50  0000 C CNN
F 2 "" H 12300 6150 50  0001 C CNN
F 3 "" H 12300 6150 50  0001 C CNN
	1    12300 6150
	-1   0    0    1   
$EndComp
Wire Wire Line
	11750 5500 10950 5500
Wire Wire Line
	11750 4950 11750 5500
Connection ~ 11750 4950
Wire Wire Line
	12650 5600 11050 5600
Wire Wire Line
	12650 4650 12650 5600
Connection ~ 12650 4650
Connection ~ 12300 6150
Wire Wire Line
	12250 6150 12300 6150
Wire Wire Line
	12300 6150 12350 6150
Wire Wire Line
	11950 6750 11350 6750
Wire Wire Line
	10450 6000 11350 6000
Wire Wire Line
	11350 6000 11350 6750
Wire Wire Line
	11700 6100 11700 6550
Wire Wire Line
	11700 6550 11950 6550
Wire Wire Line
	11950 6450 10900 6450
Wire Wire Line
	10900 6200 10450 6200
Wire Wire Line
	10900 6200 10900 6450
Wire Wire Line
	10450 6100 11700 6100
NoConn ~ 11950 6350
Wire Wire Line
	13100 4550 13100 5700
Wire Wire Line
	10450 5700 11150 5700
Connection ~ 13100 4550
Wire Wire Line
	10450 7650 10450 6800
Wire Wire Line
	10450 6700 10550 6700
Wire Wire Line
	10550 6700 10550 7350
Wire Wire Line
	10450 5400 11250 5400
Wire Wire Line
	11400 5400 11400 3600
Wire Wire Line
	12950 3600 12950 4000
Wire Wire Line
	11400 3600 12950 3600
Connection ~ 12950 4000
Wire Wire Line
	12950 4000 13250 4000
NoConn ~ 9650 4800
$Comp
L Device:CP C2
U 1 1 5C40BF8E
P 9200 4400
F 0 "C2" H 9150 4300 50  0000 R CNN
F 1 "100uF" H 9100 4500 50  0000 R CNN
F 2 "Capacitors_Tantalum_SMD:CP_Tantalum_Case-D_EIA-7343-31_Hand" H 9238 4250 50  0001 C CNN
F 3 "~" H 9200 4400 50  0001 C CNN
	1    9200 4400
	-1   0    0    1   
$EndComp
$Comp
L Device:C C3
U 1 1 5C40C069
P 9550 4400
F 0 "C3" H 9600 4500 50  0000 L CNN
F 1 "10uF" H 9600 4300 50  0000 L CNN
F 2 "Capacitors_SMD:C_1210_HandSoldering" H 9588 4250 50  0001 C CNN
F 3 "~" H 9550 4400 50  0001 C CNN
	1    9550 4400
	1    0    0    -1  
$EndComp
$Comp
L Device:C C4
U 1 1 5C40C129
P 9850 4400
F 0 "C4" H 9900 4500 50  0000 L CNN
F 1 "33pF" H 9900 4300 50  0000 L CNN
F 2 "Capacitors_SMD:C_0603_HandSoldering" H 9888 4250 50  0001 C CNN
F 3 "~" H 9850 4400 50  0001 C CNN
	1    9850 4400
	1    0    0    -1  
$EndComp
$Comp
L Device:C C5
U 1 1 5C40C238
P 10150 4400
F 0 "C5" H 10200 4500 50  0000 L CNN
F 1 "10pF" H 10200 4300 50  0000 L CNN
F 2 "Capacitors_SMD:C_0805_HandSoldering" H 10188 4250 50  0001 C CNN
F 3 "~" H 10150 4400 50  0001 C CNN
	1    10150 4400
	1    0    0    -1  
$EndComp
$Comp
L Device:D_Zener D3
U 1 1 5C40C349
P 10450 4400
F 0 "D3" V 10550 4350 50  0000 R CNN
F 1 "5.1V 0,5W" V 10350 4350 50  0000 R CNN
F 2 "Diodes_SMD:D_1206" H 10450 4400 50  0001 C CNN
F 3 "~" H 10450 4400 50  0001 C CNN
	1    10450 4400
	0    -1   -1   0   
$EndComp
Wire Wire Line
	10450 5000 10850 5000
Wire Wire Line
	9200 4250 9550 4250
Connection ~ 9550 4250
Wire Wire Line
	9550 4250 9850 4250
Connection ~ 9850 4250
Wire Wire Line
	9850 4250 10150 4250
Connection ~ 10150 4250
Wire Wire Line
	10150 4250 10450 4250
$Comp
L power:GND #PWR0161
U 1 1 5C42D419
P 9850 4100
F 0 "#PWR0161" H 9850 3850 50  0001 C CNN
F 1 "GND" H 9855 3927 50  0000 C CNN
F 2 "" H 9850 4100 50  0001 C CNN
F 3 "" H 9850 4100 50  0001 C CNN
	1    9850 4100
	-1   0    0    1   
$EndComp
Wire Wire Line
	9850 4100 9850 4250
Wire Wire Line
	9200 4550 9550 4550
Connection ~ 9550 4550
Wire Wire Line
	9550 4550 9850 4550
Connection ~ 9850 4550
Wire Wire Line
	9850 4550 10150 4550
Connection ~ 10150 4550
Wire Wire Line
	10150 4550 10450 4550
Wire Wire Line
	9850 4800 9850 4700
Connection ~ 9850 4700
Wire Wire Line
	9850 4700 9850 4550
$Comp
L Device:R R8
U 1 1 5C44B36D
P 8350 5950
F 0 "R8" V 8250 5950 50  0000 C CNN
F 1 "1k" V 8350 5950 50  0000 C CNN
F 2 "Resistors_SMD:R_1206_HandSoldering" V 8280 5950 50  0001 C CNN
F 3 "~" H 8350 5950 50  0001 C CNN
	1    8350 5950
	-1   0    0    1   
$EndComp
Text Label 8350 5800 2    50   ~ 0
PWRKEY
$Comp
L power:+3.3V #PWR0162
U 1 1 5C26702E
P 7300 9700
F 0 "#PWR0162" H 7300 9550 50  0001 C CNN
F 1 "+3.3V" V 7315 9828 50  0000 L CNN
F 2 "" H 7300 9700 50  0001 C CNN
F 3 "" H 7300 9700 50  0001 C CNN
	1    7300 9700
	0    -1   -1   0   
$EndComp
Wire Wire Line
	7300 9700 7350 9700
Wire Wire Line
	7350 9700 7350 9650
Text Notes 6600 9500 0    50   ~ 0
High: Class-D\n
$Comp
L Device:R R20
U 1 1 5C26F811
P 7400 10650
F 0 "R20" H 7470 10696 50  0000 L CNN
F 1 "100k" V 7400 10550 50  0000 L CNN
F 2 "Resistors_SMD:R_1206_HandSoldering" V 7330 10650 50  0001 C CNN
F 3 "~" H 7400 10650 50  0001 C CNN
	1    7400 10650
	1    0    0    -1  
$EndComp
$Comp
L power:GND #PWR0163
U 1 1 5C26FB99
P 7400 10800
F 0 "#PWR0163" H 7400 10550 50  0001 C CNN
F 1 "GND" H 7405 10627 50  0000 C CNN
F 2 "" H 7400 10800 50  0001 C CNN
F 3 "" H 7400 10800 50  0001 C CNN
	1    7400 10800
	1    0    0    -1  
$EndComp
Wire Wire Line
	7650 10500 7400 10500
Wire Wire Line
	7650 9650 7650 10500
Connection ~ 7400 10500
Wire Wire Line
	7400 10500 7250 10500
$Comp
L Interface_Expansion:PCF8574 U7
U 1 1 5C243E0B
P 2550 9600
F 0 "U7" H 2550 9600 50  0000 C CNN
F 1 "PCF8574" H 2450 9350 50  0000 C CNN
F 2 "SMD_Packages:SO-16-L" H 2550 9600 50  0001 C CNN
F 3 "http://www.nxp.com/documents/data_sheet/PCF8574_PCF8574A.pdf" H 2550 9600 50  0001 C CNN
	1    2550 9600
	1    0    0    -1  
$EndComp
$Comp
L Interface_Expansion:TCA9548APWR U4
U 1 1 5C243F44
P 10850 1900
F 0 "U4" H 10850 1950 50  0000 C CNN
F 1 "TCA9548APWR" H 10850 3200 50  0000 C CNN
F 2 "Housings_SSOP:TSSOP-24_4.4x7.8mm_Pitch0.65mm" H 10850 900 50  0001 C CNN
F 3 "http://www.ti.com/lit/ds/symlink/tca9548a.pdf" H 10900 2150 50  0001 C CNN
	1    10850 1900
	1    0    0    -1  
$EndComp
$Comp
L power:GND #PWR0164
U 1 1 5C2457F1
P 9900 2300
F 0 "#PWR0164" H 9900 2050 50  0001 C CNN
F 1 "GND" V 9900 2150 50  0000 R CNN
F 2 "" H 9900 2300 50  0001 C CNN
F 3 "" H 9900 2300 50  0001 C CNN
	1    9900 2300
	0    1    1    0   
$EndComp
$Comp
L power:GND #PWR0165
U 1 1 5C245909
P 10850 2900
F 0 "#PWR0165" H 10850 2650 50  0001 C CNN
F 1 "GND" H 10855 2727 50  0000 C CNN
F 2 "" H 10850 2900 50  0001 C CNN
F 3 "" H 10850 2900 50  0001 C CNN
	1    10850 2900
	1    0    0    -1  
$EndComp
$Comp
L power:+3.3V #PWR0166
U 1 1 5C2459E4
P 10850 1000
F 0 "#PWR0166" H 10850 850 50  0001 C CNN
F 1 "+3.3V" H 10865 1173 50  0000 C CNN
F 2 "" H 10850 1000 50  0001 C CNN
F 3 "" H 10850 1000 50  0001 C CNN
	1    10850 1000
	1    0    0    -1  
$EndComp
Text Label 2050 9200 2    50   ~ 0
SCL_PCF8574
Text Label 2050 9300 2    50   ~ 0
SDA_PCF8574
$Comp
L power:GND #PWR0168
U 1 1 5C25FB42
P 2550 10300
F 0 "#PWR0168" H 2550 10050 50  0001 C CNN
F 1 "GND" H 2555 10127 50  0000 C CNN
F 2 "" H 2550 10300 50  0001 C CNN
F 3 "" H 2550 10300 50  0001 C CNN
	1    2550 10300
	1    0    0    -1  
$EndComp
$Comp
L power:+3.3V #PWR0169
U 1 1 5C25FE4D
P 2550 8900
F 0 "#PWR0169" H 2550 8750 50  0001 C CNN
F 1 "+3.3V" H 2565 9073 50  0000 C CNN
F 2 "" H 2550 8900 50  0001 C CNN
F 3 "" H 2550 8900 50  0001 C CNN
	1    2550 8900
	1    0    0    -1  
$EndComp
Text GLabel 9750 1300 0    50   BiDi ~ 0
SDA
Text GLabel 10250 1200 0    50   BiDi ~ 0
SCL
Text Label 12500 1200 0    50   ~ 0
SCL_PCF8574
Text Label 13150 1300 0    50   ~ 0
SDA_PCF8574
Text Label 7150 1350 1    50   ~ 0
SDA_MAX30100
Text Label 7050 1350 1    50   ~ 0
SCL_MAX30100
Text Label 13800 1400 0    50   ~ 0
SCL_MAX30100
Text Label 14550 1500 0    50   ~ 0
SDA_MAX30100
Text Label 15250 1600 0    50   ~ 0
SCL_RPI
Text Label 15700 1700 0    50   ~ 0
SDA_RPI
Text Label 8300 1350 1    50   ~ 0
SDA_RPI
Text Label 8400 1350 1    50   ~ 0
SCL_RPI
Text Label 3050 9200 0    50   ~ 0
Shutdown_PAM
Text Label 3050 9300 0    50   ~ 0
PWRKEY
Text Label 3050 9400 0    50   ~ 0
MUTE
$Comp
L Device:R R17
U 1 1 5C267EB5
P 10300 1700
F 0 "R17" V 10200 1700 50  0000 C CNN
F 1 "100k" V 10300 1700 50  0000 C CNN
F 2 "Resistors_SMD:R_1206_HandSoldering" V 10230 1700 50  0001 C CNN
F 3 "~" H 10300 1700 50  0001 C CNN
	1    10300 1700
	0    1    1    0   
$EndComp
$Comp
L power:+3.3V #PWR0170
U 1 1 5C268296
P 10150 1700
F 0 "#PWR0170" H 10150 1550 50  0001 C CNN
F 1 "+3.3V" V 10165 1828 50  0000 L CNN
F 2 "" H 10150 1700 50  0001 C CNN
F 3 "" H 10150 1700 50  0001 C CNN
	1    10150 1700
	0    -1   -1   0   
$EndComp
$Comp
L Device:R R10
U 1 1 5C2685F8
P 12450 1050
F 0 "R10" H 12520 1096 50  0000 L CNN
F 1 "100k" V 12450 950 50  0000 L CNN
F 2 "Resistors_SMD:R_1206_HandSoldering" V 12380 1050 50  0001 C CNN
F 3 "~" H 12450 1050 50  0001 C CNN
	1    12450 1050
	1    0    0    -1  
$EndComp
$Comp
L Device:R R12
U 1 1 5C268B07
P 13100 1150
F 0 "R12" H 13170 1196 50  0000 L CNN
F 1 "100k" V 13100 1050 50  0000 L CNN
F 2 "Resistors_SMD:R_1206_HandSoldering" V 13030 1150 50  0001 C CNN
F 3 "~" H 13100 1150 50  0001 C CNN
	1    13100 1150
	1    0    0    -1  
$EndComp
$Comp
L Device:R R13
U 1 1 5C268BE1
P 13750 1250
F 0 "R13" H 13820 1296 50  0000 L CNN
F 1 "100k" V 13750 1150 50  0000 L CNN
F 2 "Resistors_SMD:R_1206_HandSoldering" V 13680 1250 50  0001 C CNN
F 3 "~" H 13750 1250 50  0001 C CNN
	1    13750 1250
	1    0    0    -1  
$EndComp
Wire Wire Line
	12500 1200 12450 1200
Connection ~ 12450 1200
Wire Wire Line
	12450 1200 12400 1200
Wire Wire Line
	13100 1300 13150 1300
Connection ~ 13100 1300
Wire Wire Line
	13750 1400 13800 1400
Connection ~ 13750 1400
$Comp
L Device:R R14
U 1 1 5C296005
P 14500 1350
F 0 "R14" H 14570 1396 50  0000 L CNN
F 1 "100k" V 14500 1250 50  0000 L CNN
F 2 "Resistors_SMD:R_1206_HandSoldering" V 14430 1350 50  0001 C CNN
F 3 "~" H 14500 1350 50  0001 C CNN
	1    14500 1350
	1    0    0    -1  
$EndComp
Wire Wire Line
	12400 1500 14500 1500
Connection ~ 14500 1500
Wire Wire Line
	14500 1500 14550 1500
$Comp
L Device:R R15
U 1 1 5C29FA8A
P 15200 1450
F 0 "R15" H 15270 1496 50  0000 L CNN
F 1 "100k" V 15200 1350 50  0000 L CNN
F 2 "Resistors_SMD:R_1206_HandSoldering" V 15130 1450 50  0001 C CNN
F 3 "~" H 15200 1450 50  0001 C CNN
	1    15200 1450
	1    0    0    -1  
$EndComp
Wire Wire Line
	12400 1600 15200 1600
Connection ~ 15200 1600
Wire Wire Line
	15200 1600 15250 1600
$Comp
L Device:R R16
U 1 1 5C2A97D9
P 15650 1550
F 0 "R16" H 15720 1596 50  0000 L CNN
F 1 "100k" V 15650 1450 50  0000 L CNN
F 2 "Resistors_SMD:R_1206_HandSoldering" V 15580 1550 50  0001 C CNN
F 3 "~" H 15650 1550 50  0001 C CNN
	1    15650 1550
	1    0    0    -1  
$EndComp
Connection ~ 15650 1700
Wire Wire Line
	15650 1700 15700 1700
$Comp
L power:+3.3V #PWR0171
U 1 1 5C2B3A14
P 15650 1400
F 0 "#PWR0171" H 15650 1250 50  0001 C CNN
F 1 "+3.3V" H 15665 1573 50  0000 C CNN
F 2 "" H 15650 1400 50  0001 C CNN
F 3 "" H 15650 1400 50  0001 C CNN
	1    15650 1400
	1    0    0    -1  
$EndComp
$Comp
L power:+3.3V #PWR0172
U 1 1 5C2B3AE8
P 15200 1300
F 0 "#PWR0172" H 15200 1150 50  0001 C CNN
F 1 "+3.3V" H 15215 1473 50  0000 C CNN
F 2 "" H 15200 1300 50  0001 C CNN
F 3 "" H 15200 1300 50  0001 C CNN
	1    15200 1300
	1    0    0    -1  
$EndComp
$Comp
L power:+3.3V #PWR0173
U 1 1 5C2B3BBC
P 14500 1200
F 0 "#PWR0173" H 14500 1050 50  0001 C CNN
F 1 "+3.3V" H 14515 1373 50  0000 C CNN
F 2 "" H 14500 1200 50  0001 C CNN
F 3 "" H 14500 1200 50  0001 C CNN
	1    14500 1200
	1    0    0    -1  
$EndComp
$Comp
L power:+3.3V #PWR0174
U 1 1 5C2B3C90
P 13750 1100
F 0 "#PWR0174" H 13750 950 50  0001 C CNN
F 1 "+3.3V" H 13765 1273 50  0000 C CNN
F 2 "" H 13750 1100 50  0001 C CNN
F 3 "" H 13750 1100 50  0001 C CNN
	1    13750 1100
	1    0    0    -1  
$EndComp
$Comp
L power:+3.3V #PWR0175
U 1 1 5C2B3D64
P 13100 1000
F 0 "#PWR0175" H 13100 850 50  0001 C CNN
F 1 "+3.3V" H 13115 1173 50  0000 C CNN
F 2 "" H 13100 1000 50  0001 C CNN
F 3 "" H 13100 1000 50  0001 C CNN
	1    13100 1000
	1    0    0    -1  
$EndComp
$Comp
L power:+3.3V #PWR0176
U 1 1 5C2B3E38
P 12450 900
F 0 "#PWR0176" H 12450 750 50  0001 C CNN
F 1 "+3.3V" H 12465 1073 50  0000 C CNN
F 2 "" H 12450 900 50  0001 C CNN
F 3 "" H 12450 900 50  0001 C CNN
	1    12450 900 
	1    0    0    -1  
$EndComp
Text Label 10450 6400 0    50   ~ 0
STATUS
Text Label 3600 4700 0    50   ~ 0
STATUS
Text Label 3600 4800 0    50   ~ 0
LO-
Text Label 3600 6200 0    50   ~ 0
LO+
$Comp
L Device:R R9
U 1 1 5C2B83E8
P 10350 1050
F 0 "R9" H 10420 1096 50  0000 L CNN
F 1 "100k" V 10350 950 50  0000 L CNN
F 2 "Resistors_SMD:R_1206_HandSoldering" V 10280 1050 50  0001 C CNN
F 3 "~" H 10350 1050 50  0001 C CNN
	1    10350 1050
	1    0    0    -1  
$EndComp
$Comp
L Device:R R11
U 1 1 5C2B8AAF
P 9850 1150
F 0 "R11" H 9920 1196 50  0000 L CNN
F 1 "100k" V 9850 1050 50  0000 L CNN
F 2 "Resistors_SMD:R_1206_HandSoldering" V 9780 1150 50  0001 C CNN
F 3 "~" H 9850 1150 50  0001 C CNN
	1    9850 1150
	1    0    0    -1  
$EndComp
Wire Wire Line
	10250 1200 10350 1200
Connection ~ 10350 1200
Wire Wire Line
	10350 1200 10450 1200
Wire Wire Line
	9750 1300 9850 1300
Connection ~ 9850 1300
Wire Wire Line
	9850 1300 10450 1300
$Comp
L power:+3.3V #PWR0177
U 1 1 5C2CDD91
P 9850 1000
F 0 "#PWR0177" H 9850 850 50  0001 C CNN
F 1 "+3.3V" H 9865 1173 50  0000 C CNN
F 2 "" H 9850 1000 50  0001 C CNN
F 3 "" H 9850 1000 50  0001 C CNN
	1    9850 1000
	1    0    0    -1  
$EndComp
$Comp
L power:+3.3V #PWR0178
U 1 1 5C2CDE69
P 10350 900
F 0 "#PWR0178" H 10350 750 50  0001 C CNN
F 1 "+3.3V" H 10365 1073 50  0000 C CNN
F 2 "" H 10350 900 50  0001 C CNN
F 3 "" H 10350 900 50  0001 C CNN
	1    10350 900 
	1    0    0    -1  
$EndComp
Text Notes 13550 6450 0    50   ~ 0
Sortie différentielle (differential = balanced audio)
$Comp
L Connector:Conn_01x05_Male J38
U 1 1 5C2E4423
P 3250 9700
F 0 "J38" H 3223 9630 50  0000 R CNN
F 1 "Conn_01x05_Male" H 3223 9721 50  0000 R CNN
F 2 "Pin_Headers:Pin_Header_Straight_1x05_Pitch2.54mm" H 3250 9700 50  0001 C CNN
F 3 "~" H 3250 9700 50  0001 C CNN
	1    3250 9700
	-1   0    0    1   
$EndComp
Text Notes 3500 9850 0    50   ~ 0
Vers carte moteur
$Comp
L Connector:Conn_01x04_Male J4
U 1 1 5C2E71F1
P 8150 2450
F 0 "J4" H 8256 2728 50  0000 C CNN
F 1 "Conn_01x04_Male" H 8256 2637 50  0000 C CNN
F 2 "Pin_Headers:Pin_Header_Straight_1x04_Pitch2.54mm" H 8150 2450 50  0001 C CNN
F 3 "~" H 8150 2450 50  0001 C CNN
	1    8150 2450
	0    -1   -1   0   
$EndComp
$Comp
L power:GND #PWR0179
U 1 1 5C2E76AA
P 8050 2250
F 0 "#PWR0179" H 8050 2000 50  0001 C CNN
F 1 "GND" V 8055 2122 50  0000 R CNN
F 2 "" H 8050 2250 50  0001 C CNN
F 3 "" H 8050 2250 50  0001 C CNN
	1    8050 2250
	-1   0    0    1   
$EndComp
$Comp
L power:+BATT #PWR0180
U 1 1 5C2E78C7
P 8150 2250
F 0 "#PWR0180" H 8150 2100 50  0001 C CNN
F 1 "+BATT" V 8165 2378 50  0000 L CNN
F 2 "" H 8150 2250 50  0001 C CNN
F 3 "" H 8150 2250 50  0001 C CNN
	1    8150 2250
	1    0    0    -1  
$EndComp
$Comp
L power:+3.3V #PWR0181
U 1 1 5C2E7A15
P 8250 2250
F 0 "#PWR0181" H 8250 2100 50  0001 C CNN
F 1 "+3.3V" V 8265 2378 50  0000 L CNN
F 2 "" H 8250 2250 50  0001 C CNN
F 3 "" H 8250 2250 50  0001 C CNN
	1    8250 2250
	1    0    0    -1  
$EndComp
$Comp
L power:+5V #PWR0182
U 1 1 5C2E7CD0
P 8350 2250
F 0 "#PWR0182" H 8350 2100 50  0001 C CNN
F 1 "+5V" V 8365 2378 50  0000 L CNN
F 2 "" H 8350 2250 50  0001 C CNN
F 3 "" H 8350 2250 50  0001 C CNN
	1    8350 2250
	1    0    0    -1  
$EndComp
Text Label 3600 5200 0    50   ~ 0
SIM800_RI
$Comp
L Device:Ferrite_Bead_Small FB4
U 1 1 5C25C4C1
P 9200 10050
F 0 "FB4" V 9350 10050 50  0000 C CNN
F 1 "FB 120Ohm 2A" V 9050 10050 50  0000 C CNN
F 2 "Resistors_SMD:R_1206_HandSoldering" V 9130 10050 50  0001 C CNN
F 3 "~" H 9200 10050 50  0001 C CNN
	1    9200 10050
	0    -1   -1   0   
$EndComp
$Comp
L Device:Ferrite_Bead_Small FB3
U 1 1 5C25CDC5
P 9200 9750
F 0 "FB3" V 9450 9750 50  0000 C CNN
F 1 "FB 120Ohm 2A" V 9350 9750 50  0000 C CNN
F 2 "Resistors_SMD:R_1206_HandSoldering" V 9130 9750 50  0001 C CNN
F 3 "~" H 9200 9750 50  0001 C CNN
	1    9200 9750
	0    -1   -1   0   
$EndComp
$Comp
L Device:Ferrite_Bead_Small FB1
U 1 1 5C25D2E8
P 9250 8400
F 0 "FB1" V 9500 8400 50  0000 C CNN
F 1 "FB 120Ohm 2A" V 9400 8400 50  0000 C CNN
F 2 "Resistors_SMD:R_1206_HandSoldering" V 9180 8400 50  0001 C CNN
F 3 "~" H 9250 8400 50  0001 C CNN
	1    9250 8400
	0    -1   -1   0   
$EndComp
$Comp
L Device:Ferrite_Bead_Small FB2
U 1 1 5C25D3B4
P 9250 8700
F 0 "FB2" V 9400 8700 50  0000 C CNN
F 1 "FB 120Ohm 2A" V 9100 8700 50  0000 C CNN
F 2 "Resistors_SMD:R_1206_HandSoldering" V 9180 8700 50  0001 C CNN
F 3 "~" H 9250 8700 50  0001 C CNN
	1    9250 8700
	0    -1   -1   0   
$EndComp
Wire Wire Line
	9350 8400 9650 8400
Wire Wire Line
	9350 8700 9650 8700
Wire Wire Line
	9300 9750 9650 9750
Wire Wire Line
	8700 9750 9100 9750
Wire Wire Line
	8950 10050 9100 10050
Wire Wire Line
	9300 10050 9650 10050
$Comp
L Connector:Conn_01x05_Male J27
U 1 1 5C261BFC
P 7550 9850
F 0 "J27" V 7703 9563 50  0000 R CNN
F 1 "Conn_01x05_Male" V 7150 10500 50  0001 R CNN
F 2 "Pin_Headers:Pin_Header_Straight_1x05_Pitch2.54mm" H 7550 9850 50  0001 C CNN
F 3 "~" H 7550 9850 50  0001 C CNN
	1    7550 9850
	0    -1   -1   0   
$EndComp
$Comp
L Connector:Conn_01x01_Male J28
U 1 1 5C261F47
P 7950 9850
F 0 "J28" V 8103 9763 50  0000 R CNN
F 1 "Conn_01x01_Male" V 7350 9650 50  0001 R CNN
F 2 "Pin_Headers:Pin_Header_Straight_1x01_Pitch2.54mm" H 7950 9850 50  0001 C CNN
F 3 "~" H 7950 9850 50  0001 C CNN
	1    7950 9850
	0    -1   -1   0   
$EndComp
$Comp
L Connector_Generic:Conn_02x01 J30
U 1 1 5C262A50
P 8650 10050
F 0 "J30" H 8700 10267 50  0000 C CNN
F 1 "Conn_02x01" H 8700 10176 50  0000 C CNN
F 2 "Pin_Headers:Pin_Header_Straight_2x01_Pitch2.54mm" H 8650 10050 50  0001 C CNN
F 3 "~" H 8650 10050 50  0001 C CNN
	1    8650 10050
	1    0    0    -1  
$EndComp
$Comp
L Connector_Generic:Conn_02x01 J26
U 1 1 5C26DAF2
P 8400 9750
F 0 "J26" H 8450 9967 50  0000 C CNN
F 1 "Conn_02x01" H 8450 9876 50  0000 C CNN
F 2 "Pin_Headers:Pin_Header_Straight_2x01_Pitch2.54mm" H 8400 9750 50  0001 C CNN
F 3 "~" H 8400 9750 50  0001 C CNN
	1    8400 9750
	1    0    0    -1  
$EndComp
Wire Wire Line
	8050 9750 8200 9750
Wire Wire Line
	7850 9900 8450 9900
Wire Wire Line
	8450 9900 8450 10050
Wire Wire Line
	7850 9650 7850 9900
$Comp
L Connector_Generic:Conn_02x01 J21
U 1 1 5C29826A
P 8600 8400
F 0 "J21" H 8650 8617 50  0000 C CNN
F 1 "Conn_02x01" H 8650 8526 50  0000 C CNN
F 2 "Pin_Headers:Pin_Header_Straight_2x01_Pitch2.54mm" H 8600 8400 50  0001 C CNN
F 3 "~" H 8600 8400 50  0001 C CNN
	1    8600 8400
	1    0    0    -1  
$EndComp
$Comp
L Connector_Generic:Conn_02x01 J25
U 1 1 5C298356
P 8850 8700
F 0 "J25" H 8900 8917 50  0000 C CNN
F 1 "Conn_02x01" H 8900 8826 50  0000 C CNN
F 2 "Pin_Headers:Pin_Header_Straight_2x01_Pitch2.54mm" H 8850 8700 50  0001 C CNN
F 3 "~" H 8850 8700 50  0001 C CNN
	1    8850 8700
	1    0    0    -1  
$EndComp
Wire Wire Line
	8050 8700 8650 8700
Wire Wire Line
	8900 8400 9150 8400
Wire Wire Line
	7850 8600 8400 8600
Wire Wire Line
	8400 8600 8400 8400
$Comp
L Connector:Conn_01x01_Male J23
U 1 1 5C2C24C9
P 7950 8500
F 0 "J23" V 8056 8541 50  0000 L CNN
F 1 "Conn_01x01_Male" V 8101 8540 50  0001 L CNN
F 2 "Pin_Headers:Pin_Header_Straight_1x01_Pitch2.54mm" H 7950 8500 50  0001 C CNN
F 3 "~" H 7950 8500 50  0001 C CNN
	1    7950 8500
	0    1    1    0   
$EndComp
$Comp
L Connector:Conn_01x05_Male J22
U 1 1 5C2C2705
P 7550 8500
F 0 "J22" V 7656 8741 50  0000 L CNN
F 1 "Conn_01x05_Male" V 7701 8740 50  0001 L CNN
F 2 "Pin_Headers:Pin_Header_Straight_1x05_Pitch2.54mm" H 7550 8500 50  0001 C CNN
F 3 "~" H 7550 8500 50  0001 C CNN
	1    7550 8500
	0    1    1    0   
$EndComp
$Comp
L power:GND #PWR0183
U 1 1 5C2C2FEF
P 1500 9600
F 0 "#PWR0183" H 1500 9350 50  0001 C CNN
F 1 "GND" V 1505 9472 50  0000 R CNN
F 2 "" H 1500 9600 50  0001 C CNN
F 3 "" H 1500 9600 50  0001 C CNN
	1    1500 9600
	0    1    1    0   
$EndComp
Wire Wire Line
	1550 9500 1550 9600
Connection ~ 1550 9600
Wire Wire Line
	1550 9600 1550 9700
Wire Wire Line
	1500 9600 1550 9600
$Comp
L Connector:Conn_01x03_Male J35
U 1 1 5C2D83C8
P 3250 9300
F 0 "J35" H 3222 9276 50  0000 R CNN
F 1 "Conn_01x03_Male" H 3223 9321 50  0001 R CNN
F 2 "Pin_Headers:Pin_Header_Straight_1x03_Pitch2.54mm" H 3250 9300 50  0001 C CNN
F 3 "~" H 3250 9300 50  0001 C CNN
	1    3250 9300
	-1   0    0    1   
$EndComp
$Comp
L Connector:Conn_01x01_Male J39
U 1 1 5C2D8773
P 1850 10000
F 0 "J39" H 1900 10100 50  0000 C CNN
F 1 "Conn_01x01_Male" H 1800 9900 50  0000 C CNN
F 2 "Pin_Headers:Pin_Header_Straight_1x01_Pitch2.54mm" H 1850 10000 50  0001 C CNN
F 3 "~" H 1850 10000 50  0001 C CNN
	1    1850 10000
	1    0    0    -1  
$EndComp
$Comp
L Connector:Conn_01x02_Male J34
U 1 1 5C2D8EAD
P 1850 9200
F 0 "J34" H 1956 9287 50  0000 C CNN
F 1 "Conn_01x02_Male" H 1956 9287 50  0001 C CNN
F 2 "Pin_Headers:Pin_Header_Straight_1x02_Pitch2.54mm" H 1850 9200 50  0001 C CNN
F 3 "~" H 1850 9200 50  0001 C CNN
	1    1850 9200
	1    0    0    -1  
$EndComp
$Comp
L Connector:Conn_01x10_Male J20
U 1 1 5C2F01F3
P 12100 2200
F 0 "J20" H 12073 2080 50  0000 R CNN
F 1 "Conn_01x10_Male" H 12073 2171 50  0000 R CNN
F 2 "Pin_Headers:Pin_Header_Straight_1x10_Pitch2.54mm" H 12100 2200 50  0001 C CNN
F 3 "~" H 12100 2200 50  0001 C CNN
	1    12100 2200
	-1   0    0    -1  
$EndComp
Wire Wire Line
	9950 2200 9950 2300
Connection ~ 9950 2300
Wire Wire Line
	9950 2300 9950 2400
Wire Wire Line
	9900 2300 9950 2300
$Comp
L Connector:Conn_01x02_Male J17
U 1 1 5C3064C7
P 10250 1200
F 0 "J17" H 10300 1000 50  0000 C CNN
F 1 "Conn_01x02_Male" H 10356 1287 50  0001 C CNN
F 2 "Pin_Headers:Pin_Header_Straight_1x02_Pitch2.54mm" H 10250 1200 50  0001 C CNN
F 3 "~" H 10250 1200 50  0001 C CNN
	1    10250 1200
	1    0    0    -1  
$EndComp
Connection ~ 10450 1200
Connection ~ 10450 1300
Wire Wire Line
	14150 7550 14650 7550
$Comp
L Connector_Generic:Conn_02x01 J15
U 1 1 5C312E4F
P 14650 7750
F 0 "J15" V 14654 7830 50  0000 L CNN
F 1 "Conn_02x01" V 14745 7830 50  0000 L CNN
F 2 "Pin_Headers:Pin_Header_Straight_2x01_Pitch2.54mm" H 14650 7750 50  0001 C CNN
F 3 "~" H 14650 7750 50  0001 C CNN
	1    14650 7750
	0    1    1    0   
$EndComp
$Comp
L power:GND #PWR0184
U 1 1 5C312FDE
P 14650 8050
F 0 "#PWR0184" H 14650 7800 50  0001 C CNN
F 1 "GND" H 14655 7877 50  0000 C CNN
F 2 "" H 14650 8050 50  0001 C CNN
F 3 "" H 14650 8050 50  0001 C CNN
	1    14650 8050
	1    0    0    -1  
$EndComp
Wire Wire Line
	14150 7450 14950 7450
Wire Wire Line
	14650 7550 14950 7550
Connection ~ 14650 7550
$Comp
L Connector:Conn_01x01_Male J24
U 1 1 5C32AACC
P 6600 8250
F 0 "J24" H 6706 8337 50  0000 C CNN
F 1 "Conn_01x01_Male" H 6706 8337 50  0001 C CNN
F 2 "Pin_Headers:Pin_Header_Straight_1x01_Pitch2.54mm" H 6600 8250 50  0001 C CNN
F 3 "~" H 6600 8250 50  0001 C CNN
	1    6600 8250
	1    0    0    -1  
$EndComp
$Comp
L Connector:Conn_01x01_Male J31
U 1 1 5C32AD3C
P 6550 10100
F 0 "J31" H 6656 10187 50  0000 C CNN
F 1 "Conn_01x01_Male" H 6656 10187 50  0001 C CNN
F 2 "Pin_Headers:Pin_Header_Straight_1x01_Pitch2.54mm" H 6550 10100 50  0001 C CNN
F 3 "~" H 6550 10100 50  0001 C CNN
	1    6550 10100
	1    0    0    -1  
$EndComp
$Comp
L Connector:Conn_01x02_Male J14
U 1 1 5C32B25E
P 15150 7550
F 0 "J14" H 15123 7430 50  0000 R CNN
F 1 "Conn_01x02_Male" H 15123 7521 50  0000 R CNN
F 2 "Pin_Headers:Pin_Header_Straight_1x02_Pitch2.54mm" H 15150 7550 50  0001 C CNN
F 3 "~" H 15150 7550 50  0001 C CNN
	1    15150 7550
	-1   0    0    1   
$EndComp
$Comp
L Connector:Conn_01x01_Male J32
U 1 1 5C32C4DB
P 2350 8900
F 0 "J32" H 2400 9000 50  0000 C CNN
F 1 "Conn_01x01_Male" H 2456 8987 50  0001 C CNN
F 2 "Pin_Headers:Pin_Header_Straight_1x01_Pitch2.54mm" H 2350 8900 50  0001 C CNN
F 3 "~" H 2350 8900 50  0001 C CNN
	1    2350 8900
	1    0    0    -1  
$EndComp
Connection ~ 2550 8900
$Comp
L Connector:Conn_01x01_Male J40
U 1 1 5C32C97F
P 2350 10300
F 0 "J40" H 2400 10400 50  0000 C CNN
F 1 "Conn_01x01_Male" H 2456 10387 50  0001 C CNN
F 2 "Pin_Headers:Pin_Header_Straight_1x01_Pitch2.54mm" H 2350 10300 50  0001 C CNN
F 3 "~" H 2350 10300 50  0001 C CNN
	1    2350 10300
	1    0    0    -1  
$EndComp
Connection ~ 2550 10300
$Comp
L Connector:Conn_01x06_Female J1
U 1 1 5C32FB04
P 6050 1550
F 0 "J1" H 5950 1100 50  0000 C CNN
F 1 "Conn_01x06_Female" H 6600 1400 50  0001 C CNN
F 2 "Pin_Headers:Pin_Header_Straight_1x06_Pitch2.54mm" H 6050 1550 50  0001 C CNN
F 3 "~" H 6050 1550 50  0001 C CNN
	1    6050 1550
	0    1    1    0   
$EndComp
$Comp
L Connector:Conn_01x05_Male J3
U 1 1 5C330519
P 7050 1550
F 0 "J3" H 7156 1928 50  0000 C CNN
F 1 "Conn_01x05_Male" H 7156 1837 50  0000 C CNN
F 2 "Pin_Headers:Pin_Header_Straight_1x05_Pitch2.54mm" H 7050 1550 50  0001 C CNN
F 3 "~" H 7050 1550 50  0001 C CNN
	1    7050 1550
	0    -1   -1   0   
$EndComp
$Comp
L power:GND #PWR0185
U 1 1 5C365541
P 8200 1350
F 0 "#PWR0185" H 8200 1100 50  0001 C CNN
F 1 "GND" V 8205 1222 50  0000 R CNN
F 2 "" H 8200 1350 50  0001 C CNN
F 3 "" H 8200 1350 50  0001 C CNN
	1    8200 1350
	-1   0    0    1   
$EndComp
Text Notes 8800 1550 1    50   ~ 0
RPI connexion
$Comp
L Connector:Conn_01x07_Male J7
U 1 1 5C37C4CE
P 7400 5050
F 0 "J7" H 7506 5437 50  0000 C CNN
F 1 "Conn_01x07_Male" H 7506 5437 50  0001 C CNN
F 2 "Pin_Headers:Pin_Header_Straight_1x07_Pitch2.54mm" H 7400 5050 50  0001 C CNN
F 3 "~" H 7400 5050 50  0001 C CNN
	1    7400 5050
	1    0    0    1   
$EndComp
$Comp
L Connector:Conn_01x02_Male J9
U 1 1 5C37C76E
P 8650 5800
F 0 "J9" H 8756 5887 50  0000 C CNN
F 1 "Conn_01x02_Male" H 8756 5887 50  0001 C CNN
F 2 "Pin_Headers:Pin_Header_Straight_1x02_Pitch2.54mm" H 8650 5800 50  0001 C CNN
F 3 "~" H 8650 5800 50  0001 C CNN
	1    8650 5800
	1    0    0    -1  
$EndComp
Wire Wire Line
	7500 5600 7850 5600
Wire Wire Line
	7850 5650 7850 5600
Connection ~ 7850 5600
Wire Wire Line
	7850 5600 7900 5600
$Comp
L Connector_Generic:Conn_02x01 J10
U 1 1 5C3A547D
P 8550 6100
F 0 "J10" H 8600 6225 50  0000 C CNN
F 1 "Conn_02x01" H 8600 6226 50  0001 C CNN
F 2 "Pin_Headers:Pin_Header_Straight_2x01_Pitch2.54mm" H 8550 6100 50  0001 C CNN
F 3 "~" H 8550 6100 50  0001 C CNN
	1    8550 6100
	1    0    0    -1  
$EndComp
$Comp
L Connector:Conn_01x02_Male J13
U 1 1 5C3B08F9
P 6600 6700
F 0 "J13" H 6706 6787 50  0000 C CNN
F 1 "Conn_01x02_Male" H 6706 6787 50  0001 C CNN
F 2 "Pin_Headers:Pin_Header_Straight_1x02_Pitch2.54mm" H 6600 6700 50  0001 C CNN
F 3 "~" H 6600 6700 50  0001 C CNN
	1    6600 6700
	1    0    0    -1  
$EndComp
Wire Wire Line
	6800 6700 7100 6700
Wire Wire Line
	6800 6800 7100 6800
Wire Wire Line
	7100 6800 7100 6900
Wire Wire Line
	7100 6600 7100 6700
Wire Wire Line
	7100 6600 7250 6600
$Comp
L Connector:Conn_01x05_Male J8
U 1 1 5C3D0AC4
P 11050 5950
F 0 "J8" H 11022 5926 50  0000 R CNN
F 1 "Conn_01x05_Male" H 11023 5971 50  0001 R CNN
F 2 "Pin_Headers:Pin_Header_Straight_1x05_Pitch2.54mm" H 11050 5950 50  0001 C CNN
F 3 "~" H 11050 5950 50  0001 C CNN
	1    11050 5950
	0    -1   -1   0   
$EndComp
$Comp
L Connector:Conn_01x03_Male J11
U 1 1 5C3D1137
P 10650 6100
F 0 "J11" H 10622 6076 50  0000 R CNN
F 1 "Conn_01x03_Male" H 10623 6121 50  0001 R CNN
F 2 "Pin_Headers:Pin_Header_Straight_1x03_Pitch2.54mm" H 10650 6100 50  0001 C CNN
F 3 "~" H 10650 6100 50  0001 C CNN
	1    10650 6100
	-1   0    0    1   
$EndComp
Connection ~ 10450 6200
Connection ~ 10450 6100
Connection ~ 10450 6000
Wire Wire Line
	13500 4650 13800 4650
Text Label 3600 5600 0    50   ~ 0
SIM800_TX
Text Label 3600 5700 0    50   ~ 0
SIM800_RX
$Comp
L Connector:Conn_01x14_Male J37
U 1 1 5C26ADA0
P 5750 5250
F 0 "J37" H 5723 5223 50  0000 R CNN
F 1 "Conn_01x14_Male" H 5723 5132 50  0000 R CNN
F 2 "Pin_Headers:Pin_Header_Straight_1x14_Pitch2.54mm" H 5750 5250 50  0001 C CNN
F 3 "~" H 5750 5250 50  0001 C CNN
	1    5750 5250
	-1   0    0    -1  
$EndComp
Wire Wire Line
	5100 6600 5100 4650
Wire Wire Line
	5100 4650 5550 4650
Connection ~ 3600 6600
Wire Wire Line
	5550 4750 4250 4750
Wire Wire Line
	4250 4750 4250 4000
Wire Wire Line
	4250 4000 3600 4000
Connection ~ 3600 4000
Wire Wire Line
	5550 4850 5300 4850
Wire Wire Line
	5300 4850 5300 3450
Wire Wire Line
	5300 3450 2200 3450
Wire Wire Line
	2200 3450 2200 3850
Connection ~ 2200 3850
Wire Wire Line
	5550 4950 5350 4950
Wire Wire Line
	5350 4950 5350 3150
Wire Wire Line
	5350 3150 2100 3150
Wire Wire Line
	2100 3150 2100 4500
Wire Wire Line
	2100 4500 2200 4500
Wire Wire Line
	2200 4600 2050 4600
Wire Wire Line
	2050 4600 2050 3100
Wire Wire Line
	2050 3100 5400 3100
Wire Wire Line
	5400 3100 5400 5050
Wire Wire Line
	5400 5050 5550 5050
Wire Wire Line
	4800 6200 4800 5150
Wire Wire Line
	4800 5150 5550 5150
Wire Wire Line
	5550 5250 4900 5250
Wire Wire Line
	4900 6250 3600 6250
Wire Wire Line
	3600 6250 3600 6300
Wire Wire Line
	4900 5250 4900 6250
Wire Wire Line
	3600 6200 4800 6200
Wire Wire Line
	5550 5350 5200 5350
Wire Wire Line
	5200 5350 5200 6000
Wire Wire Line
	5200 6000 3600 6000
Wire Wire Line
	5550 5450 5250 5450
Wire Wire Line
	5250 5450 5250 6100
Wire Wire Line
	5250 6100 3600 6100
Wire Wire Line
	5550 5550 4000 5550
Wire Wire Line
	4000 5550 4000 5700
Wire Wire Line
	4000 5700 3600 5700
Wire Wire Line
	3600 5800 4700 5800
Wire Wire Line
	4700 5800 4700 5650
Wire Wire Line
	4700 5650 5550 5650
Wire Wire Line
	3600 5900 4750 5900
Wire Wire Line
	4750 5900 4750 5750
Wire Wire Line
	4750 5750 5550 5750
Wire Wire Line
	5550 5850 4300 5850
Wire Wire Line
	4300 5850 4300 4800
Wire Wire Line
	4300 4800 3600 4800
Wire Wire Line
	5550 5950 5550 6000
Wire Wire Line
	5550 6000 5350 6000
Wire Wire Line
	5350 6000 5350 5950
Wire Wire Line
	5350 5950 4500 5950
Wire Wire Line
	4500 5950 4500 4600
Wire Wire Line
	4500 4600 3600 4600
$Comp
L Connector:Conn_01x10_Male J41
U 1 1 5C35E02A
P 950 5650
F 0 "J41" H 1056 6228 50  0000 C CNN
F 1 "Conn_01x10_Male" H 1056 6137 50  0000 C CNN
F 2 "Pin_Headers:Pin_Header_Straight_1x10_Pitch2.54mm" H 950 5650 50  0001 C CNN
F 3 "~" H 950 5650 50  0001 C CNN
	1    950  5650
	1    0    0    -1  
$EndComp
Wire Wire Line
	3600 4700 2900 4700
Wire Wire Line
	2900 4700 2900 5350
Wire Wire Line
	2900 5350 1150 5350
Wire Wire Line
	1150 5450 1650 5450
Wire Wire Line
	1650 5450 1650 5900
Wire Wire Line
	1650 5900 2200 5900
Wire Wire Line
	2200 6000 1600 6000
Wire Wire Line
	1600 6000 1600 5550
Wire Wire Line
	1600 5550 1150 5550
Wire Wire Line
	1150 5650 1750 5650
Wire Wire Line
	1750 5650 1750 5300
Wire Wire Line
	1750 5300 2200 5300
Wire Wire Line
	2200 5400 1800 5400
Wire Wire Line
	1800 5400 1800 5750
Wire Wire Line
	1800 5750 1150 5750
Wire Wire Line
	2200 5500 1850 5500
Wire Wire Line
	1850 5500 1850 5850
Wire Wire Line
	1850 5850 1150 5850
Wire Wire Line
	1150 5950 1900 5950
Wire Wire Line
	1900 5950 1900 5600
Wire Wire Line
	1900 5600 2200 5600
Wire Wire Line
	3600 4900 2950 4900
Wire Wire Line
	2950 4900 2950 6050
Wire Wire Line
	2950 6050 1150 6050
Wire Wire Line
	3600 4300 3050 4300
Wire Wire Line
	3050 4300 3050 6150
Wire Wire Line
	3050 6150 1150 6150
Wire Wire Line
	3800 3850 3800 3000
Wire Wire Line
	3800 3000 6100 3000
Wire Wire Line
	6100 3000 6100 3100
Connection ~ 3800 3850
Wire Wire Line
	6100 3200 4700 3200
Wire Wire Line
	4700 3200 4700 4400
Wire Wire Line
	4700 4400 3600 4400
Wire Wire Line
	3600 5000 4800 5000
Wire Wire Line
	4800 5000 4800 3300
Wire Wire Line
	4800 3300 6100 3300
Wire Wire Line
	6100 3400 4850 3400
Wire Wire Line
	4850 3400 4850 5100
Wire Wire Line
	4850 5100 3600 5100
Wire Wire Line
	3600 4500 5000 4500
Wire Wire Line
	5000 4500 5000 3500
Wire Wire Line
	5000 3500 6100 3500
Wire Wire Line
	6100 3600 4950 3600
Wire Wire Line
	4950 3600 4950 5200
Wire Wire Line
	4950 5200 3600 5200
Wire Wire Line
	3600 5300 5050 5300
Wire Wire Line
	5050 5300 5050 3700
Wire Wire Line
	5050 3700 6100 3700
Wire Wire Line
	6100 3900 4550 3900
Wire Wire Line
	4550 3900 4550 5400
Wire Wire Line
	4550 5400 3600 5400
Wire Wire Line
	6100 4000 4750 4000
Wire Wire Line
	4750 4000 4750 5500
Wire Wire Line
	4750 5500 3600 5500
Wire Wire Line
	3600 5600 5150 5600
Wire Wire Line
	5150 5600 5150 4100
Wire Wire Line
	5150 4100 6100 4100
Wire Wire Line
	6100 6600 5100 6600
Connection ~ 5100 6600
$Comp
L Connector:Conn_01x12_Male J29
U 1 1 5C5C6AA6
P 6300 3600
F 0 "J29" H 6273 3573 50  0000 R CNN
F 1 "Conn_01x12_Male" H 6273 3482 50  0000 R CNN
F 2 "Pin_Headers:Pin_Header_Straight_1x12_Pitch2.54mm" H 6300 3600 50  0001 C CNN
F 3 "~" H 6300 3600 50  0001 C CNN
	1    6300 3600
	-1   0    0    -1  
$EndComp
Wire Wire Line
	6100 4200 6100 6600
NoConn ~ 6100 3800
Wire Wire Line
	3950 6600 3950 7200
Wire Wire Line
	3950 7200 750  7200
Wire Wire Line
	750  7200 750  4950
Wire Wire Line
	750  4950 1150 4950
Wire Wire Line
	1150 4950 1150 5250
Wire Wire Line
	3600 6600 3950 6600
Connection ~ 3950 6600
Wire Wire Line
	3950 6600 5100 6600
$Comp
L Device:C C37
U 1 1 5C677D42
P 1850 1100
F 0 "C37" V 1598 1100 50  0000 C CNN
F 1 "100nF" V 1689 1100 50  0000 C CNN
F 2 "Capacitors_SMD:C_1206_HandSoldering" H 1888 950 50  0001 C CNN
F 3 "~" H 1850 1100 50  0001 C CNN
	1    1850 1100
	0    1    1    0   
$EndComp
$Comp
L power:GND #PWR0186
U 1 1 5C677F71
P 1700 1100
F 0 "#PWR0186" H 1700 850 50  0001 C CNN
F 1 "GND" V 1705 972 50  0000 R CNN
F 2 "" H 1700 1100 50  0001 C CNN
F 3 "" H 1700 1100 50  0001 C CNN
	1    1700 1100
	0    1    1    0   
$EndComp
$Comp
L Connector:Conn_01x02_Male J42
U 1 1 5C678533
P 4450 1300
F 0 "J42" H 4423 1180 50  0000 R CNN
F 1 "Conn_01x02_Male" H 4423 1271 50  0000 R CNN
F 2 "Pin_Headers:Pin_Header_Straight_1x02_Pitch2.54mm" H 4450 1300 50  0001 C CNN
F 3 "~" H 4450 1300 50  0001 C CNN
	1    4450 1300
	-1   0    0    1   
$EndComp
Wire Wire Line
	4050 1300 4050 1200
Wire Wire Line
	4050 1200 4250 1200
Wire Wire Line
	3600 1300 4050 1300
Wire Wire Line
	3600 1500 3800 1500
Wire Wire Line
	3800 1500 3800 1350
Wire Wire Line
	3800 1350 4250 1350
Wire Wire Line
	4250 1350 4250 1300
$Comp
L Connector:Conn_01x04_Male J43
U 1 1 5C7119AE
P 4450 1650
F 0 "J43" H 4423 1530 50  0000 R CNN
F 1 "Conn_01x04_Male" H 4423 1621 50  0000 R CNN
F 2 "Pin_Headers:Pin_Header_Straight_1x04_Pitch2.54mm" H 4450 1650 50  0001 C CNN
F 3 "~" H 4450 1650 50  0001 C CNN
	1    4450 1650
	-1   0    0    1   
$EndComp
Wire Wire Line
	3600 2050 5100 2050
Wire Wire Line
	3600 2200 5750 2200
Wire Wire Line
	3600 1800 4250 1800
Wire Wire Line
	4250 1800 4250 1750
Wire Wire Line
	3600 1600 4250 1600
Wire Wire Line
	4250 1600 4250 1650
Wire Wire Line
	4250 1550 3750 1550
Wire Wire Line
	3750 1550 3750 1700
Wire Wire Line
	3750 1700 3600 1700
Wire Wire Line
	3600 1400 4250 1400
Wire Wire Line
	4250 1400 4250 1450
$Comp
L Connector:Conn_01x03_Male J44
U 1 1 5C812C7E
P 4100 2400
F 0 "J44" H 4073 2330 50  0000 R CNN
F 1 "Conn_01x03_Male" H 4073 2421 50  0000 R CNN
F 2 "Pin_Headers:Pin_Header_Straight_1x03_Pitch2.54mm" H 4100 2400 50  0001 C CNN
F 3 "~" H 4100 2400 50  0001 C CNN
	1    4100 2400
	-1   0    0    1   
$EndComp
Wire Wire Line
	3600 2500 3900 2500
Wire Wire Line
	3900 2400 3700 2400
Wire Wire Line
	3700 2400 3700 2300
Wire Wire Line
	3700 2300 3600 2300
Wire Wire Line
	3600 2400 3600 2350
Wire Wire Line
	3600 2350 3900 2350
Wire Wire Line
	3900 2350 3900 2300
Wire Wire Line
	10450 5800 10700 5800
Wire Wire Line
	10700 5800 10700 5750
Wire Wire Line
	10700 5750 10850 5750
Wire Wire Line
	10950 5750 10950 5500
Connection ~ 10950 5500
Wire Wire Line
	10950 5500 10450 5500
Wire Wire Line
	11050 5750 11050 5600
Connection ~ 11050 5600
Wire Wire Line
	11050 5600 10450 5600
Wire Wire Line
	11150 5750 11150 5700
Connection ~ 11150 5700
Wire Wire Line
	11150 5700 13100 5700
Wire Wire Line
	11250 5750 11250 5400
Connection ~ 11250 5400
Wire Wire Line
	11250 5400 11400 5400
Wire Wire Line
	8850 5600 8400 5600
Wire Wire Line
	8300 5500 8350 5500
Wire Wire Line
	8350 5500 8350 5350
Wire Wire Line
	8350 5350 7600 5350
Connection ~ 8350 5500
Wire Wire Line
	8350 5500 8850 5500
Wire Wire Line
	7600 5250 8400 5250
Wire Wire Line
	8400 5250 8400 5600
Connection ~ 8400 5600
Wire Wire Line
	8400 5600 8200 5600
Wire Wire Line
	8850 5400 8450 5400
Wire Wire Line
	8450 5400 8450 5150
Wire Wire Line
	8450 5150 7600 5150
Wire Wire Line
	8850 5300 8500 5300
Wire Wire Line
	8500 5300 8500 5050
Wire Wire Line
	8500 5050 7600 5050
Wire Wire Line
	7600 4950 8550 4950
Wire Wire Line
	8550 4950 8550 5200
Wire Wire Line
	8550 5200 8850 5200
Wire Wire Line
	8850 5000 8600 5000
Wire Wire Line
	8600 5000 8600 4850
Wire Wire Line
	8600 4850 7600 4850
Wire Wire Line
	8850 5100 8700 5100
Wire Wire Line
	8700 5100 8700 4750
Wire Wire Line
	8700 4750 7600 4750
Connection ~ 8700 4750
$Comp
L pam8406:PAM8406 U5
U 1 1 5CBBDCAC
P 7800 9150
F 0 "U5" V 7779 9578 50  0000 L CNN
F 1 "PAM8406" V 7870 9578 50  0000 L CNN
F 2 "Housings_SOIC:SOIC-16_3.9x9.9mm_Pitch1.27mm" H 7750 9150 50  0001 C CNN
F 3 "" H 7750 9150 50  0001 C CNN
	1    7800 9150
	0    1    1    0   
$EndComp
Connection ~ 7450 9650
Connection ~ 7550 9650
Connection ~ 7650 9650
Connection ~ 7750 9650
Connection ~ 7950 9650
Connection ~ 7950 8700
Connection ~ 7750 8700
Connection ~ 7550 8700
Connection ~ 7450 8700
Connection ~ 7350 8700
Connection ~ 7350 9650
$Comp
L Connector_Generic:Conn_02x03_Odd_Even J36
U 1 1 5CBC121B
P 1750 9600
F 0 "J36" H 1800 9917 50  0000 C CNN
F 1 "Conn_02x03_Odd_Even" H 1800 9826 50  0000 C CNN
F 2 "Pin_Headers:Pin_Header_Straight_2x03_Pitch2.54mm" H 1750 9600 50  0001 C CNN
F 3 "~" H 1750 9600 50  0001 C CNN
	1    1750 9600
	1    0    0    -1  
$EndComp
$Comp
L Connector_Generic:Conn_02x02_Odd_Even J33
U 1 1 5CBC1C72
P 1900 4900
F 0 "J33" H 1950 5117 50  0000 C CNN
F 1 "Conn_02x02_Odd_Even" H 1950 5026 50  0000 C CNN
F 2 "Pin_Headers:Pin_Header_Straight_2x02_Pitch2.54mm" H 1900 4900 50  0001 C CNN
F 3 "~" H 1900 4900 50  0001 C CNN
	1    1900 4900
	1    0    0    -1  
$EndComp
$Comp
L Connector_Generic:Conn_02x03_Odd_Even J19
U 1 1 5CBC2409
P 10150 2300
F 0 "J19" H 10200 2617 50  0000 C CNN
F 1 "Conn_02x03_Odd_Even" H 10200 2526 50  0000 C CNN
F 2 "Pin_Headers:Pin_Header_Straight_2x03_Pitch2.54mm" H 10150 2300 50  0001 C CNN
F 3 "~" H 10150 2300 50  0001 C CNN
	1    10150 2300
	1    0    0    -1  
$EndComp
$Comp
L Connector_Generic:Conn_02x06_Odd_Even J18
U 1 1 5CBC28DD
P 11750 1400
F 0 "J18" H 11800 1817 50  0000 C CNN
F 1 "Conn_02x06_Odd_Even" H 11800 1726 50  0000 C CNN
F 2 "Pin_Headers:Pin_Header_Straight_2x06_Pitch2.54mm" H 11750 1400 50  0001 C CNN
F 3 "~" H 11750 1400 50  0001 C CNN
	1    11750 1400
	1    0    0    -1  
$EndComp
Wire Wire Line
	11500 1300 11500 1200
Wire Wire Line
	11500 1200 11550 1200
Wire Wire Line
	11250 1300 11500 1300
Wire Wire Line
	11250 1200 11450 1200
Wire Wire Line
	11450 1200 11450 1250
Wire Wire Line
	11450 1250 11550 1250
Wire Wire Line
	11550 1250 11550 1300
Wire Wire Line
	11550 1400 11350 1400
Wire Wire Line
	11350 1400 11350 1500
Wire Wire Line
	11350 1500 11250 1500
Wire Wire Line
	11250 1400 11300 1400
Wire Wire Line
	11300 1400 11300 1450
Wire Wire Line
	11300 1450 11550 1450
Wire Wire Line
	11550 1450 11550 1500
Wire Wire Line
	11250 1700 11400 1700
Wire Wire Line
	11400 1700 11400 1600
Wire Wire Line
	11400 1600 11550 1600
Wire Wire Line
	11250 1600 11350 1600
Wire Wire Line
	11350 1600 11350 1650
Wire Wire Line
	11350 1650 11550 1650
Wire Wire Line
	11550 1650 11550 1700
Wire Wire Line
	12050 1500 12300 1500
Wire Wire Line
	12300 1500 12300 1400
Wire Wire Line
	12300 1400 13750 1400
Wire Wire Line
	12050 1400 12250 1400
Wire Wire Line
	12250 1400 12250 1450
Wire Wire Line
	12250 1450 12400 1450
Wire Wire Line
	12400 1450 12400 1500
Wire Wire Line
	12050 1200 12300 1200
Wire Wire Line
	12300 1200 12300 1300
Wire Wire Line
	12300 1300 13100 1300
Wire Wire Line
	12400 1200 12400 1250
Wire Wire Line
	12400 1250 12200 1250
Wire Wire Line
	12200 1250 12200 1300
Wire Wire Line
	12200 1300 12050 1300
Wire Wire Line
	12050 1600 12300 1600
Wire Wire Line
	12300 1600 12300 1700
Wire Wire Line
	12300 1700 15650 1700
Wire Wire Line
	12400 1600 12400 1650
Wire Wire Line
	12400 1650 12100 1650
Wire Wire Line
	12100 1650 12100 1700
Wire Wire Line
	12100 1700 12050 1700
Wire Wire Line
	11250 1900 11600 1900
Wire Wire Line
	11600 1900 11600 1800
Wire Wire Line
	11600 1800 11900 1800
Wire Wire Line
	11250 1800 11550 1800
Wire Wire Line
	11550 1800 11550 1850
Wire Wire Line
	11550 1850 11900 1850
Wire Wire Line
	11900 1850 11900 1900
Wire Wire Line
	11900 2000 11350 2000
Wire Wire Line
	11350 2000 11350 2100
Wire Wire Line
	11350 2100 11250 2100
Wire Wire Line
	11250 2000 11300 2000
Wire Wire Line
	11300 2000 11300 2050
Wire Wire Line
	11300 2050 11900 2050
Wire Wire Line
	11900 2050 11900 2100
Wire Wire Line
	11250 2200 11750 2200
Wire Wire Line
	11750 2200 11750 2300
Wire Wire Line
	11750 2300 11900 2300
Wire Wire Line
	11900 2200 11900 2250
Wire Wire Line
	11900 2250 11250 2250
Wire Wire Line
	11250 2250 11250 2300
Wire Wire Line
	11250 2500 11750 2500
Wire Wire Line
	11750 2500 11750 2400
Wire Wire Line
	11750 2400 11900 2400
Wire Wire Line
	11900 2500 11900 2450
Wire Wire Line
	11900 2450 11250 2450
Wire Wire Line
	11250 2450 11250 2400
Wire Wire Line
	11250 2700 11500 2700
Wire Wire Line
	11500 2700 11500 2600
Wire Wire Line
	11500 2600 11900 2600
Wire Wire Line
	11900 2700 11550 2700
Wire Wire Line
	11550 2700 11550 2650
Wire Wire Line
	11550 2650 11250 2650
Wire Wire Line
	11250 2650 11250 2600
$Comp
L Connector:Conn_01x05_Male J16
U 1 1 5D07C76F
P 8200 1550
F 0 "J16" V 8353 1263 50  0000 R CNN
F 1 "Conn_01x05_Male" V 8262 1263 50  0000 R CNN
F 2 "Pin_Headers:Pin_Header_Straight_1x05_Pitch2.54mm" H 8200 1550 50  0001 C CNN
F 3 "~" H 8200 1550 50  0001 C CNN
	1    8200 1550
	0    -1   -1   0   
$EndComp
$Comp
L logo:LOGO #G1
U 1 1 5D11BC2C
P 3500 12350
F 0 "#G1" H 3500 11415 60  0001 C CNN
F 1 "LOGO" H 3500 13285 60  0001 C CNN
F 2 "" H 3500 12350 50  0001 C CNN
F 3 "" H 3500 12350 50  0001 C CNN
	1    3500 12350
	1    0    0    -1  
$EndComp
$EndSCHEMATC
