(export (version D)
  (design
    (source C:\Users\matti\Desktop\Sierros\sierros_pcb\devboard_io\devboard_io\devboard_io.sch)
    (date "28/12/2018 20:06:31")
    (tool "Eeschema (5.0.2)-1")
    (sheet (number 1) (name /) (tstamps /)
      (title_block
        (title)
        (company)
        (rev)
        (date)
        (source devboard_io.sch)
        (comment (number 1) (value ""))
        (comment (number 2) (value ""))
        (comment (number 3) (value ""))
        (comment (number 4) (value "")))))
  (components
    (comp (ref U6)
      (value ESP32-WROOM-32D)
      (footprint ESP32-footprints-Lib:ESP32-WROOM)
      (datasheet "IC: SoC; GPIO, I2C, I2S, IR, SD, SDIO, SPI, UART; 2.7÷3.6VDC; 20dBm")
      (fields
        (field (name Field4) None)
        (field (name Field5) ESP32-WROOM-32D)
        (field (name Field6) Unavailable)
        (field (name Field7) "Espressif Systems")
        (field (name Field8) "Module Espressif Systems"))
      (libsource (lib devboard_io-rescue) (part ESP32-WROOM-32D-ESP32-WROOM-32D-sierros-rescue) (description ""))
      (sheetpath (names /) (tstamps /))
      (tstamp 5BFE5502))
    (comp (ref SW2)
      (value SW_Push)
      (footprint push_smd:smd_4x4_push)
      (libsource (lib Switch) (part SW_Push) (description "Push button switch, generic, two pins"))
      (sheetpath (names /) (tstamps /))
      (tstamp 5BFE6B5A))
    (comp (ref SW1)
      (value SW_Push)
      (footprint push_smd:smd_4x4_push)
      (libsource (lib Switch) (part SW_Push) (description "Push button switch, generic, two pins"))
      (sheetpath (names /) (tstamps /))
      (tstamp 5BFE6E31))
    (comp (ref 10k1)
      (value R)
      (footprint Resistors_SMD:R_1206_HandSoldering)
      (datasheet ~)
      (libsource (lib Device) (part R) (description Resistor))
      (sheetpath (names /) (tstamps /))
      (tstamp 5BFE6F55))
    (comp (ref U1)
      (value FT232RL)
      (footprint Housings_SSOP:SSOP-28_5.3x10.2mm_Pitch0.65mm)
      (datasheet http://www.ftdichip.com/Products/ICs/FT232RL.htm)
      (libsource (lib Interface_USB) (part FT232RL) (description "USB to Serial Interface, SSOP-28"))
      (sheetpath (names /) (tstamps /))
      (tstamp 5BFE7328))
    (comp (ref J2)
      (value USB_B_Micro)
      (footprint USB-MICRO-MK5P-2:USB-MICRO-B)
      (datasheet ~)
      (libsource (lib Connector) (part USB_B_Micro) (description "USB Micro Type B connector"))
      (sheetpath (names /) (tstamps /))
      (tstamp 5BFE749F))
    (comp (ref D1)
      (value LED)
      (footprint LEDs:LED_0805_HandSoldering)
      (datasheet ~)
      (libsource (lib Device) (part LED) (description "Light emitting diode"))
      (sheetpath (names /) (tstamps /))
      (tstamp 5C0786E3))
    (comp (ref D2)
      (value LED)
      (footprint LEDs:LED_0805_HandSoldering)
      (datasheet ~)
      (libsource (lib Device) (part LED) (description "Light emitting diode"))
      (sheetpath (names /) (tstamps /))
      (tstamp 5C078756))
    (comp (ref 120R2)
      (value R)
      (footprint Resistors_SMD:R_1206_HandSoldering)
      (datasheet ~)
      (libsource (lib Device) (part R) (description Resistor))
      (sheetpath (names /) (tstamps /))
      (tstamp 5C07897C))
    (comp (ref 120R1)
      (value R)
      (footprint Resistors_SMD:R_1206_HandSoldering)
      (datasheet ~)
      (libsource (lib Device) (part R) (description Resistor))
      (sheetpath (names /) (tstamps /))
      (tstamp 5C0789CC))
    (comp (ref U3)
      (value SIM800C)
      (footprint SIMCOM:SIM800C)
      (datasheet http://simcom.ee/documents/SIM800C/SIM800C_Hardware_Design_V1.05.pdf)
      (libsource (lib RF) (part SIM800C) (description "GSM Quad-Band Communication Module, GPRS, Audio Engine, AT Command Set, Bluetooth is Optional"))
      (sheetpath (names /) (tstamps /))
      (tstamp 5C07CA87))
    (comp (ref J6)
      (value Conn_Coaxial)
      (footprint Connectors:SMA_THT_Jack_Straight)
      (datasheet " ~")
      (libsource (lib Connector) (part Conn_Coaxial) (description "coaxial connector (BNC, SMA, SMB, SMC, Cinch/RCA, ...)"))
      (sheetpath (names /) (tstamps /))
      (tstamp 5C07CDD2))
    (comp (ref J5)
      (value SIM_Card)
      (footprint SIM:sim_5051)
      (datasheet " ~")
      (libsource (lib Connector) (part SIM_Card) (description "SIM Card"))
      (sheetpath (names /) (tstamps /))
      (tstamp 5C10D488))
    (comp (ref C13)
      (value 10pF)
      (footprint Capacitors_SMD:C_0805_HandSoldering)
      (datasheet ~)
      (libsource (lib Device) (part C) (description "Unpolarized capacitor"))
      (sheetpath (names /) (tstamps /))
      (tstamp 5C10FC12))
    (comp (ref C17)
      (value 10pF)
      (footprint Capacitors_SMD:C_0805_HandSoldering)
      (datasheet ~)
      (libsource (lib Device) (part C) (description "Unpolarized capacitor"))
      (sheetpath (names /) (tstamps /))
      (tstamp 5C10FD34))
    (comp (ref C21)
      (value 10pF)
      (footprint Capacitors_SMD:C_0805_HandSoldering)
      (datasheet ~)
      (libsource (lib Device) (part C) (description "Unpolarized capacitor"))
      (sheetpath (names /) (tstamps /))
      (tstamp 5C10FD8A))
    (comp (ref C14)
      (value 33pF)
      (footprint Capacitors_SMD:C_0603_HandSoldering)
      (datasheet ~)
      (libsource (lib Device) (part C) (description "Unpolarized capacitor"))
      (sheetpath (names /) (tstamps /))
      (tstamp 5C10FE6F))
    (comp (ref C18)
      (value 33pF)
      (footprint Capacitors_SMD:C_0603_HandSoldering)
      (datasheet ~)
      (libsource (lib Device) (part C) (description "Unpolarized capacitor"))
      (sheetpath (names /) (tstamps /))
      (tstamp 5C10FE76))
    (comp (ref C22)
      (value 33pF)
      (footprint Capacitors_SMD:C_0603_HandSoldering)
      (datasheet ~)
      (libsource (lib Device) (part C) (description "Unpolarized capacitor"))
      (sheetpath (names /) (tstamps /))
      (tstamp 5C10FE7D))
    (comp (ref C15)
      (value 10pF)
      (footprint Capacitors_SMD:C_0805_HandSoldering)
      (datasheet ~)
      (libsource (lib Device) (part C) (description "Unpolarized capacitor"))
      (sheetpath (names /) (tstamps /))
      (tstamp 5C11078E))
    (comp (ref C19)
      (value 10pF)
      (footprint Capacitors_SMD:C_0805_HandSoldering)
      (datasheet ~)
      (libsource (lib Device) (part C) (description "Unpolarized capacitor"))
      (sheetpath (names /) (tstamps /))
      (tstamp 5C110795))
    (comp (ref C23)
      (value 10pF)
      (footprint Capacitors_SMD:C_0805_HandSoldering)
      (datasheet ~)
      (libsource (lib Device) (part C) (description "Unpolarized capacitor"))
      (sheetpath (names /) (tstamps /))
      (tstamp 5C11079C))
    (comp (ref C16)
      (value 33pF)
      (footprint Capacitors_SMD:C_0603_HandSoldering)
      (datasheet ~)
      (libsource (lib Device) (part C) (description "Unpolarized capacitor"))
      (sheetpath (names /) (tstamps /))
      (tstamp 5C1107A3))
    (comp (ref C20)
      (value 33pF)
      (footprint Capacitors_SMD:C_0603_HandSoldering)
      (datasheet ~)
      (libsource (lib Device) (part C) (description "Unpolarized capacitor"))
      (sheetpath (names /) (tstamps /))
      (tstamp 5C1107AA))
    (comp (ref C24)
      (value 33pF)
      (footprint Capacitors_SMD:C_0603_HandSoldering)
      (datasheet ~)
      (libsource (lib Device) (part C) (description "Unpolarized capacitor"))
      (sheetpath (names /) (tstamps /))
      (tstamp 5C1107B1))
    (comp (ref D6)
      (value D_TVS)
      (footprint Diodes_SMD:D_SMA_Handsoldering)
      (datasheet ~)
      (libsource (lib Device) (part D_TVS) (description "Bidirectional transient-voltage-suppression diode"))
      (sheetpath (names /) (tstamps /))
      (tstamp 5C11B5C6))
    (comp (ref D7)
      (value D_TVS)
      (footprint Diodes_SMD:D_SMA_Handsoldering)
      (datasheet ~)
      (libsource (lib Device) (part D_TVS) (description "Bidirectional transient-voltage-suppression diode"))
      (sheetpath (names /) (tstamps /))
      (tstamp 5C11B688))
    (comp (ref C7)
      (value 33pF)
      (footprint Capacitors_SMD:C_0603_HandSoldering)
      (datasheet ~)
      (libsource (lib Device) (part C) (description "Unpolarized capacitor"))
      (sheetpath (names /) (tstamps /))
      (tstamp 5C11BD49))
    (comp (ref C9)
      (value 33pF)
      (footprint Capacitors_SMD:C_0603_HandSoldering)
      (datasheet ~)
      (libsource (lib Device) (part C) (description "Unpolarized capacitor"))
      (sheetpath (names /) (tstamps /))
      (tstamp 5C11BD50))
    (comp (ref C11)
      (value 33pF)
      (footprint Capacitors_SMD:C_0603_HandSoldering)
      (datasheet ~)
      (libsource (lib Device) (part C) (description "Unpolarized capacitor"))
      (sheetpath (names /) (tstamps /))
      (tstamp 5C11BD57))
    (comp (ref C8)
      (value 10pF)
      (footprint Capacitors_SMD:C_0805_HandSoldering)
      (datasheet ~)
      (libsource (lib Device) (part C) (description "Unpolarized capacitor"))
      (sheetpath (names /) (tstamps /))
      (tstamp 5C11BD5E))
    (comp (ref C10)
      (value 10pF)
      (footprint Capacitors_SMD:C_0805_HandSoldering)
      (datasheet ~)
      (libsource (lib Device) (part C) (description "Unpolarized capacitor"))
      (sheetpath (names /) (tstamps /))
      (tstamp 5C11BD65))
    (comp (ref C12)
      (value 10pF)
      (footprint Capacitors_SMD:C_0805_HandSoldering)
      (datasheet ~)
      (libsource (lib Device) (part C) (description "Unpolarized capacitor"))
      (sheetpath (names /) (tstamps /))
      (tstamp 5C11BD6C))
    (comp (ref D4)
      (value D_TVS)
      (footprint Diodes_SMD:D_SMA_Handsoldering)
      (datasheet ~)
      (libsource (lib Device) (part D_TVS) (description "Bidirectional transient-voltage-suppression diode"))
      (sheetpath (names /) (tstamps /))
      (tstamp 5C12F30F))
    (comp (ref D5)
      (value D_TVS)
      (footprint Diodes_SMD:D_SMA_Handsoldering)
      (datasheet ~)
      (libsource (lib Device) (part D_TVS) (description "Bidirectional transient-voltage-suppression diode"))
      (sheetpath (names /) (tstamps /))
      (tstamp 5C12F3CE))
    (comp (ref C30)
      (value 1uF)
      (footprint Capacitors_SMD:C_0805_HandSoldering)
      (datasheet ~)
      (libsource (lib Device) (part C) (description "Unpolarized capacitor"))
      (sheetpath (names /) (tstamps /))
      (tstamp 5C15B22B))
    (comp (ref C27)
      (value 1uF)
      (footprint Capacitors_SMD:C_0805_HandSoldering)
      (datasheet ~)
      (libsource (lib Device) (part C) (description "Unpolarized capacitor"))
      (sheetpath (names /) (tstamps /))
      (tstamp 5C15B32B))
    (comp (ref R18)
      (value 10k)
      (footprint Resistors_SMD:R_1206_HandSoldering)
      (datasheet ~)
      (libsource (lib Device) (part R) (description Resistor))
      (sheetpath (names /) (tstamps /))
      (tstamp 5C15B509))
    (comp (ref C25)
      (value 1uF)
      (footprint Capacitors_SMD:C_0805_HandSoldering)
      (datasheet ~)
      (libsource (lib Device) (part C) (description "Unpolarized capacitor"))
      (sheetpath (names /) (tstamps /))
      (tstamp 5C15B73B))
    (comp (ref C26)
      (value 10uF)
      (footprint Capacitors_SMD:C_1210_HandSoldering)
      (datasheet ~)
      (libsource (lib Device) (part C) (description "Unpolarized capacitor"))
      (sheetpath (names /) (tstamps /))
      (tstamp 5C167705))
    (comp (ref C29)
      (value 1uF)
      (footprint Capacitors_SMD:C_0805_HandSoldering)
      (datasheet ~)
      (libsource (lib Device) (part C) (description "Unpolarized capacitor"))
      (sheetpath (names /) (tstamps /))
      (tstamp 5C1677C4))
    (comp (ref LS1)
      (value Speaker)
      (footprint Pin_Headers:Pin_Header_Straight_1x02_Pitch2.54mm)
      (datasheet ~)
      (libsource (lib Device) (part Speaker) (description Speaker))
      (sheetpath (names /) (tstamps /))
      (tstamp 5C16E280))
    (comp (ref C28)
      (value 220pF)
      (footprint Capacitors_SMD:C_0805_HandSoldering)
      (datasheet ~)
      (libsource (lib Device) (part C) (description "Unpolarized capacitor"))
      (sheetpath (names /) (tstamps /))
      (tstamp 5C16E329))
    (comp (ref C31)
      (value 220pF)
      (footprint Capacitors_SMD:C_0805_HandSoldering)
      (datasheet ~)
      (libsource (lib Device) (part C) (description "Unpolarized capacitor"))
      (sheetpath (names /) (tstamps /))
      (tstamp 5C16E3BD))
    (comp (ref R19)
      (value 10k)
      (footprint Resistors_SMD:R_1206_HandSoldering)
      (datasheet ~)
      (libsource (lib Device) (part R) (description Resistor))
      (sheetpath (names /) (tstamps /))
      (tstamp 5C17CA60))
    (comp (ref C33)
      (value 1uF)
      (footprint Capacitors_SMD:C_0805_HandSoldering)
      (datasheet ~)
      (libsource (lib Device) (part C) (description "Unpolarized capacitor"))
      (sheetpath (names /) (tstamps /))
      (tstamp 5C17CB63))
    (comp (ref C34)
      (value 1uF)
      (footprint Capacitors_SMD:C_0805_HandSoldering)
      (datasheet ~)
      (libsource (lib Device) (part C) (description "Unpolarized capacitor"))
      (sheetpath (names /) (tstamps /))
      (tstamp 5C184E80))
    (comp (ref C36)
      (value 10uF)
      (footprint Capacitors_SMD:C_1210_HandSoldering)
      (datasheet ~)
      (libsource (lib Device) (part C) (description "Unpolarized capacitor"))
      (sheetpath (names /) (tstamps /))
      (tstamp 5C184FF2))
    (comp (ref C35)
      (value 220pF)
      (footprint Capacitors_SMD:C_0805_HandSoldering)
      (datasheet ~)
      (libsource (lib Device) (part C) (description "Unpolarized capacitor"))
      (sheetpath (names /) (tstamps /))
      (tstamp 5C185591))
    (comp (ref C32)
      (value 220pF)
      (footprint Capacitors_SMD:C_0805_HandSoldering)
      (datasheet ~)
      (libsource (lib Device) (part C) (description "Unpolarized capacitor"))
      (sheetpath (names /) (tstamps /))
      (tstamp 5C185689))
    (comp (ref LS2)
      (value Speaker)
      (footprint Pin_Headers:Pin_Header_Straight_1x02_Pitch2.54mm)
      (datasheet ~)
      (libsource (lib Device) (part Speaker) (description Speaker))
      (sheetpath (names /) (tstamps /))
      (tstamp 5C185744))
    (comp (ref R5)
      (value 1k)
      (footprint Resistors_SMD:R_1206_HandSoldering)
      (datasheet ~)
      (libsource (lib Device) (part R) (description Resistor))
      (sheetpath (names /) (tstamps /))
      (tstamp 5C23C53A))
    (comp (ref R6)
      (value 1k)
      (footprint Resistors_SMD:R_1206_HandSoldering)
      (datasheet ~)
      (libsource (lib Device) (part R) (description Resistor))
      (sheetpath (names /) (tstamps /))
      (tstamp 5C23C712))
    (comp (ref R7)
      (value 5.6k)
      (footprint Resistors_SMD:R_1206_HandSoldering)
      (datasheet ~)
      (libsource (lib Device) (part R) (description Resistor))
      (sheetpath (names /) (tstamps /))
      (tstamp 5C23CEB0))
    (comp (ref R4)
      (value 1k)
      (footprint Resistors_SMD:R_1206_HandSoldering)
      (datasheet ~)
      (libsource (lib Device) (part R) (description Resistor))
      (sheetpath (names /) (tstamps /))
      (tstamp 5C2493E6))
    (comp (ref U2)
      (value SMF05C)
      (footprint smd_semi:SC-70-6)
      (libsource (lib devboard_io-rescue) (part SMF05C-smf05c) (description ""))
      (sheetpath (names /) (tstamps /))
      (tstamp 5C25BB0B))
    (comp (ref R3)
      (value 51R)
      (footprint Resistors_SMD:R_1206_HandSoldering)
      (datasheet ~)
      (libsource (lib Device) (part R) (description Resistor))
      (sheetpath (names /) (tstamps /))
      (tstamp 5C25BEDA))
    (comp (ref R1)
      (value 51R)
      (footprint Resistors_SMD:R_1206_HandSoldering)
      (datasheet ~)
      (libsource (lib Device) (part R) (description Resistor))
      (sheetpath (names /) (tstamps /))
      (tstamp 5C25C2B9))
    (comp (ref R2)
      (value 51R)
      (footprint Resistors_SMD:R_1206_HandSoldering)
      (datasheet ~)
      (libsource (lib Device) (part R) (description Resistor))
      (sheetpath (names /) (tstamps /))
      (tstamp 5C25C530))
    (comp (ref C6)
      (value 22pF)
      (footprint Capacitors_SMD:C_1206_HandSoldering)
      (datasheet ~)
      (libsource (lib Device) (part C) (description "Unpolarized capacitor"))
      (sheetpath (names /) (tstamps /))
      (tstamp 5C26DF04))
    (comp (ref C1)
      (value 100nF)
      (footprint Capacitors_SMD:C_1206_HandSoldering)
      (datasheet ~)
      (libsource (lib Device) (part C) (description "Unpolarized capacitor"))
      (sheetpath (names /) (tstamps /))
      (tstamp 5C26E17F))
    (comp (ref J12)
      (value USB_B_Micro)
      (footprint USB-MICRO-MK5P-2:USB-MICRO-B)
      (datasheet ~)
      (libsource (lib Connector) (part USB_B_Micro) (description "USB Micro Type B connector"))
      (sheetpath (names /) (tstamps /))
      (tstamp 5C3148B5))
    (comp (ref C2)
      (value 100uF)
      (footprint Capacitors_Tantalum_SMD:CP_Tantalum_Case-D_EIA-7343-31_Hand)
      (datasheet ~)
      (libsource (lib Device) (part CP) (description "Polarized capacitor"))
      (sheetpath (names /) (tstamps /))
      (tstamp 5C40BF8E))
    (comp (ref C3)
      (value 10uF)
      (footprint Capacitors_SMD:C_1210_HandSoldering)
      (datasheet ~)
      (libsource (lib Device) (part C) (description "Unpolarized capacitor"))
      (sheetpath (names /) (tstamps /))
      (tstamp 5C40C069))
    (comp (ref C4)
      (value 33pF)
      (footprint Capacitors_SMD:C_0603_HandSoldering)
      (datasheet ~)
      (libsource (lib Device) (part C) (description "Unpolarized capacitor"))
      (sheetpath (names /) (tstamps /))
      (tstamp 5C40C129))
    (comp (ref C5)
      (value 10pF)
      (footprint Capacitors_SMD:C_0805_HandSoldering)
      (datasheet ~)
      (libsource (lib Device) (part C) (description "Unpolarized capacitor"))
      (sheetpath (names /) (tstamps /))
      (tstamp 5C40C238))
    (comp (ref D3)
      (value "5.1V 0,5W")
      (footprint Diodes_SMD:D_1206)
      (datasheet ~)
      (libsource (lib Device) (part D_Zener) (description "Zener diode"))
      (sheetpath (names /) (tstamps /))
      (tstamp 5C40C349))
    (comp (ref R8)
      (value 1k)
      (footprint Resistors_SMD:R_1206_HandSoldering)
      (datasheet ~)
      (libsource (lib Device) (part R) (description Resistor))
      (sheetpath (names /) (tstamps /))
      (tstamp 5C44B36D))
    (comp (ref R20)
      (value 100k)
      (footprint Resistors_SMD:R_1206_HandSoldering)
      (datasheet ~)
      (libsource (lib Device) (part R) (description Resistor))
      (sheetpath (names /) (tstamps /))
      (tstamp 5C26F811))
    (comp (ref U7)
      (value PCF8574)
      (footprint SMD_Packages:SO-16-L)
      (datasheet http://www.nxp.com/documents/data_sheet/PCF8574_PCF8574A.pdf)
      (libsource (lib Interface_Expansion) (part PCF8574) (description "8 Bit Port/Expander to I2C Bus, DIP/SOIC-16"))
      (sheetpath (names /) (tstamps /))
      (tstamp 5C243E0B))
    (comp (ref U4)
      (value TCA9548APWR)
      (footprint Housings_SSOP:TSSOP-24_4.4x7.8mm_Pitch0.65mm)
      (datasheet http://www.ti.com/lit/ds/symlink/tca9548a.pdf)
      (libsource (lib Interface_Expansion) (part TCA9548APWR) (description "Low voltage 8-channel I2C switch with reset, TSSOP-24"))
      (sheetpath (names /) (tstamps /))
      (tstamp 5C243F44))
    (comp (ref R17)
      (value 100k)
      (footprint Resistors_SMD:R_1206_HandSoldering)
      (datasheet ~)
      (libsource (lib Device) (part R) (description Resistor))
      (sheetpath (names /) (tstamps /))
      (tstamp 5C267EB5))
    (comp (ref R10)
      (value 100k)
      (footprint Resistors_SMD:R_1206_HandSoldering)
      (datasheet ~)
      (libsource (lib Device) (part R) (description Resistor))
      (sheetpath (names /) (tstamps /))
      (tstamp 5C2685F8))
    (comp (ref R12)
      (value 100k)
      (footprint Resistors_SMD:R_1206_HandSoldering)
      (datasheet ~)
      (libsource (lib Device) (part R) (description Resistor))
      (sheetpath (names /) (tstamps /))
      (tstamp 5C268B07))
    (comp (ref R13)
      (value 100k)
      (footprint Resistors_SMD:R_1206_HandSoldering)
      (datasheet ~)
      (libsource (lib Device) (part R) (description Resistor))
      (sheetpath (names /) (tstamps /))
      (tstamp 5C268BE1))
    (comp (ref R14)
      (value 100k)
      (footprint Resistors_SMD:R_1206_HandSoldering)
      (datasheet ~)
      (libsource (lib Device) (part R) (description Resistor))
      (sheetpath (names /) (tstamps /))
      (tstamp 5C296005))
    (comp (ref R15)
      (value 100k)
      (footprint Resistors_SMD:R_1206_HandSoldering)
      (datasheet ~)
      (libsource (lib Device) (part R) (description Resistor))
      (sheetpath (names /) (tstamps /))
      (tstamp 5C29FA8A))
    (comp (ref R16)
      (value 100k)
      (footprint Resistors_SMD:R_1206_HandSoldering)
      (datasheet ~)
      (libsource (lib Device) (part R) (description Resistor))
      (sheetpath (names /) (tstamps /))
      (tstamp 5C2A97D9))
    (comp (ref R9)
      (value 100k)
      (footprint Resistors_SMD:R_1206_HandSoldering)
      (datasheet ~)
      (libsource (lib Device) (part R) (description Resistor))
      (sheetpath (names /) (tstamps /))
      (tstamp 5C2B83E8))
    (comp (ref R11)
      (value 100k)
      (footprint Resistors_SMD:R_1206_HandSoldering)
      (datasheet ~)
      (libsource (lib Device) (part R) (description Resistor))
      (sheetpath (names /) (tstamps /))
      (tstamp 5C2B8AAF))
    (comp (ref J38)
      (value Conn_01x05_Male)
      (footprint Pin_Headers:Pin_Header_Straight_1x05_Pitch2.54mm)
      (datasheet ~)
      (libsource (lib Connector) (part Conn_01x05_Male) (description "Generic connector, single row, 01x05, script generated (kicad-library-utils/schlib/autogen/connector/)"))
      (sheetpath (names /) (tstamps /))
      (tstamp 5C2E4423))
    (comp (ref J4)
      (value Conn_01x04_Male)
      (footprint Pin_Headers:Pin_Header_Straight_1x04_Pitch2.54mm)
      (datasheet ~)
      (libsource (lib Connector) (part Conn_01x04_Male) (description "Generic connector, single row, 01x04, script generated (kicad-library-utils/schlib/autogen/connector/)"))
      (sheetpath (names /) (tstamps /))
      (tstamp 5C2E71F1))
    (comp (ref FB4)
      (value "FB 120Ohm 2A")
      (footprint Resistors_SMD:R_1206_HandSoldering)
      (datasheet ~)
      (libsource (lib Device) (part Ferrite_Bead_Small) (description "Ferrite bead, small symbol"))
      (sheetpath (names /) (tstamps /))
      (tstamp 5C25C4C1))
    (comp (ref FB3)
      (value "FB 120Ohm 2A")
      (footprint Resistors_SMD:R_1206_HandSoldering)
      (datasheet ~)
      (libsource (lib Device) (part Ferrite_Bead_Small) (description "Ferrite bead, small symbol"))
      (sheetpath (names /) (tstamps /))
      (tstamp 5C25CDC5))
    (comp (ref FB1)
      (value "FB 120Ohm 2A")
      (footprint Resistors_SMD:R_1206_HandSoldering)
      (datasheet ~)
      (libsource (lib Device) (part Ferrite_Bead_Small) (description "Ferrite bead, small symbol"))
      (sheetpath (names /) (tstamps /))
      (tstamp 5C25D2E8))
    (comp (ref FB2)
      (value "FB 120Ohm 2A")
      (footprint Resistors_SMD:R_1206_HandSoldering)
      (datasheet ~)
      (libsource (lib Device) (part Ferrite_Bead_Small) (description "Ferrite bead, small symbol"))
      (sheetpath (names /) (tstamps /))
      (tstamp 5C25D3B4))
    (comp (ref J27)
      (value Conn_01x05_Male)
      (footprint Pin_Headers:Pin_Header_Straight_1x05_Pitch2.54mm)
      (datasheet ~)
      (libsource (lib Connector) (part Conn_01x05_Male) (description "Generic connector, single row, 01x05, script generated (kicad-library-utils/schlib/autogen/connector/)"))
      (sheetpath (names /) (tstamps /))
      (tstamp 5C261BFC))
    (comp (ref J28)
      (value Conn_01x01_Male)
      (footprint Pin_Headers:Pin_Header_Straight_1x01_Pitch2.54mm)
      (datasheet ~)
      (libsource (lib Connector) (part Conn_01x01_Male) (description "Generic connector, single row, 01x01, script generated (kicad-library-utils/schlib/autogen/connector/)"))
      (sheetpath (names /) (tstamps /))
      (tstamp 5C261F47))
    (comp (ref J30)
      (value Conn_02x01)
      (footprint Pin_Headers:Pin_Header_Straight_2x01_Pitch2.54mm)
      (datasheet ~)
      (libsource (lib Connector_Generic) (part Conn_02x01) (description "Generic connector, double row, 02x01, this symbol is compatible with counter-clockwise, top-bottom and odd-even numbering schemes., script generated (kicad-library-utils/schlib/autogen/connector/)"))
      (sheetpath (names /) (tstamps /))
      (tstamp 5C262A50))
    (comp (ref J26)
      (value Conn_02x01)
      (footprint Pin_Headers:Pin_Header_Straight_2x01_Pitch2.54mm)
      (datasheet ~)
      (libsource (lib Connector_Generic) (part Conn_02x01) (description "Generic connector, double row, 02x01, this symbol is compatible with counter-clockwise, top-bottom and odd-even numbering schemes., script generated (kicad-library-utils/schlib/autogen/connector/)"))
      (sheetpath (names /) (tstamps /))
      (tstamp 5C26DAF2))
    (comp (ref J21)
      (value Conn_02x01)
      (footprint Pin_Headers:Pin_Header_Straight_2x01_Pitch2.54mm)
      (datasheet ~)
      (libsource (lib Connector_Generic) (part Conn_02x01) (description "Generic connector, double row, 02x01, this symbol is compatible with counter-clockwise, top-bottom and odd-even numbering schemes., script generated (kicad-library-utils/schlib/autogen/connector/)"))
      (sheetpath (names /) (tstamps /))
      (tstamp 5C29826A))
    (comp (ref J25)
      (value Conn_02x01)
      (footprint Pin_Headers:Pin_Header_Straight_2x01_Pitch2.54mm)
      (datasheet ~)
      (libsource (lib Connector_Generic) (part Conn_02x01) (description "Generic connector, double row, 02x01, this symbol is compatible with counter-clockwise, top-bottom and odd-even numbering schemes., script generated (kicad-library-utils/schlib/autogen/connector/)"))
      (sheetpath (names /) (tstamps /))
      (tstamp 5C298356))
    (comp (ref J23)
      (value Conn_01x01_Male)
      (footprint Pin_Headers:Pin_Header_Straight_1x01_Pitch2.54mm)
      (datasheet ~)
      (libsource (lib Connector) (part Conn_01x01_Male) (description "Generic connector, single row, 01x01, script generated (kicad-library-utils/schlib/autogen/connector/)"))
      (sheetpath (names /) (tstamps /))
      (tstamp 5C2C24C9))
    (comp (ref J22)
      (value Conn_01x05_Male)
      (footprint Pin_Headers:Pin_Header_Straight_1x05_Pitch2.54mm)
      (datasheet ~)
      (libsource (lib Connector) (part Conn_01x05_Male) (description "Generic connector, single row, 01x05, script generated (kicad-library-utils/schlib/autogen/connector/)"))
      (sheetpath (names /) (tstamps /))
      (tstamp 5C2C2705))
    (comp (ref J35)
      (value Conn_01x03_Male)
      (footprint Pin_Headers:Pin_Header_Straight_1x03_Pitch2.54mm)
      (datasheet ~)
      (libsource (lib Connector) (part Conn_01x03_Male) (description "Generic connector, single row, 01x03, script generated (kicad-library-utils/schlib/autogen/connector/)"))
      (sheetpath (names /) (tstamps /))
      (tstamp 5C2D83C8))
    (comp (ref J39)
      (value Conn_01x01_Male)
      (footprint Pin_Headers:Pin_Header_Straight_1x01_Pitch2.54mm)
      (datasheet ~)
      (libsource (lib Connector) (part Conn_01x01_Male) (description "Generic connector, single row, 01x01, script generated (kicad-library-utils/schlib/autogen/connector/)"))
      (sheetpath (names /) (tstamps /))
      (tstamp 5C2D8773))
    (comp (ref J34)
      (value Conn_01x02_Male)
      (footprint Pin_Headers:Pin_Header_Straight_1x02_Pitch2.54mm)
      (datasheet ~)
      (libsource (lib Connector) (part Conn_01x02_Male) (description "Generic connector, single row, 01x02, script generated (kicad-library-utils/schlib/autogen/connector/)"))
      (sheetpath (names /) (tstamps /))
      (tstamp 5C2D8EAD))
    (comp (ref J20)
      (value Conn_01x10_Male)
      (footprint Pin_Headers:Pin_Header_Straight_1x10_Pitch2.54mm)
      (datasheet ~)
      (libsource (lib Connector) (part Conn_01x10_Male) (description "Generic connector, single row, 01x10, script generated (kicad-library-utils/schlib/autogen/connector/)"))
      (sheetpath (names /) (tstamps /))
      (tstamp 5C2F01F3))
    (comp (ref J17)
      (value Conn_01x02_Male)
      (footprint Pin_Headers:Pin_Header_Straight_1x02_Pitch2.54mm)
      (datasheet ~)
      (libsource (lib Connector) (part Conn_01x02_Male) (description "Generic connector, single row, 01x02, script generated (kicad-library-utils/schlib/autogen/connector/)"))
      (sheetpath (names /) (tstamps /))
      (tstamp 5C3064C7))
    (comp (ref J15)
      (value Conn_02x01)
      (footprint Pin_Headers:Pin_Header_Straight_2x01_Pitch2.54mm)
      (datasheet ~)
      (libsource (lib Connector_Generic) (part Conn_02x01) (description "Generic connector, double row, 02x01, this symbol is compatible with counter-clockwise, top-bottom and odd-even numbering schemes., script generated (kicad-library-utils/schlib/autogen/connector/)"))
      (sheetpath (names /) (tstamps /))
      (tstamp 5C312E4F))
    (comp (ref J24)
      (value Conn_01x01_Male)
      (footprint Pin_Headers:Pin_Header_Straight_1x01_Pitch2.54mm)
      (datasheet ~)
      (libsource (lib Connector) (part Conn_01x01_Male) (description "Generic connector, single row, 01x01, script generated (kicad-library-utils/schlib/autogen/connector/)"))
      (sheetpath (names /) (tstamps /))
      (tstamp 5C32AACC))
    (comp (ref J31)
      (value Conn_01x01_Male)
      (footprint Pin_Headers:Pin_Header_Straight_1x01_Pitch2.54mm)
      (datasheet ~)
      (libsource (lib Connector) (part Conn_01x01_Male) (description "Generic connector, single row, 01x01, script generated (kicad-library-utils/schlib/autogen/connector/)"))
      (sheetpath (names /) (tstamps /))
      (tstamp 5C32AD3C))
    (comp (ref J14)
      (value Conn_01x02_Male)
      (footprint Pin_Headers:Pin_Header_Straight_1x02_Pitch2.54mm)
      (datasheet ~)
      (libsource (lib Connector) (part Conn_01x02_Male) (description "Generic connector, single row, 01x02, script generated (kicad-library-utils/schlib/autogen/connector/)"))
      (sheetpath (names /) (tstamps /))
      (tstamp 5C32B25E))
    (comp (ref J32)
      (value Conn_01x01_Male)
      (footprint Pin_Headers:Pin_Header_Straight_1x01_Pitch2.54mm)
      (datasheet ~)
      (libsource (lib Connector) (part Conn_01x01_Male) (description "Generic connector, single row, 01x01, script generated (kicad-library-utils/schlib/autogen/connector/)"))
      (sheetpath (names /) (tstamps /))
      (tstamp 5C32C4DB))
    (comp (ref J40)
      (value Conn_01x01_Male)
      (footprint Pin_Headers:Pin_Header_Straight_1x01_Pitch2.54mm)
      (datasheet ~)
      (libsource (lib Connector) (part Conn_01x01_Male) (description "Generic connector, single row, 01x01, script generated (kicad-library-utils/schlib/autogen/connector/)"))
      (sheetpath (names /) (tstamps /))
      (tstamp 5C32C97F))
    (comp (ref J1)
      (value Conn_01x06_Female)
      (footprint Pin_Headers:Pin_Header_Straight_1x06_Pitch2.54mm)
      (datasheet ~)
      (libsource (lib Connector) (part Conn_01x06_Female) (description "Generic connector, single row, 01x06, script generated (kicad-library-utils/schlib/autogen/connector/)"))
      (sheetpath (names /) (tstamps /))
      (tstamp 5C32FB04))
    (comp (ref J3)
      (value Conn_01x05_Male)
      (footprint Pin_Headers:Pin_Header_Straight_1x05_Pitch2.54mm)
      (datasheet ~)
      (libsource (lib Connector) (part Conn_01x05_Male) (description "Generic connector, single row, 01x05, script generated (kicad-library-utils/schlib/autogen/connector/)"))
      (sheetpath (names /) (tstamps /))
      (tstamp 5C330519))
    (comp (ref J7)
      (value Conn_01x07_Male)
      (footprint Pin_Headers:Pin_Header_Straight_1x07_Pitch2.54mm)
      (datasheet ~)
      (libsource (lib Connector) (part Conn_01x07_Male) (description "Generic connector, single row, 01x07, script generated (kicad-library-utils/schlib/autogen/connector/)"))
      (sheetpath (names /) (tstamps /))
      (tstamp 5C37C4CE))
    (comp (ref J9)
      (value Conn_01x02_Male)
      (footprint Pin_Headers:Pin_Header_Straight_1x02_Pitch2.54mm)
      (datasheet ~)
      (libsource (lib Connector) (part Conn_01x02_Male) (description "Generic connector, single row, 01x02, script generated (kicad-library-utils/schlib/autogen/connector/)"))
      (sheetpath (names /) (tstamps /))
      (tstamp 5C37C76E))
    (comp (ref J10)
      (value Conn_02x01)
      (footprint Pin_Headers:Pin_Header_Straight_2x01_Pitch2.54mm)
      (datasheet ~)
      (libsource (lib Connector_Generic) (part Conn_02x01) (description "Generic connector, double row, 02x01, this symbol is compatible with counter-clockwise, top-bottom and odd-even numbering schemes., script generated (kicad-library-utils/schlib/autogen/connector/)"))
      (sheetpath (names /) (tstamps /))
      (tstamp 5C3A547D))
    (comp (ref J13)
      (value Conn_01x02_Male)
      (footprint Pin_Headers:Pin_Header_Straight_1x02_Pitch2.54mm)
      (datasheet ~)
      (libsource (lib Connector) (part Conn_01x02_Male) (description "Generic connector, single row, 01x02, script generated (kicad-library-utils/schlib/autogen/connector/)"))
      (sheetpath (names /) (tstamps /))
      (tstamp 5C3B08F9))
    (comp (ref J8)
      (value Conn_01x05_Male)
      (footprint Pin_Headers:Pin_Header_Straight_1x05_Pitch2.54mm)
      (datasheet ~)
      (libsource (lib Connector) (part Conn_01x05_Male) (description "Generic connector, single row, 01x05, script generated (kicad-library-utils/schlib/autogen/connector/)"))
      (sheetpath (names /) (tstamps /))
      (tstamp 5C3D0AC4))
    (comp (ref J11)
      (value Conn_01x03_Male)
      (footprint Pin_Headers:Pin_Header_Straight_1x03_Pitch2.54mm)
      (datasheet ~)
      (libsource (lib Connector) (part Conn_01x03_Male) (description "Generic connector, single row, 01x03, script generated (kicad-library-utils/schlib/autogen/connector/)"))
      (sheetpath (names /) (tstamps /))
      (tstamp 5C3D1137))
    (comp (ref J37)
      (value Conn_01x14_Male)
      (footprint Pin_Headers:Pin_Header_Straight_1x14_Pitch2.54mm)
      (datasheet ~)
      (libsource (lib Connector) (part Conn_01x14_Male) (description "Generic connector, single row, 01x14, script generated (kicad-library-utils/schlib/autogen/connector/)"))
      (sheetpath (names /) (tstamps /))
      (tstamp 5C26ADA0))
    (comp (ref J41)
      (value Conn_01x10_Male)
      (footprint Pin_Headers:Pin_Header_Straight_1x10_Pitch2.54mm)
      (datasheet ~)
      (libsource (lib Connector) (part Conn_01x10_Male) (description "Generic connector, single row, 01x10, script generated (kicad-library-utils/schlib/autogen/connector/)"))
      (sheetpath (names /) (tstamps /))
      (tstamp 5C35E02A))
    (comp (ref J29)
      (value Conn_01x12_Male)
      (footprint Pin_Headers:Pin_Header_Straight_1x12_Pitch2.54mm)
      (datasheet ~)
      (libsource (lib Connector) (part Conn_01x12_Male) (description "Generic connector, single row, 01x12, script generated (kicad-library-utils/schlib/autogen/connector/)"))
      (sheetpath (names /) (tstamps /))
      (tstamp 5C5C6AA6))
    (comp (ref C37)
      (value 100nF)
      (footprint Capacitors_SMD:C_1206_HandSoldering)
      (datasheet ~)
      (libsource (lib Device) (part C) (description "Unpolarized capacitor"))
      (sheetpath (names /) (tstamps /))
      (tstamp 5C677D42))
    (comp (ref J42)
      (value Conn_01x02_Male)
      (footprint Pin_Headers:Pin_Header_Straight_1x02_Pitch2.54mm)
      (datasheet ~)
      (libsource (lib Connector) (part Conn_01x02_Male) (description "Generic connector, single row, 01x02, script generated (kicad-library-utils/schlib/autogen/connector/)"))
      (sheetpath (names /) (tstamps /))
      (tstamp 5C678533))
    (comp (ref J43)
      (value Conn_01x04_Male)
      (footprint Pin_Headers:Pin_Header_Straight_1x04_Pitch2.54mm)
      (datasheet ~)
      (libsource (lib Connector) (part Conn_01x04_Male) (description "Generic connector, single row, 01x04, script generated (kicad-library-utils/schlib/autogen/connector/)"))
      (sheetpath (names /) (tstamps /))
      (tstamp 5C7119AE))
    (comp (ref J44)
      (value Conn_01x03_Male)
      (footprint Pin_Headers:Pin_Header_Straight_1x03_Pitch2.54mm)
      (datasheet ~)
      (libsource (lib Connector) (part Conn_01x03_Male) (description "Generic connector, single row, 01x03, script generated (kicad-library-utils/schlib/autogen/connector/)"))
      (sheetpath (names /) (tstamps /))
      (tstamp 5C812C7E))
    (comp (ref U5)
      (value PAM8406)
      (footprint Housings_SOIC:SOIC-16_3.9x9.9mm_Pitch1.27mm)
      (libsource (lib pam8406) (part PAM8406) (description ""))
      (sheetpath (names /) (tstamps /))
      (tstamp 5CBBDCAC))
    (comp (ref J36)
      (value Conn_02x03_Odd_Even)
      (footprint Pin_Headers:Pin_Header_Straight_2x03_Pitch2.54mm)
      (datasheet ~)
      (libsource (lib Connector_Generic) (part Conn_02x03_Odd_Even) (description "Generic connector, double row, 02x03, odd/even pin numbering scheme (row 1 odd numbers, row 2 even numbers), script generated (kicad-library-utils/schlib/autogen/connector/)"))
      (sheetpath (names /) (tstamps /))
      (tstamp 5CBC121B))
    (comp (ref J33)
      (value Conn_02x02_Odd_Even)
      (footprint Pin_Headers:Pin_Header_Straight_2x02_Pitch2.54mm)
      (datasheet ~)
      (libsource (lib Connector_Generic) (part Conn_02x02_Odd_Even) (description "Generic connector, double row, 02x02, odd/even pin numbering scheme (row 1 odd numbers, row 2 even numbers), script generated (kicad-library-utils/schlib/autogen/connector/)"))
      (sheetpath (names /) (tstamps /))
      (tstamp 5CBC1C72))
    (comp (ref J19)
      (value Conn_02x03_Odd_Even)
      (footprint Pin_Headers:Pin_Header_Straight_2x03_Pitch2.54mm)
      (datasheet ~)
      (libsource (lib Connector_Generic) (part Conn_02x03_Odd_Even) (description "Generic connector, double row, 02x03, odd/even pin numbering scheme (row 1 odd numbers, row 2 even numbers), script generated (kicad-library-utils/schlib/autogen/connector/)"))
      (sheetpath (names /) (tstamps /))
      (tstamp 5CBC2409))
    (comp (ref J18)
      (value Conn_02x06_Odd_Even)
      (footprint Pin_Headers:Pin_Header_Straight_2x06_Pitch2.54mm)
      (datasheet ~)
      (libsource (lib Connector_Generic) (part Conn_02x06_Odd_Even) (description "Generic connector, double row, 02x06, odd/even pin numbering scheme (row 1 odd numbers, row 2 even numbers), script generated (kicad-library-utils/schlib/autogen/connector/)"))
      (sheetpath (names /) (tstamps /))
      (tstamp 5CBC28DD))
    (comp (ref J16)
      (value Conn_01x05_Male)
      (footprint Pin_Headers:Pin_Header_Straight_1x05_Pitch2.54mm)
      (datasheet ~)
      (libsource (lib Connector) (part Conn_01x05_Male) (description "Generic connector, single row, 01x05, script generated (kicad-library-utils/schlib/autogen/connector/)"))
      (sheetpath (names /) (tstamps /))
      (tstamp 5D07C76F)))
  (libparts
    (libpart (lib Connector) (part Conn_01x01_Male)
      (description "Generic connector, single row, 01x01, script generated (kicad-library-utils/schlib/autogen/connector/)")
      (docs ~)
      (footprints
        (fp Connector*:*))
      (fields
        (field (name Reference) J)
        (field (name Value) Conn_01x01_Male))
      (pins
        (pin (num 1) (name Pin_1) (type passive))))
    (libpart (lib Connector) (part Conn_01x02_Male)
      (description "Generic connector, single row, 01x02, script generated (kicad-library-utils/schlib/autogen/connector/)")
      (docs ~)
      (footprints
        (fp Connector*:*_1x??_*))
      (fields
        (field (name Reference) J)
        (field (name Value) Conn_01x02_Male))
      (pins
        (pin (num 1) (name Pin_1) (type passive))
        (pin (num 2) (name Pin_2) (type passive))))
    (libpart (lib Connector) (part Conn_01x03_Male)
      (description "Generic connector, single row, 01x03, script generated (kicad-library-utils/schlib/autogen/connector/)")
      (docs ~)
      (footprints
        (fp Connector*:*_1x??_*))
      (fields
        (field (name Reference) J)
        (field (name Value) Conn_01x03_Male))
      (pins
        (pin (num 1) (name Pin_1) (type passive))
        (pin (num 2) (name Pin_2) (type passive))
        (pin (num 3) (name Pin_3) (type passive))))
    (libpart (lib Connector) (part Conn_01x04_Male)
      (description "Generic connector, single row, 01x04, script generated (kicad-library-utils/schlib/autogen/connector/)")
      (docs ~)
      (footprints
        (fp Connector*:*_1x??_*))
      (fields
        (field (name Reference) J)
        (field (name Value) Conn_01x04_Male))
      (pins
        (pin (num 1) (name Pin_1) (type passive))
        (pin (num 2) (name Pin_2) (type passive))
        (pin (num 3) (name Pin_3) (type passive))
        (pin (num 4) (name Pin_4) (type passive))))
    (libpart (lib Connector) (part Conn_01x05_Male)
      (description "Generic connector, single row, 01x05, script generated (kicad-library-utils/schlib/autogen/connector/)")
      (docs ~)
      (footprints
        (fp Connector*:*_1x??_*))
      (fields
        (field (name Reference) J)
        (field (name Value) Conn_01x05_Male))
      (pins
        (pin (num 1) (name Pin_1) (type passive))
        (pin (num 2) (name Pin_2) (type passive))
        (pin (num 3) (name Pin_3) (type passive))
        (pin (num 4) (name Pin_4) (type passive))
        (pin (num 5) (name Pin_5) (type passive))))
    (libpart (lib Connector) (part Conn_01x06_Female)
      (description "Generic connector, single row, 01x06, script generated (kicad-library-utils/schlib/autogen/connector/)")
      (docs ~)
      (footprints
        (fp Connector*:*_1x??_*))
      (fields
        (field (name Reference) J)
        (field (name Value) Conn_01x06_Female))
      (pins
        (pin (num 1) (name Pin_1) (type passive))
        (pin (num 2) (name Pin_2) (type passive))
        (pin (num 3) (name Pin_3) (type passive))
        (pin (num 4) (name Pin_4) (type passive))
        (pin (num 5) (name Pin_5) (type passive))
        (pin (num 6) (name Pin_6) (type passive))))
    (libpart (lib Connector) (part Conn_01x07_Male)
      (description "Generic connector, single row, 01x07, script generated (kicad-library-utils/schlib/autogen/connector/)")
      (docs ~)
      (footprints
        (fp Connector*:*_1x??_*))
      (fields
        (field (name Reference) J)
        (field (name Value) Conn_01x07_Male))
      (pins
        (pin (num 1) (name Pin_1) (type passive))
        (pin (num 2) (name Pin_2) (type passive))
        (pin (num 3) (name Pin_3) (type passive))
        (pin (num 4) (name Pin_4) (type passive))
        (pin (num 5) (name Pin_5) (type passive))
        (pin (num 6) (name Pin_6) (type passive))
        (pin (num 7) (name Pin_7) (type passive))))
    (libpart (lib Connector) (part Conn_01x10_Male)
      (description "Generic connector, single row, 01x10, script generated (kicad-library-utils/schlib/autogen/connector/)")
      (docs ~)
      (footprints
        (fp Connector*:*_1x??_*))
      (fields
        (field (name Reference) J)
        (field (name Value) Conn_01x10_Male))
      (pins
        (pin (num 1) (name Pin_1) (type passive))
        (pin (num 2) (name Pin_2) (type passive))
        (pin (num 3) (name Pin_3) (type passive))
        (pin (num 4) (name Pin_4) (type passive))
        (pin (num 5) (name Pin_5) (type passive))
        (pin (num 6) (name Pin_6) (type passive))
        (pin (num 7) (name Pin_7) (type passive))
        (pin (num 8) (name Pin_8) (type passive))
        (pin (num 9) (name Pin_9) (type passive))
        (pin (num 10) (name Pin_10) (type passive))))
    (libpart (lib Connector) (part Conn_01x12_Male)
      (description "Generic connector, single row, 01x12, script generated (kicad-library-utils/schlib/autogen/connector/)")
      (docs ~)
      (footprints
        (fp Connector*:*_1x??_*))
      (fields
        (field (name Reference) J)
        (field (name Value) Conn_01x12_Male))
      (pins
        (pin (num 1) (name Pin_1) (type passive))
        (pin (num 2) (name Pin_2) (type passive))
        (pin (num 3) (name Pin_3) (type passive))
        (pin (num 4) (name Pin_4) (type passive))
        (pin (num 5) (name Pin_5) (type passive))
        (pin (num 6) (name Pin_6) (type passive))
        (pin (num 7) (name Pin_7) (type passive))
        (pin (num 8) (name Pin_8) (type passive))
        (pin (num 9) (name Pin_9) (type passive))
        (pin (num 10) (name Pin_10) (type passive))
        (pin (num 11) (name Pin_11) (type passive))
        (pin (num 12) (name Pin_12) (type passive))))
    (libpart (lib Connector) (part Conn_01x14_Male)
      (description "Generic connector, single row, 01x14, script generated (kicad-library-utils/schlib/autogen/connector/)")
      (docs ~)
      (footprints
        (fp Connector*:*_1x??_*))
      (fields
        (field (name Reference) J)
        (field (name Value) Conn_01x14_Male))
      (pins
        (pin (num 1) (name Pin_1) (type passive))
        (pin (num 2) (name Pin_2) (type passive))
        (pin (num 3) (name Pin_3) (type passive))
        (pin (num 4) (name Pin_4) (type passive))
        (pin (num 5) (name Pin_5) (type passive))
        (pin (num 6) (name Pin_6) (type passive))
        (pin (num 7) (name Pin_7) (type passive))
        (pin (num 8) (name Pin_8) (type passive))
        (pin (num 9) (name Pin_9) (type passive))
        (pin (num 10) (name Pin_10) (type passive))
        (pin (num 11) (name Pin_11) (type passive))
        (pin (num 12) (name Pin_12) (type passive))
        (pin (num 13) (name Pin_13) (type passive))
        (pin (num 14) (name Pin_14) (type passive))))
    (libpart (lib Connector) (part Conn_Coaxial)
      (description "coaxial connector (BNC, SMA, SMB, SMC, Cinch/RCA, ...)")
      (docs " ~")
      (footprints
        (fp *BNC*)
        (fp *SMA*)
        (fp *SMB*)
        (fp *SMC*)
        (fp *Cinch*))
      (fields
        (field (name Reference) J)
        (field (name Value) Conn_Coaxial))
      (pins
        (pin (num 1) (name In) (type passive))
        (pin (num 2) (name Ext) (type passive))))
    (libpart (lib Connector) (part SIM_Card)
      (description "SIM Card")
      (docs " ~")
      (footprints
        (fp *SIM*Card*Holder*))
      (fields
        (field (name Reference) J)
        (field (name Value) SIM_Card))
      (pins
        (pin (num 1) (name VCC) (type power_in))
        (pin (num 2) (name RST) (type input))
        (pin (num 3) (name CLK) (type input))
        (pin (num 5) (name GND) (type power_in))
        (pin (num 6) (name VPP) (type input))
        (pin (num 7) (name I/O) (type BiDi))))
    (libpart (lib Connector) (part USB_B_Micro)
      (aliases
        (alias USB_B_Mini))
      (description "USB Micro Type B connector")
      (docs ~)
      (footprints
        (fp USB*))
      (fields
        (field (name Reference) J)
        (field (name Value) USB_B_Micro))
      (pins
        (pin (num 1) (name VBUS) (type power_out))
        (pin (num 2) (name D-) (type passive))
        (pin (num 3) (name D+) (type passive))
        (pin (num 4) (name ID) (type passive))
        (pin (num 5) (name GND) (type power_out))
        (pin (num 6) (name Shield) (type passive))))
    (libpart (lib Connector_Generic) (part Conn_02x01)
      (description "Generic connector, double row, 02x01, this symbol is compatible with counter-clockwise, top-bottom and odd-even numbering schemes., script generated (kicad-library-utils/schlib/autogen/connector/)")
      (docs ~)
      (footprints
        (fp Connector*:*_2x??_*))
      (fields
        (field (name Reference) J)
        (field (name Value) Conn_02x01))
      (pins
        (pin (num 1) (name Pin_1) (type passive))
        (pin (num 2) (name Pin_2) (type passive))))
    (libpart (lib Connector_Generic) (part Conn_02x02_Odd_Even)
      (description "Generic connector, double row, 02x02, odd/even pin numbering scheme (row 1 odd numbers, row 2 even numbers), script generated (kicad-library-utils/schlib/autogen/connector/)")
      (docs ~)
      (footprints
        (fp Connector*:*_2x??_*))
      (fields
        (field (name Reference) J)
        (field (name Value) Conn_02x02_Odd_Even))
      (pins
        (pin (num 1) (name Pin_1) (type passive))
        (pin (num 2) (name Pin_2) (type passive))
        (pin (num 3) (name Pin_3) (type passive))
        (pin (num 4) (name Pin_4) (type passive))))
    (libpart (lib Connector_Generic) (part Conn_02x03_Odd_Even)
      (description "Generic connector, double row, 02x03, odd/even pin numbering scheme (row 1 odd numbers, row 2 even numbers), script generated (kicad-library-utils/schlib/autogen/connector/)")
      (docs ~)
      (footprints
        (fp Connector*:*_2x??_*))
      (fields
        (field (name Reference) J)
        (field (name Value) Conn_02x03_Odd_Even))
      (pins
        (pin (num 1) (name Pin_1) (type passive))
        (pin (num 2) (name Pin_2) (type passive))
        (pin (num 3) (name Pin_3) (type passive))
        (pin (num 4) (name Pin_4) (type passive))
        (pin (num 5) (name Pin_5) (type passive))
        (pin (num 6) (name Pin_6) (type passive))))
    (libpart (lib Connector_Generic) (part Conn_02x06_Odd_Even)
      (description "Generic connector, double row, 02x06, odd/even pin numbering scheme (row 1 odd numbers, row 2 even numbers), script generated (kicad-library-utils/schlib/autogen/connector/)")
      (docs ~)
      (footprints
        (fp Connector*:*_2x??_*))
      (fields
        (field (name Reference) J)
        (field (name Value) Conn_02x06_Odd_Even))
      (pins
        (pin (num 1) (name Pin_1) (type passive))
        (pin (num 2) (name Pin_2) (type passive))
        (pin (num 3) (name Pin_3) (type passive))
        (pin (num 4) (name Pin_4) (type passive))
        (pin (num 5) (name Pin_5) (type passive))
        (pin (num 6) (name Pin_6) (type passive))
        (pin (num 7) (name Pin_7) (type passive))
        (pin (num 8) (name Pin_8) (type passive))
        (pin (num 9) (name Pin_9) (type passive))
        (pin (num 10) (name Pin_10) (type passive))
        (pin (num 11) (name Pin_11) (type passive))
        (pin (num 12) (name Pin_12) (type passive))))
    (libpart (lib Device) (part C)
      (description "Unpolarized capacitor")
      (docs ~)
      (footprints
        (fp C_*))
      (fields
        (field (name Reference) C)
        (field (name Value) C))
      (pins
        (pin (num 1) (name ~) (type passive))
        (pin (num 2) (name ~) (type passive))))
    (libpart (lib Device) (part CP)
      (description "Polarized capacitor")
      (docs ~)
      (footprints
        (fp CP_*))
      (fields
        (field (name Reference) C)
        (field (name Value) CP))
      (pins
        (pin (num 1) (name ~) (type passive))
        (pin (num 2) (name ~) (type passive))))
    (libpart (lib Device) (part D_TVS)
      (description "Bidirectional transient-voltage-suppression diode")
      (docs ~)
      (footprints
        (fp TO-???*)
        (fp *_Diode_*)
        (fp *SingleDiode*)
        (fp D_*))
      (fields
        (field (name Reference) D)
        (field (name Value) D_TVS))
      (pins
        (pin (num 1) (name A1) (type passive))
        (pin (num 2) (name A2) (type passive))))
    (libpart (lib Device) (part D_Zener)
      (description "Zener diode")
      (docs ~)
      (footprints
        (fp TO-???*)
        (fp *_Diode_*)
        (fp *SingleDiode*)
        (fp D_*))
      (fields
        (field (name Reference) D)
        (field (name Value) D_Zener))
      (pins
        (pin (num 1) (name K) (type passive))
        (pin (num 2) (name A) (type passive))))
    (libpart (lib Device) (part Ferrite_Bead_Small)
      (description "Ferrite bead, small symbol")
      (docs ~)
      (footprints
        (fp Inductor_*)
        (fp L_*)
        (fp *Ferrite*))
      (fields
        (field (name Reference) FB)
        (field (name Value) Ferrite_Bead_Small))
      (pins
        (pin (num 1) (name ~) (type passive))
        (pin (num 2) (name ~) (type passive))))
    (libpart (lib Device) (part LED)
      (description "Light emitting diode")
      (docs ~)
      (footprints
        (fp LED*)
        (fp LED_SMD:*)
        (fp LED_THT:*))
      (fields
        (field (name Reference) D)
        (field (name Value) LED))
      (pins
        (pin (num 1) (name K) (type passive))
        (pin (num 2) (name A) (type passive))))
    (libpart (lib Device) (part R)
      (description Resistor)
      (docs ~)
      (footprints
        (fp R_*))
      (fields
        (field (name Reference) R)
        (field (name Value) R))
      (pins
        (pin (num 1) (name ~) (type passive))
        (pin (num 2) (name ~) (type passive))))
    (libpart (lib Device) (part Speaker)
      (description Speaker)
      (docs ~)
      (fields
        (field (name Reference) LS)
        (field (name Value) Speaker))
      (pins
        (pin (num 1) (name 1) (type input))
        (pin (num 2) (name 2) (type input))))
    (libpart (lib Interface_Expansion) (part PCF8574)
      (aliases
        (alias PCF8574A))
      (description "8 Bit Port/Expander to I2C Bus, DIP/SOIC-16")
      (docs http://www.nxp.com/documents/data_sheet/PCF8574_PCF8574A.pdf)
      (footprints
        (fp DIP*)
        (fp PDIP*)
        (fp SO*)
        (fp SOIC*))
      (fields
        (field (name Reference) U)
        (field (name Value) PCF8574))
      (pins
        (pin (num 1) (name A0) (type input))
        (pin (num 2) (name A1) (type input))
        (pin (num 3) (name A2) (type input))
        (pin (num 4) (name P0) (type BiDi))
        (pin (num 5) (name P1) (type BiDi))
        (pin (num 6) (name P2) (type BiDi))
        (pin (num 7) (name P3) (type BiDi))
        (pin (num 8) (name VSS) (type power_in))
        (pin (num 9) (name P4) (type BiDi))
        (pin (num 10) (name P5) (type BiDi))
        (pin (num 11) (name P6) (type BiDi))
        (pin (num 12) (name P7) (type BiDi))
        (pin (num 13) (name ~INT~) (type openCol))
        (pin (num 14) (name SCL) (type input))
        (pin (num 15) (name SDA) (type BiDi))
        (pin (num 16) (name VDD) (type power_in))))
    (libpart (lib Interface_Expansion) (part TCA9548APWR)
      (description "Low voltage 8-channel I2C switch with reset, TSSOP-24")
      (docs http://www.ti.com/lit/ds/symlink/tca9548a.pdf)
      (footprints
        (fp TSSOP*4.4x7.8mm*P0.65mm*))
      (fields
        (field (name Reference) U)
        (field (name Value) TCA9548APWR)
        (field (name Footprint) Package_SO:TSSOP-24_4.4x7.8mm_P0.65mm))
      (pins
        (pin (num 1) (name A0) (type input))
        (pin (num 2) (name A1) (type input))
        (pin (num 3) (name ~RESET) (type input))
        (pin (num 4) (name SD0) (type BiDi))
        (pin (num 5) (name SC0) (type BiDi))
        (pin (num 6) (name SD1) (type BiDi))
        (pin (num 7) (name SC1) (type BiDi))
        (pin (num 8) (name SD2) (type BiDi))
        (pin (num 9) (name SC2) (type BiDi))
        (pin (num 10) (name SD3) (type BiDi))
        (pin (num 11) (name SC3) (type BiDi))
        (pin (num 12) (name GND) (type power_in))
        (pin (num 13) (name SD4) (type BiDi))
        (pin (num 14) (name SC4) (type BiDi))
        (pin (num 15) (name SD5) (type BiDi))
        (pin (num 16) (name SC5) (type BiDi))
        (pin (num 17) (name SD6) (type BiDi))
        (pin (num 18) (name SC6) (type BiDi))
        (pin (num 19) (name SD7) (type BiDi))
        (pin (num 20) (name SC7) (type BiDi))
        (pin (num 21) (name A2) (type input))
        (pin (num 22) (name SCL) (type BiDi))
        (pin (num 23) (name SDA) (type BiDi))
        (pin (num 24) (name VCC) (type power_in))))
    (libpart (lib Interface_USB) (part FT232RL)
      (description "USB to Serial Interface, SSOP-28")
      (docs http://www.ftdichip.com/Products/ICs/FT232RL.htm)
      (footprints
        (fp SSOP*5.3x10.2mm*P0.65mm*))
      (fields
        (field (name Reference) U)
        (field (name Value) FT232RL)
        (field (name Footprint) Package_SO:SSOP-28_5.3x10.2mm_P0.65mm))
      (pins
        (pin (num 1) (name TXD) (type output))
        (pin (num 2) (name DTR) (type output))
        (pin (num 3) (name RTS) (type output))
        (pin (num 4) (name VCCIO) (type input))
        (pin (num 5) (name RXD) (type input))
        (pin (num 6) (name RI) (type input))
        (pin (num 7) (name GND) (type power_in))
        (pin (num 9) (name DCR) (type input))
        (pin (num 10) (name DCD) (type input))
        (pin (num 11) (name CTS) (type input))
        (pin (num 12) (name CBUS4) (type BiDi))
        (pin (num 13) (name CBUS2) (type BiDi))
        (pin (num 14) (name CBUS3) (type BiDi))
        (pin (num 15) (name USBD+) (type BiDi))
        (pin (num 16) (name USBD-) (type BiDi))
        (pin (num 17) (name 3V3OUT) (type input))
        (pin (num 18) (name GND) (type power_in))
        (pin (num 19) (name ~RESET~) (type input))
        (pin (num 20) (name VCC) (type power_in))
        (pin (num 21) (name GND) (type power_in))
        (pin (num 22) (name CBUS1) (type output))
        (pin (num 23) (name CBUS0) (type BiDi))
        (pin (num 25) (name AGND) (type power_in))
        (pin (num 26) (name TEST) (type power_in))
        (pin (num 27) (name OSCI) (type input))
        (pin (num 28) (name OSCO) (type output))))
    (libpart (lib RF) (part SIM800C)
      (description "GSM Quad-Band Communication Module, GPRS, Audio Engine, AT Command Set, Bluetooth is Optional")
      (docs http://simcom.ee/documents/SIM800C/SIM800C_Hardware_Design_V1.05.pdf)
      (footprints
        (fp SIMCom*SIM800C*))
      (fields
        (field (name Reference) U)
        (field (name Value) SIM800C)
        (field (name Footprint) RF_Module:SIMCom_SIM800C))
      (pins
        (pin (num 1) (name UART1_TXD) (type output))
        (pin (num 2) (name UART1_RXD) (type input))
        (pin (num 3) (name UART1_RTS) (type input))
        (pin (num 4) (name UART1_CTS) (type output))
        (pin (num 5) (name UART1_DCD) (type output))
        (pin (num 6) (name UART1_DTR) (type input))
        (pin (num 7) (name UART1_RI) (type output))
        (pin (num 8) (name GND) (type power_in))
        (pin (num 9) (name MICP) (type input))
        (pin (num 10) (name MICN) (type input))
        (pin (num 11) (name SPKP) (type output))
        (pin (num 12) (name SPKN) (type output))
        (pin (num 13) (name GND) (type passive))
        (pin (num 14) (name SIM_DET) (type input))
        (pin (num 15) (name SIM_DATA) (type BiDi))
        (pin (num 16) (name SIM_CLK) (type output))
        (pin (num 17) (name SIM_RST) (type output))
        (pin (num 18) (name SIM_VDD) (type power_out))
        (pin (num 19) (name GND) (type passive))
        (pin (num 20) (name BT_ANT) (type passive))
        (pin (num 21) (name GND) (type passive))
        (pin (num 22) (name UART2_TXD) (type output))
        (pin (num 23) (name UART2_RXD) (type input))
        (pin (num 24) (name USB_VBUS) (type input))
        (pin (num 25) (name USB_DP) (type BiDi))
        (pin (num 26) (name USB_DM) (type BiDi))
        (pin (num 27) (name GND) (type passive))
        (pin (num 28) (name VRTC) (type power_in))
        (pin (num 29) (name RF_SYNC) (type output))
        (pin (num 30) (name GND) (type passive))
        (pin (num 31) (name GND) (type passive))
        (pin (num 32) (name GSM_ANT) (type passive))
        (pin (num 33) (name GND) (type passive))
        (pin (num 34) (name VBAT) (type power_in))
        (pin (num 35) (name VBAT) (type passive))
        (pin (num 36) (name GND) (type passive))
        (pin (num 37) (name GND) (type passive))
        (pin (num 38) (name ADC) (type input))
        (pin (num 39) (name ~PWRKEY) (type input))
        (pin (num 40) (name VDD_EXT) (type power_out))
        (pin (num 41) (name NETLIGHT) (type output))
        (pin (num 42) (name STATUS) (type output))))
    (libpart (lib Switch) (part SW_Push)
      (description "Push button switch, generic, two pins")
      (fields
        (field (name Reference) SW)
        (field (name Value) SW_Push))
      (pins
        (pin (num 1) (name 1) (type passive))
        (pin (num 2) (name 2) (type passive))))
    (libpart (lib devboard_io-rescue) (part ESP32-WROOM-32D-ESP32-WROOM-32D-sierros-rescue)
      (fields
        (field (name Reference) U)
        (field (name Value) ESP32-WROOM-32D-ESP32-WROOM-32D-sierros-rescue)
        (field (name Footprint) MODULE_ESP32-WROOM-32D)
        (field (name Datasheet) "IC: SoC; GPIO, I2C, I2S, IR, SD, SDIO, SPI, UART; 2.7÷3.6VDC; 20dBm")
        (field (name Champ4) None)
        (field (name Champ5) ESP32-WROOM-32D)
        (field (name Champ6) Unavailable)
        (field (name Champ7) "Espressif Systems")
        (field (name Champ8) "Module Espressif Systems"))
      (pins
        (pin (num 1) (name GND) (type power_in))
        (pin (num 2) (name 3V3) (type power_in))
        (pin (num 3) (name EN) (type input))
        (pin (num 4) (name SENSOR_VP) (type input))
        (pin (num 5) (name SENSOR_VN) (type input))
        (pin (num 6) (name IO34) (type BiDi))
        (pin (num 7) (name IO35) (type BiDi))
        (pin (num 8) (name IO32) (type BiDi))
        (pin (num 9) (name IO33) (type BiDi))
        (pin (num 10) (name IO25) (type BiDi))
        (pin (num 11) (name IO26) (type BiDi))
        (pin (num 12) (name IO27) (type BiDi))
        (pin (num 13) (name IO14) (type BiDi))
        (pin (num 14) (name IO12) (type BiDi))
        (pin (num 15) (name GND) (type power_in))
        (pin (num 16) (name IO13) (type BiDi))
        (pin (num 17) (name SHD/SD2) (type BiDi))
        (pin (num 18) (name SWP/SD3) (type BiDi))
        (pin (num 19) (name SCS/CMD) (type BiDi))
        (pin (num 20) (name SCL/CLK) (type BiDi))
        (pin (num 21) (name SDO/SD0) (type BiDi))
        (pin (num 22) (name SDI/SD1) (type BiDi))
        (pin (num 23) (name IO15) (type BiDi))
        (pin (num 24) (name IO2) (type BiDi))
        (pin (num 25) (name IO0) (type BiDi))
        (pin (num 26) (name IO4) (type BiDi))
        (pin (num 27) (name IO16) (type BiDi))
        (pin (num 28) (name IO17) (type BiDi))
        (pin (num 29) (name IO5) (type BiDi))
        (pin (num 30) (name IO18) (type BiDi))
        (pin (num 31) (name IO19) (type BiDi))
        (pin (num 33) (name IO21) (type BiDi))
        (pin (num 34) (name RXD0) (type BiDi))
        (pin (num 35) (name TXD0) (type BiDi))
        (pin (num 36) (name IO22) (type BiDi))
        (pin (num 37) (name IO23) (type BiDi))
        (pin (num 38) (name GND) (type power_in))
        (pin (num 39) (name GND) (type power_in))))
    (libpart (lib devboard_io-rescue) (part SMF05C-smf05c)
      (fields
        (field (name Reference) U)
        (field (name Value) SMF05C-smf05c))
      (pins
        (pin (num 1) (name IO1) (type input))
        (pin (num 2) (name GND) (type power_in))
        (pin (num 3) (name IO2) (type input))
        (pin (num 4) (name IO3) (type input))
        (pin (num 5) (name IO4) (type input))
        (pin (num 6) (name IO5) (type input))))
    (libpart (lib pam8406) (part PAM8406)
      (fields
        (field (name Reference) U)
        (field (name Value) PAM8406))
      (pins
        (pin (num 1) (name +OUT_L) (type output))
        (pin (num 2) (name PGNDL) (type power_in))
        (pin (num 3) (name -OUT_L) (type output))
        (pin (num 4) (name PVDDL) (type power_in))
        (pin (num 5) (name MUTE) (type input))
        (pin (num 6) (name VDD) (type power_in))
        (pin (num 7) (name INL) (type input))
        (pin (num 8) (name VREF) (type power_in))
        (pin (num 9) (name MODE) (type input))
        (pin (num 10) (name INR) (type input))
        (pin (num 11) (name GND) (type power_in))
        (pin (num 12) (name SHND) (type input))
        (pin (num 13) (name PVDDR) (type power_in))
        (pin (num 14) (name -OUT_R) (type output))
        (pin (num 15) (name PGNDR) (type power_in))
        (pin (num 16) (name +OUT_R) (type output)))))
  (libraries
    (library (logical Connector)
      (uri "C:\\Program Files\\KiCad\\share\\kicad\\library/Connector.lib"))
    (library (logical Connector_Generic)
      (uri "C:\\Program Files\\KiCad\\share\\kicad\\library/Connector_Generic.lib"))
    (library (logical Device)
      (uri "C:\\Program Files\\KiCad\\share\\kicad\\library/Device.lib"))
    (library (logical Interface_Expansion)
      (uri "C:\\Program Files\\KiCad\\share\\kicad\\library/Interface_Expansion.lib"))
    (library (logical Interface_USB)
      (uri "C:\\Program Files\\KiCad\\share\\kicad\\library/Interface_USB.lib"))
    (library (logical RF)
      (uri "C:\\Program Files\\KiCad\\share\\kicad\\library/RF.lib"))
    (library (logical Switch)
      (uri "C:\\Program Files\\KiCad\\share\\kicad\\library/Switch.lib"))
    (library (logical devboard_io-rescue)
      (uri C:\Users\matti\Desktop\Sierros\sierros_pcb\devboard_io\devboard_io/devboard_io-rescue.lib))
    (library (logical pam8406)
      (uri C:\Users\matti\Desktop\Sierros\sierros_pcb\devboard_io\devboard_io\pam8406.lib)))
  (nets
    (net (code 1) (name "Net-(J7-Pad1)")
      (node (ref J7) (pin 1))
      (node (ref U3) (pin 1))
      (node (ref R5) (pin 1)))
    (net (code 2) (name GND)
      (node (ref C3) (pin 1))
      (node (ref U1) (pin 7))
      (node (ref J19) (pin 1))
      (node (ref C2) (pin 2))
      (node (ref J36) (pin 1))
      (node (ref J19) (pin 3))
      (node (ref J36) (pin 5))
      (node (ref C1) (pin 1))
      (node (ref U5) (pin 11))
      (node (ref C26) (pin 1))
      (node (ref U5) (pin 15))
      (node (ref U5) (pin 2))
      (node (ref J2) (pin 5))
      (node (ref J19) (pin 5))
      (node (ref U1) (pin 26))
      (node (ref U1) (pin 25))
      (node (ref U1) (pin 21))
      (node (ref U1) (pin 18))
      (node (ref J2) (pin 6))
      (node (ref D3) (pin 2))
      (node (ref C5) (pin 1))
      (node (ref J27) (pin 3))
      (node (ref J28) (pin 1))
      (node (ref R20) (pin 2))
      (node (ref C29) (pin 1))
      (node (ref J1) (pin 6))
      (node (ref J36) (pin 3))
      (node (ref J4) (pin 1))
      (node (ref J12) (pin 6))
      (node (ref J12) (pin 5))
      (node (ref C4) (pin 1))
      (node (ref U7) (pin 8))
      (node (ref U4) (pin 12))
      (node (ref C6) (pin 2))
      (node (ref J23) (pin 1))
      (node (ref U3) (pin 27))
      (node (ref U3) (pin 13))
      (node (ref U3) (pin 21))
      (node (ref U3) (pin 19))
      (node (ref J41) (pin 1))
      (node (ref U3) (pin 30))
      (node (ref U3) (pin 37))
      (node (ref U3) (pin 36))
      (node (ref U3) (pin 33))
      (node (ref U3) (pin 31))
      (node (ref C23) (pin 2))
      (node (ref C13) (pin 1))
      (node (ref C12) (pin 2))
      (node (ref C8) (pin 1))
      (node (ref C11) (pin 2))
      (node (ref C7) (pin 1))
      (node (ref D7) (pin 2))
      (node (ref D5) (pin 2))
      (node (ref C37) (pin 2))
      (node (ref D4) (pin 1))
      (node (ref J6) (pin 2))
      (node (ref J5) (pin 5))
      (node (ref U3) (pin 8))
      (node (ref C15) (pin 1))
      (node (ref C22) (pin 2))
      (node (ref C14) (pin 1))
      (node (ref C21) (pin 2))
      (node (ref SW2) (pin 2))
      (node (ref SW1) (pin 1))
      (node (ref U6) (pin 15))
      (node (ref J16) (pin 3))
      (node (ref U6) (pin 39))
      (node (ref U6) (pin 38))
      (node (ref J29) (pin 12))
      (node (ref C24) (pin 2))
      (node (ref C16) (pin 1))
      (node (ref D6) (pin 1))
      (node (ref J37) (pin 1))
      (node (ref C30) (pin 2))
      (node (ref C25) (pin 2))
      (node (ref C32) (pin 1))
      (node (ref J3) (pin 2))
      (node (ref J40) (pin 1))
      (node (ref U6) (pin 1))
      (node (ref C34) (pin 2))
      (node (ref C36) (pin 1))
      (node (ref C35) (pin 2))
      (node (ref R7) (pin 2))
      (node (ref J15) (pin 2))
      (node (ref U2) (pin 2))
      (node (ref C31) (pin 2))
      (node (ref C28) (pin 1)))
    (net (code 3) (name "Net-(J7-Pad3)")
      (node (ref U3) (pin 3))
      (node (ref J7) (pin 3)))
    (net (code 4) (name /SDN)
      (node (ref J1) (pin 1)))
    (net (code 5) (name "Net-(J10-Pad2)")
      (node (ref J10) (pin 2))
      (node (ref U3) (pin 39)))
    (net (code 6) (name "Net-(J10-Pad1)")
      (node (ref R8) (pin 1))
      (node (ref J10) (pin 1)))
    (net (code 7) (name "Net-(J9-Pad2)")
      (node (ref U3) (pin 23))
      (node (ref J9) (pin 2)))
    (net (code 8) (name "Net-(J9-Pad1)")
      (node (ref U3) (pin 22))
      (node (ref J9) (pin 1)))
    (net (code 9) (name "Net-(J7-Pad6)")
      (node (ref U3) (pin 6))
      (node (ref J7) (pin 6)))
    (net (code 10) (name "Net-(J7-Pad4)")
      (node (ref U3) (pin 4))
      (node (ref J7) (pin 4)))
    (net (code 11) (name "Net-(J20-Pad1)")
      (node (ref U4) (pin 10))
      (node (ref J20) (pin 1)))
    (net (code 12) (name "Net-(J20-Pad9)")
      (node (ref J20) (pin 9))
      (node (ref U4) (pin 19)))
    (net (code 13) (name "Net-(J20-Pad7)")
      (node (ref U4) (pin 17))
      (node (ref J20) (pin 7)))
    (net (code 14) (name "Net-(J20-Pad6)")
      (node (ref J20) (pin 6))
      (node (ref U4) (pin 16)))
    (net (code 15) (name "Net-(J20-Pad4)")
      (node (ref U4) (pin 14))
      (node (ref J20) (pin 4)))
    (net (code 16) (name "Net-(J20-Pad2)")
      (node (ref U4) (pin 11))
      (node (ref J20) (pin 2)))
    (net (code 17) (name /SDA_PCF8574)
      (node (ref J34) (pin 2))
      (node (ref R12) (pin 2))
      (node (ref J18) (pin 2))
      (node (ref U7) (pin 15)))
    (net (code 18) (name "Net-(J39-Pad1)")
      (node (ref J39) (pin 1))
      (node (ref U7) (pin 13)))
    (net (code 19) (name /Shutdown_PAM)
      (node (ref J27) (pin 4))
      (node (ref U7) (pin 4))
      (node (ref J35) (pin 3))
      (node (ref U5) (pin 12))
      (node (ref R20) (pin 1)))
    (net (code 20) (name /PWRKEY)
      (node (ref R8) (pin 2))
      (node (ref U7) (pin 5))
      (node (ref J35) (pin 2)))
    (net (code 21) (name /MUTE)
      (node (ref J35) (pin 1))
      (node (ref J22) (pin 2))
      (node (ref U7) (pin 6))
      (node (ref U5) (pin 5)))
    (net (code 22) (name "Net-(C33-Pad2)")
      (node (ref J31) (pin 1))
      (node (ref C33) (pin 2)))
    (net (code 23) (name "Net-(C27-Pad1)")
      (node (ref J24) (pin 1))
      (node (ref C27) (pin 1)))
    (net (code 24) (name SCL)
      (node (ref J29) (pin 10))
      (node (ref U6) (pin 36))
      (node (ref U4) (pin 22))
      (node (ref R9) (pin 2))
      (node (ref J17) (pin 1)))
    (net (code 25) (name "Net-(J37-Pad5)")
      (node (ref U6) (pin 5))
      (node (ref J37) (pin 5)))
    (net (code 26) (name "Net-(J37-Pad8)")
      (node (ref J37) (pin 8))
      (node (ref U6) (pin 8)))
    (net (code 27) (name /OUTPUT_ad8232)
      (node (ref J37) (pin 7))
      (node (ref U6) (pin 7))
      (node (ref J1) (pin 4)))
    (net (code 28) (name /LO+)
      (node (ref J1) (pin 2))
      (node (ref U6) (pin 6))
      (node (ref J37) (pin 6)))
    (net (code 29) (name "Net-(J37-Pad4)")
      (node (ref U6) (pin 4))
      (node (ref J37) (pin 4)))
    (net (code 30) (name "Net-(J37-Pad11)")
      (node (ref U6) (pin 11))
      (node (ref J37) (pin 11)))
    (net (code 31) (name /LO-)
      (node (ref J37) (pin 13))
      (node (ref J1) (pin 3))
      (node (ref U6) (pin 13)))
    (net (code 32) (name /INT_MAX30100)
      (node (ref U6) (pin 12))
      (node (ref J37) (pin 12))
      (node (ref J3) (pin 5)))
    (net (code 33) (name /SIM800_RX)
      (node (ref U6) (pin 10))
      (node (ref J37) (pin 10))
      (node (ref R7) (pin 1))
      (node (ref R6) (pin 2)))
    (net (code 34) (name "Net-(J37-Pad9)")
      (node (ref U6) (pin 9))
      (node (ref J37) (pin 9)))
    (net (code 35) (name "Net-(J5-Pad3)")
      (node (ref J5) (pin 3))
      (node (ref R2) (pin 1)))
    (net (code 36) (name +3V3)
      (node (ref U4) (pin 24))
      (node (ref R10) (pin 1))
      (node (ref J32) (pin 1))
      (node (ref J1) (pin 5))
      (node (ref R12) (pin 1))
      (node (ref R15) (pin 1))
      (node (ref R13) (pin 1))
      (node (ref J37) (pin 2))
      (node (ref J4) (pin 3))
      (node (ref J27) (pin 1))
      (node (ref U5) (pin 9))
      (node (ref 120R2) (pin 1))
      (node (ref R17) (pin 2))
      (node (ref 120R1) (pin 1))
      (node (ref U1) (pin 19))
      (node (ref U1) (pin 4))
      (node (ref R11) (pin 1))
      (node (ref R9) (pin 1))
      (node (ref 10k1) (pin 2))
      (node (ref U6) (pin 2))
      (node (ref U7) (pin 16))
      (node (ref R16) (pin 1))
      (node (ref R14) (pin 1))
      (node (ref J16) (pin 1))
      (node (ref J3) (pin 1)))
    (net (code 37) (name /SDA_MAX30100)
      (node (ref J18) (pin 6))
      (node (ref R14) (pin 2))
      (node (ref J3) (pin 4)))
    (net (code 38) (name "Net-(J18-Pad5)")
      (node (ref J18) (pin 5))
      (node (ref U4) (pin 6)))
    (net (code 39) (name "Net-(R17-Pad1)")
      (node (ref R17) (pin 1))
      (node (ref U4) (pin 3)))
    (net (code 40) (name "Net-(FB3-Pad1)")
      (node (ref J26) (pin 2))
      (node (ref FB3) (pin 1)))
    (net (code 41) (name "Net-(FB4-Pad1)")
      (node (ref FB4) (pin 1))
      (node (ref J30) (pin 2)))
    (net (code 42) (name "Net-(J30-Pad1)")
      (node (ref U5) (pin 14))
      (node (ref J30) (pin 1)))
    (net (code 43) (name "Net-(C35-Pad1)")
      (node (ref C35) (pin 1))
      (node (ref LS2) (pin 2))
      (node (ref FB4) (pin 2)))
    (net (code 44) (name "Net-(C31-Pad1)")
      (node (ref FB2) (pin 2))
      (node (ref C31) (pin 1))
      (node (ref LS1) (pin 2)))
    (net (code 45) (name "Net-(C28-Pad2)")
      (node (ref FB1) (pin 2))
      (node (ref LS1) (pin 1))
      (node (ref C28) (pin 2)))
    (net (code 46) (name "Net-(FB2-Pad1)")
      (node (ref FB2) (pin 1))
      (node (ref J25) (pin 2)))
    (net (code 47) (name "Net-(C30-Pad1)")
      (node (ref J22) (pin 5))
      (node (ref U5) (pin 8))
      (node (ref C30) (pin 1)))
    (net (code 48) (name "Net-(FB1-Pad1)")
      (node (ref FB1) (pin 1))
      (node (ref J21) (pin 2)))
    (net (code 49) (name "Net-(J25-Pad1)")
      (node (ref U5) (pin 1))
      (node (ref J25) (pin 1)))
    (net (code 50) (name SDA)
      (node (ref R11) (pin 2))
      (node (ref U4) (pin 23))
      (node (ref U6) (pin 33))
      (node (ref J29) (pin 9))
      (node (ref J17) (pin 2)))
    (net (code 51) (name "Net-(J38-Pad4)")
      (node (ref J38) (pin 4))
      (node (ref U7) (pin 9)))
    (net (code 52) (name "Net-(J38-Pad3)")
      (node (ref U7) (pin 10))
      (node (ref J38) (pin 3)))
    (net (code 53) (name "Net-(J38-Pad2)")
      (node (ref U7) (pin 11))
      (node (ref J38) (pin 2)))
    (net (code 54) (name "Net-(J38-Pad1)")
      (node (ref U7) (pin 12))
      (node (ref J38) (pin 1)))
    (net (code 55) (name "Net-(J38-Pad5)")
      (node (ref J38) (pin 5))
      (node (ref U7) (pin 7)))
    (net (code 56) (name +5V)
      (node (ref C34) (pin 1))
      (node (ref C36) (pin 2))
      (node (ref J22) (pin 1))
      (node (ref J22) (pin 3))
      (node (ref J4) (pin 4))
      (node (ref J2) (pin 1))
      (node (ref U1) (pin 20))
      (node (ref U5) (pin 4))
      (node (ref J27) (pin 5))
      (node (ref U5) (pin 6))
      (node (ref J16) (pin 2))
      (node (ref U5) (pin 13))
      (node (ref C25) (pin 1))
      (node (ref C26) (pin 2))
      (node (ref C29) (pin 2)))
    (net (code 57) (name +BATT)
      (node (ref U3) (pin 35))
      (node (ref U3) (pin 34))
      (node (ref J4) (pin 2))
      (node (ref C3) (pin 2))
      (node (ref C2) (pin 1))
      (node (ref D3) (pin 1))
      (node (ref C5) (pin 2))
      (node (ref C4) (pin 2)))
    (net (code 58) (name "Net-(J19-Pad2)")
      (node (ref U4) (pin 21))
      (node (ref J19) (pin 2)))
    (net (code 59) (name "Net-(J33-Pad4)")
      (node (ref U6) (pin 34))
      (node (ref J33) (pin 4)))
    (net (code 60) (name RX_ESP32)
      (node (ref U1) (pin 1))
      (node (ref J33) (pin 3)))
    (net (code 61) (name "Net-(J33-Pad2)")
      (node (ref U6) (pin 35))
      (node (ref J33) (pin 2)))
    (net (code 62) (name TX_ESP32)
      (node (ref U1) (pin 5))
      (node (ref J33) (pin 1)))
    (net (code 63) (name "Net-(J36-Pad6)")
      (node (ref U7) (pin 3))
      (node (ref J36) (pin 6)))
    (net (code 64) (name "Net-(J36-Pad4)")
      (node (ref J36) (pin 4))
      (node (ref U7) (pin 2)))
    (net (code 65) (name "Net-(J36-Pad2)")
      (node (ref J36) (pin 2))
      (node (ref U7) (pin 1)))
    (net (code 66) (name "Net-(J18-Pad3)")
      (node (ref U4) (pin 5))
      (node (ref J18) (pin 3)))
    (net (code 67) (name "Net-(J18-Pad1)")
      (node (ref U4) (pin 4))
      (node (ref J18) (pin 1)))
    (net (code 68) (name "Net-(J18-Pad9)")
      (node (ref J18) (pin 9))
      (node (ref U4) (pin 8)))
    (net (code 69) (name /SCL_MAX30100)
      (node (ref R13) (pin 2))
      (node (ref J3) (pin 3))
      (node (ref J18) (pin 8)))
    (net (code 70) (name /SCL_PCF8574)
      (node (ref R10) (pin 2))
      (node (ref U7) (pin 14))
      (node (ref J18) (pin 4))
      (node (ref J34) (pin 1)))
    (net (code 71) (name "Net-(J18-Pad11)")
      (node (ref J18) (pin 11))
      (node (ref U4) (pin 9)))
    (net (code 72) (name "Net-(J19-Pad6)")
      (node (ref U4) (pin 1))
      (node (ref J19) (pin 6)))
    (net (code 73) (name "Net-(J19-Pad4)")
      (node (ref J19) (pin 4))
      (node (ref U4) (pin 2)))
    (net (code 74) (name "Net-(J7-Pad7)")
      (node (ref U3) (pin 7))
      (node (ref R4) (pin 1))
      (node (ref J7) (pin 7)))
    (net (code 75) (name "Net-(J7-Pad5)")
      (node (ref U3) (pin 5))
      (node (ref J7) (pin 5)))
    (net (code 76) (name "Net-(J7-Pad2)")
      (node (ref R6) (pin 1))
      (node (ref J7) (pin 2))
      (node (ref U3) (pin 2)))
    (net (code 77) (name "Net-(J21-Pad1)")
      (node (ref U5) (pin 3))
      (node (ref J21) (pin 1)))
    (net (code 78) (name "Net-(J26-Pad1)")
      (node (ref J26) (pin 1))
      (node (ref U5) (pin 16)))
    (net (code 79) (name "Net-(J20-Pad3)")
      (node (ref J20) (pin 3))
      (node (ref U4) (pin 13)))
    (net (code 80) (name "Net-(J20-Pad5)")
      (node (ref J20) (pin 5))
      (node (ref U4) (pin 15)))
    (net (code 81) (name /SCL_RPI)
      (node (ref R15) (pin 2))
      (node (ref J16) (pin 5))
      (node (ref J18) (pin 12)))
    (net (code 82) (name /SDA_RPI)
      (node (ref J18) (pin 10))
      (node (ref R16) (pin 2))
      (node (ref J16) (pin 4)))
    (net (code 83) (name "Net-(J20-Pad10)")
      (node (ref U4) (pin 20))
      (node (ref J20) (pin 10)))
    (net (code 84) (name "Net-(J20-Pad8)")
      (node (ref U4) (pin 18))
      (node (ref J20) (pin 8)))
    (net (code 85) (name "Net-(J18-Pad7)")
      (node (ref J18) (pin 7))
      (node (ref U4) (pin 7)))
    (net (code 86) (name "Net-(J29-Pad3)")
      (node (ref U6) (pin 27))
      (node (ref J29) (pin 3)))
    (net (code 87) (name /SIM800_RI)
      (node (ref R4) (pin 2))
      (node (ref J29) (pin 6))
      (node (ref U6) (pin 30)))
    (net (code 88) (name "Net-(J29-Pad5)")
      (node (ref U6) (pin 29))
      (node (ref J29) (pin 5)))
    (net (code 89) (name "Net-(J29-Pad4)")
      (node (ref J29) (pin 4))
      (node (ref U6) (pin 28)))
    (net (code 90) (name "Net-(J29-Pad2)")
      (node (ref U6) (pin 26))
      (node (ref J29) (pin 2)))
    (net (code 91) (name "Net-(J41-Pad10)")
      (node (ref J41) (pin 10))
      (node (ref U6) (pin 24)))
    (net (code 92) (name /SIM800_TX)
      (node (ref R5) (pin 2))
      (node (ref U6) (pin 37))
      (node (ref J29) (pin 11)))
    (net (code 93) (name "Net-(J29-Pad7)")
      (node (ref J29) (pin 7))
      (node (ref U6) (pin 31)))
    (net (code 94) (name "Net-(J41-Pad6)")
      (node (ref U6) (pin 20))
      (node (ref J41) (pin 6)))
    (net (code 95) (name "Net-(J41-Pad3)")
      (node (ref J41) (pin 3))
      (node (ref U6) (pin 17)))
    (net (code 96) (name /STATUS)
      (node (ref U3) (pin 42))
      (node (ref J41) (pin 2))
      (node (ref U6) (pin 16)))
    (net (code 97) (name "Net-(J41-Pad9)")
      (node (ref J41) (pin 9))
      (node (ref U6) (pin 23)))
    (net (code 98) (name "Net-(J41-Pad7)")
      (node (ref J41) (pin 7))
      (node (ref U6) (pin 21)))
    (net (code 99) (name "Net-(J41-Pad4)")
      (node (ref J41) (pin 4))
      (node (ref U6) (pin 18)))
    (net (code 100) (name "Net-(J37-Pad14)")
      (node (ref J37) (pin 14))
      (node (ref U6) (pin 14)))
    (net (code 101) (name "Net-(J41-Pad8)")
      (node (ref J41) (pin 8))
      (node (ref U6) (pin 22)))
    (net (code 102) (name "Net-(J41-Pad5)")
      (node (ref J41) (pin 5))
      (node (ref U6) (pin 19)))
    (net (code 103) (name "Net-(J44-Pad3)")
      (node (ref U1) (pin 14))
      (node (ref J44) (pin 3)))
    (net (code 104) (name "Net-(J8-Pad1)")
      (node (ref U3) (pin 14))
      (node (ref J8) (pin 1)))
    (net (code 105) (name "Net-(J44-Pad2)")
      (node (ref J44) (pin 2))
      (node (ref U1) (pin 13)))
    (net (code 106) (name "Net-(J44-Pad1)")
      (node (ref U1) (pin 12))
      (node (ref J44) (pin 1)))
    (net (code 107) (name "Net-(J43-Pad4)")
      (node (ref J43) (pin 4))
      (node (ref U1) (pin 11)))
    (net (code 108) (name "Net-(J43-Pad3)")
      (node (ref J43) (pin 3))
      (node (ref U1) (pin 10)))
    (net (code 109) (name "Net-(J43-Pad2)")
      (node (ref J43) (pin 2))
      (node (ref U1) (pin 9)))
    (net (code 110) (name "Net-(J43-Pad1)")
      (node (ref U1) (pin 6))
      (node (ref J43) (pin 1)))
    (net (code 111) (name "Net-(J29-Pad8)")
      (node (ref J29) (pin 8)))
    (net (code 112) (name "Net-(C37-Pad1)")
      (node (ref U1) (pin 17))
      (node (ref C37) (pin 1)))
    (net (code 113) (name "Net-(D2-Pad1)")
      (node (ref D2) (pin 1))
      (node (ref U1) (pin 22)))
    (net (code 114) (name "Net-(D1-Pad1)")
      (node (ref D1) (pin 1))
      (node (ref U1) (pin 23)))
    (net (code 115) (name "Net-(J42-Pad1)")
      (node (ref J42) (pin 1))
      (node (ref U1) (pin 2)))
    (net (code 116) (name "Net-(J42-Pad2)")
      (node (ref J42) (pin 2))
      (node (ref U1) (pin 3)))
    (net (code 117) (name "Net-(J5-Pad7)")
      (node (ref J5) (pin 7))
      (node (ref R3) (pin 2)))
    (net (code 118) (name "Net-(J5-Pad6)")
      (node (ref J5) (pin 6)))
    (net (code 119) (name "Net-(J5-Pad2)")
      (node (ref J5) (pin 2))
      (node (ref R1) (pin 1)))
    (net (code 120) (name "Net-(U3-Pad40)")
      (node (ref U3) (pin 40)))
    (net (code 121) (name "Net-(C10-Pad1)")
      (node (ref U3) (pin 9))
      (node (ref C10) (pin 1))
      (node (ref C7) (pin 2))
      (node (ref C8) (pin 2))
      (node (ref J13) (pin 1))
      (node (ref D4) (pin 2))
      (node (ref C9) (pin 1)))
    (net (code 122) (name "Net-(U3-Pad41)")
      (node (ref U3) (pin 41)))
    (net (code 123) (name "Net-(U3-Pad20)")
      (node (ref U3) (pin 20)))
    (net (code 124) (name "Net-(C1-Pad2)")
      (node (ref U3) (pin 18))
      (node (ref U2) (pin 6))
      (node (ref J8) (pin 5))
      (node (ref J5) (pin 1))
      (node (ref C1) (pin 2)))
    (net (code 125) (name "Net-(U3-Pad38)")
      (node (ref U3) (pin 38)))
    (net (code 126) (name "Net-(J6-Pad1)")
      (node (ref U3) (pin 32))
      (node (ref J6) (pin 1)))
    (net (code 127) (name "Net-(U3-Pad29)")
      (node (ref U3) (pin 29)))
    (net (code 128) (name "Net-(U3-Pad28)")
      (node (ref U3) (pin 28)))
    (net (code 129) (name "Net-(C10-Pad2)")
      (node (ref U3) (pin 10))
      (node (ref C12) (pin 1))
      (node (ref D5) (pin 1))
      (node (ref J13) (pin 2))
      (node (ref C11) (pin 1))
      (node (ref C9) (pin 2))
      (node (ref C10) (pin 2)))
    (net (code 130) (name "Net-(C13-Pad2)")
      (node (ref U3) (pin 11))
      (node (ref D6) (pin 2))
      (node (ref C13) (pin 2))
      (node (ref C17) (pin 1))
      (node (ref J14) (pin 2))
      (node (ref C20) (pin 1))
      (node (ref C18) (pin 1))
      (node (ref C16) (pin 2))
      (node (ref C15) (pin 2))
      (node (ref C19) (pin 1))
      (node (ref C14) (pin 2)))
    (net (code 131) (name "Net-(C17-Pad2)")
      (node (ref D7) (pin 1))
      (node (ref U3) (pin 12))
      (node (ref C17) (pin 2))
      (node (ref C21) (pin 1))
      (node (ref C18) (pin 2))
      (node (ref C22) (pin 1))
      (node (ref J15) (pin 1))
      (node (ref J14) (pin 1))
      (node (ref C19) (pin 2))
      (node (ref C23) (pin 1))
      (node (ref C20) (pin 2))
      (node (ref C24) (pin 1)))
    (net (code 132) (name "Net-(J29-Pad1)")
      (node (ref SW2) (pin 1))
      (node (ref U6) (pin 25))
      (node (ref J29) (pin 1)))
    (net (code 133) (name "Net-(10k1-Pad1)")
      (node (ref SW1) (pin 2))
      (node (ref 10k1) (pin 1))
      (node (ref U6) (pin 3))
      (node (ref J37) (pin 3)))
    (net (code 134) (name "Net-(120R1-Pad2)")
      (node (ref 120R1) (pin 2))
      (node (ref D1) (pin 2)))
    (net (code 135) (name "Net-(120R2-Pad2)")
      (node (ref D2) (pin 2))
      (node (ref 120R2) (pin 2)))
    (net (code 136) (name "Net-(U1-Pad27)")
      (node (ref U1) (pin 27)))
    (net (code 137) (name "Net-(U1-Pad28)")
      (node (ref U1) (pin 28)))
    (net (code 138) (name "Net-(J2-Pad2)")
      (node (ref U1) (pin 16))
      (node (ref J2) (pin 2)))
    (net (code 139) (name "Net-(J2-Pad3)")
      (node (ref U1) (pin 15))
      (node (ref J2) (pin 3)))
    (net (code 140) (name "Net-(J2-Pad4)")
      (node (ref J2) (pin 4)))
    (net (code 141) (name "Net-(J11-Pad1)")
      (node (ref J11) (pin 1))
      (node (ref U3) (pin 26))
      (node (ref J12) (pin 2)))
    (net (code 142) (name "Net-(J11-Pad2)")
      (node (ref U3) (pin 25))
      (node (ref J12) (pin 3))
      (node (ref J11) (pin 2)))
    (net (code 143) (name "Net-(J11-Pad3)")
      (node (ref J11) (pin 3))
      (node (ref U3) (pin 24))
      (node (ref J12) (pin 1)))
    (net (code 144) (name "Net-(J8-Pad3)")
      (node (ref U2) (pin 4))
      (node (ref J8) (pin 3))
      (node (ref R2) (pin 2))
      (node (ref U3) (pin 16)))
    (net (code 145) (name "Net-(J8-Pad4)")
      (node (ref J8) (pin 4))
      (node (ref U3) (pin 17))
      (node (ref U2) (pin 5))
      (node (ref R1) (pin 2)))
    (net (code 146) (name "Net-(J12-Pad4)")
      (node (ref J12) (pin 4)))
    (net (code 147) (name "Net-(C6-Pad1)")
      (node (ref U3) (pin 15))
      (node (ref C6) (pin 1))
      (node (ref R3) (pin 1))
      (node (ref J8) (pin 2))
      (node (ref U2) (pin 3)))
    (net (code 148) (name "Net-(U2-Pad1)")
      (node (ref U2) (pin 1)))
    (net (code 149) (name "Net-(J22-Pad4)")
      (node (ref U5) (pin 7))
      (node (ref J22) (pin 4))
      (node (ref R18) (pin 1)))
    (net (code 150) (name "Net-(C27-Pad2)")
      (node (ref R18) (pin 2))
      (node (ref C27) (pin 2)))
    (net (code 151) (name "Net-(C32-Pad2)")
      (node (ref LS2) (pin 1))
      (node (ref C32) (pin 2))
      (node (ref FB3) (pin 2)))
    (net (code 152) (name "Net-(J27-Pad2)")
      (node (ref U5) (pin 10))
      (node (ref R19) (pin 1))
      (node (ref J27) (pin 2)))
    (net (code 153) (name "Net-(C33-Pad1)")
      (node (ref R19) (pin 2))
      (node (ref C33) (pin 1)))))