G04 #@! TF.GenerationSoftware,KiCad,Pcbnew,(5.0.2)-1*
G04 #@! TF.CreationDate,2018-12-29T09:45:52+01:00*
G04 #@! TF.ProjectId,devboard_io,64657662-6f61-4726-945f-696f2e6b6963,rev?*
G04 #@! TF.SameCoordinates,Original*
G04 #@! TF.FileFunction,Legend,Bot*
G04 #@! TF.FilePolarity,Positive*
%FSLAX46Y46*%
G04 Gerber Fmt 4.6, Leading zero omitted, Abs format (unit mm)*
G04 Created by KiCad (PCBNEW (5.0.2)-1) date 29/12/2018 09:45:52*
%MOMM*%
%LPD*%
G01*
G04 APERTURE LIST*
%ADD10C,0.150000*%
%ADD11C,0.120000*%
G04 APERTURE END LIST*
D10*
G04 #@! TO.C,J2*
X111420000Y-91830000D02*
X110570000Y-91830000D01*
X119720000Y-91830000D02*
X120570000Y-91830000D01*
X111870000Y-91830000D02*
X111870000Y-92730000D01*
X119270000Y-91830000D02*
X119270000Y-92730000D01*
X111870000Y-96830000D02*
X111870000Y-95280000D01*
X119270000Y-96830000D02*
X119270000Y-95280000D01*
X117370000Y-96830000D02*
X119270000Y-96830000D01*
X111870000Y-91830000D02*
X111270000Y-91180000D01*
X119270000Y-91830000D02*
X119870000Y-91180000D01*
X113770000Y-96830000D02*
X111870000Y-96830000D01*
X111870000Y-91830000D02*
X119270000Y-91830000D01*
G04 #@! TO.C,J12*
X120794000Y-187570000D02*
X113394000Y-187570000D01*
X118894000Y-182570000D02*
X120794000Y-182570000D01*
X113394000Y-187570000D02*
X112794000Y-188220000D01*
X120794000Y-187570000D02*
X121394000Y-188220000D01*
X115294000Y-182570000D02*
X113394000Y-182570000D01*
X113394000Y-182570000D02*
X113394000Y-184120000D01*
X120794000Y-182570000D02*
X120794000Y-184120000D01*
X113394000Y-187570000D02*
X113394000Y-186670000D01*
X120794000Y-187570000D02*
X120794000Y-186670000D01*
X112944000Y-187570000D02*
X112094000Y-187570000D01*
X121244000Y-187570000D02*
X122094000Y-187570000D01*
D11*
G04 #@! TO.C,C37*
X105025000Y-101330000D02*
X105025000Y-99330000D01*
X107065000Y-99330000D02*
X107065000Y-101330000D01*
G04 #@! TO.C,C27*
X160948000Y-139164000D02*
X160948000Y-138164000D01*
X162648000Y-138164000D02*
X162648000Y-139164000D01*
G04 #@! TO.C,C33*
X164758000Y-139204000D02*
X164758000Y-138204000D01*
X166458000Y-138204000D02*
X166458000Y-139204000D01*
G04 #@! TO.C,J18*
X122996000Y-135315000D02*
X117796000Y-135315000D01*
X122996000Y-122555000D02*
X122996000Y-135315000D01*
X117796000Y-119955000D02*
X117796000Y-135315000D01*
X122996000Y-122555000D02*
X120396000Y-122555000D01*
X120396000Y-122555000D02*
X120396000Y-119955000D01*
X120396000Y-119955000D02*
X117796000Y-119955000D01*
X122996000Y-121285000D02*
X122996000Y-119955000D01*
X122996000Y-119955000D02*
X121666000Y-119955000D01*
G04 #@! TO.C,J19*
X119701000Y-110430000D02*
X124901000Y-110430000D01*
X119701000Y-115570000D02*
X119701000Y-110430000D01*
X124901000Y-118170000D02*
X124901000Y-110430000D01*
X119701000Y-115570000D02*
X122301000Y-115570000D01*
X122301000Y-115570000D02*
X122301000Y-118170000D01*
X122301000Y-118170000D02*
X124901000Y-118170000D01*
X119701000Y-116840000D02*
X119701000Y-118170000D01*
X119701000Y-118170000D02*
X121031000Y-118170000D01*
G04 #@! TO.C,J33*
X77664000Y-98238000D02*
X77664000Y-99568000D01*
X78994000Y-98238000D02*
X77664000Y-98238000D01*
X77664000Y-100838000D02*
X77664000Y-103438000D01*
X80264000Y-100838000D02*
X77664000Y-100838000D01*
X80264000Y-98238000D02*
X80264000Y-100838000D01*
X77664000Y-103438000D02*
X82864000Y-103438000D01*
X80264000Y-98238000D02*
X82864000Y-98238000D01*
X82864000Y-98238000D02*
X82864000Y-103438000D01*
G04 #@! TO.C,R9*
X126782170Y-112207784D02*
X126782170Y-114207784D01*
X128922170Y-114207784D02*
X128922170Y-112207784D01*
G04 #@! TO.C,R11*
X131462170Y-114207784D02*
X131462170Y-112207784D01*
X129322170Y-112207784D02*
X129322170Y-114207784D01*
G04 #@! TO.C,R18*
X162868000Y-134064000D02*
X162868000Y-132064000D01*
X160728000Y-132064000D02*
X160728000Y-134064000D01*
G04 #@! TO.C,R19*
X166678000Y-133874000D02*
X166678000Y-131874000D01*
X164538000Y-131874000D02*
X164538000Y-133874000D01*
G04 #@! TO.C,J2*
D10*
X115903333Y-90432380D02*
X115903333Y-91146666D01*
X115950952Y-91289523D01*
X116046190Y-91384761D01*
X116189047Y-91432380D01*
X116284285Y-91432380D01*
X115474761Y-90527619D02*
X115427142Y-90480000D01*
X115331904Y-90432380D01*
X115093809Y-90432380D01*
X114998571Y-90480000D01*
X114950952Y-90527619D01*
X114903333Y-90622857D01*
X114903333Y-90718095D01*
X114950952Y-90860952D01*
X115522380Y-91432380D01*
X114903333Y-91432380D01*
G04 #@! TO.C,J12*
X117903523Y-187872380D02*
X117903523Y-188586666D01*
X117951142Y-188729523D01*
X118046380Y-188824761D01*
X118189238Y-188872380D01*
X118284476Y-188872380D01*
X116903523Y-188872380D02*
X117474952Y-188872380D01*
X117189238Y-188872380D02*
X117189238Y-187872380D01*
X117284476Y-188015238D01*
X117379714Y-188110476D01*
X117474952Y-188158095D01*
X116522571Y-187967619D02*
X116474952Y-187920000D01*
X116379714Y-187872380D01*
X116141619Y-187872380D01*
X116046380Y-187920000D01*
X115998761Y-187967619D01*
X115951142Y-188062857D01*
X115951142Y-188158095D01*
X115998761Y-188300952D01*
X116570190Y-188872380D01*
X115951142Y-188872380D01*
G04 #@! TO.C,C37*
X108152142Y-99687142D02*
X108199761Y-99639523D01*
X108247380Y-99496666D01*
X108247380Y-99401428D01*
X108199761Y-99258571D01*
X108104523Y-99163333D01*
X108009285Y-99115714D01*
X107818809Y-99068095D01*
X107675952Y-99068095D01*
X107485476Y-99115714D01*
X107390238Y-99163333D01*
X107295000Y-99258571D01*
X107247380Y-99401428D01*
X107247380Y-99496666D01*
X107295000Y-99639523D01*
X107342619Y-99687142D01*
X107247380Y-100020476D02*
X107247380Y-100639523D01*
X107628333Y-100306190D01*
X107628333Y-100449047D01*
X107675952Y-100544285D01*
X107723571Y-100591904D01*
X107818809Y-100639523D01*
X108056904Y-100639523D01*
X108152142Y-100591904D01*
X108199761Y-100544285D01*
X108247380Y-100449047D01*
X108247380Y-100163333D01*
X108199761Y-100068095D01*
X108152142Y-100020476D01*
X107247380Y-100972857D02*
X107247380Y-101639523D01*
X108247380Y-101210952D01*
G04 #@! TO.C,C27*
X163905142Y-138021142D02*
X163952761Y-137973523D01*
X164000380Y-137830666D01*
X164000380Y-137735428D01*
X163952761Y-137592571D01*
X163857523Y-137497333D01*
X163762285Y-137449714D01*
X163571809Y-137402095D01*
X163428952Y-137402095D01*
X163238476Y-137449714D01*
X163143238Y-137497333D01*
X163048000Y-137592571D01*
X163000380Y-137735428D01*
X163000380Y-137830666D01*
X163048000Y-137973523D01*
X163095619Y-138021142D01*
X163095619Y-138402095D02*
X163048000Y-138449714D01*
X163000380Y-138544952D01*
X163000380Y-138783047D01*
X163048000Y-138878285D01*
X163095619Y-138925904D01*
X163190857Y-138973523D01*
X163286095Y-138973523D01*
X163428952Y-138925904D01*
X164000380Y-138354476D01*
X164000380Y-138973523D01*
X163000380Y-139306857D02*
X163000380Y-139973523D01*
X164000380Y-139544952D01*
G04 #@! TO.C,C33*
X164215142Y-138061142D02*
X164262761Y-138013523D01*
X164310380Y-137870666D01*
X164310380Y-137775428D01*
X164262761Y-137632571D01*
X164167523Y-137537333D01*
X164072285Y-137489714D01*
X163881809Y-137442095D01*
X163738952Y-137442095D01*
X163548476Y-137489714D01*
X163453238Y-137537333D01*
X163358000Y-137632571D01*
X163310380Y-137775428D01*
X163310380Y-137870666D01*
X163358000Y-138013523D01*
X163405619Y-138061142D01*
X163310380Y-138394476D02*
X163310380Y-139013523D01*
X163691333Y-138680190D01*
X163691333Y-138823047D01*
X163738952Y-138918285D01*
X163786571Y-138965904D01*
X163881809Y-139013523D01*
X164119904Y-139013523D01*
X164215142Y-138965904D01*
X164262761Y-138918285D01*
X164310380Y-138823047D01*
X164310380Y-138537333D01*
X164262761Y-138442095D01*
X164215142Y-138394476D01*
X163310380Y-139346857D02*
X163310380Y-139965904D01*
X163691333Y-139632571D01*
X163691333Y-139775428D01*
X163738952Y-139870666D01*
X163786571Y-139918285D01*
X163881809Y-139965904D01*
X164119904Y-139965904D01*
X164215142Y-139918285D01*
X164262761Y-139870666D01*
X164310380Y-139775428D01*
X164310380Y-139489714D01*
X164262761Y-139394476D01*
X164215142Y-139346857D01*
G04 #@! TO.C,J5*
X128844633Y-159345380D02*
X128844633Y-160059666D01*
X128892252Y-160202523D01*
X128987490Y-160297761D01*
X129130347Y-160345380D01*
X129225585Y-160345380D01*
X127892252Y-159345380D02*
X128368442Y-159345380D01*
X128416061Y-159821571D01*
X128368442Y-159773952D01*
X128273204Y-159726333D01*
X128035109Y-159726333D01*
X127939871Y-159773952D01*
X127892252Y-159821571D01*
X127844633Y-159916809D01*
X127844633Y-160154904D01*
X127892252Y-160250142D01*
X127939871Y-160297761D01*
X128035109Y-160345380D01*
X128273204Y-160345380D01*
X128368442Y-160297761D01*
X128416061Y-160250142D01*
G04 #@! TO.C,J18*
X121205523Y-118407380D02*
X121205523Y-119121666D01*
X121253142Y-119264523D01*
X121348380Y-119359761D01*
X121491238Y-119407380D01*
X121586476Y-119407380D01*
X120205523Y-119407380D02*
X120776952Y-119407380D01*
X120491238Y-119407380D02*
X120491238Y-118407380D01*
X120586476Y-118550238D01*
X120681714Y-118645476D01*
X120776952Y-118693095D01*
X119634095Y-118835952D02*
X119729333Y-118788333D01*
X119776952Y-118740714D01*
X119824571Y-118645476D01*
X119824571Y-118597857D01*
X119776952Y-118502619D01*
X119729333Y-118455000D01*
X119634095Y-118407380D01*
X119443619Y-118407380D01*
X119348380Y-118455000D01*
X119300761Y-118502619D01*
X119253142Y-118597857D01*
X119253142Y-118645476D01*
X119300761Y-118740714D01*
X119348380Y-118788333D01*
X119443619Y-118835952D01*
X119634095Y-118835952D01*
X119729333Y-118883571D01*
X119776952Y-118931190D01*
X119824571Y-119026428D01*
X119824571Y-119216904D01*
X119776952Y-119312142D01*
X119729333Y-119359761D01*
X119634095Y-119407380D01*
X119443619Y-119407380D01*
X119348380Y-119359761D01*
X119300761Y-119312142D01*
X119253142Y-119216904D01*
X119253142Y-119026428D01*
X119300761Y-118931190D01*
X119348380Y-118883571D01*
X119443619Y-118835952D01*
G04 #@! TO.C,J19*
X123110523Y-118622380D02*
X123110523Y-119336666D01*
X123158142Y-119479523D01*
X123253380Y-119574761D01*
X123396238Y-119622380D01*
X123491476Y-119622380D01*
X122110523Y-119622380D02*
X122681952Y-119622380D01*
X122396238Y-119622380D02*
X122396238Y-118622380D01*
X122491476Y-118765238D01*
X122586714Y-118860476D01*
X122681952Y-118908095D01*
X121634333Y-119622380D02*
X121443857Y-119622380D01*
X121348619Y-119574761D01*
X121301000Y-119527142D01*
X121205761Y-119384285D01*
X121158142Y-119193809D01*
X121158142Y-118812857D01*
X121205761Y-118717619D01*
X121253380Y-118670000D01*
X121348619Y-118622380D01*
X121539095Y-118622380D01*
X121634333Y-118670000D01*
X121681952Y-118717619D01*
X121729571Y-118812857D01*
X121729571Y-119050952D01*
X121681952Y-119146190D01*
X121634333Y-119193809D01*
X121539095Y-119241428D01*
X121348619Y-119241428D01*
X121253380Y-119193809D01*
X121205761Y-119146190D01*
X121158142Y-119050952D01*
G04 #@! TO.C,J33*
X76116380Y-100028476D02*
X76830666Y-100028476D01*
X76973523Y-99980857D01*
X77068761Y-99885619D01*
X77116380Y-99742761D01*
X77116380Y-99647523D01*
X76116380Y-100409428D02*
X76116380Y-101028476D01*
X76497333Y-100695142D01*
X76497333Y-100838000D01*
X76544952Y-100933238D01*
X76592571Y-100980857D01*
X76687809Y-101028476D01*
X76925904Y-101028476D01*
X77021142Y-100980857D01*
X77068761Y-100933238D01*
X77116380Y-100838000D01*
X77116380Y-100552285D01*
X77068761Y-100457047D01*
X77021142Y-100409428D01*
X76116380Y-101361809D02*
X76116380Y-101980857D01*
X76497333Y-101647523D01*
X76497333Y-101790380D01*
X76544952Y-101885619D01*
X76592571Y-101933238D01*
X76687809Y-101980857D01*
X76925904Y-101980857D01*
X77021142Y-101933238D01*
X77068761Y-101885619D01*
X77116380Y-101790380D01*
X77116380Y-101504666D01*
X77068761Y-101409428D01*
X77021142Y-101361809D01*
G04 #@! TO.C,R9*
X126454550Y-113041117D02*
X125978360Y-112707784D01*
X126454550Y-112469688D02*
X125454550Y-112469688D01*
X125454550Y-112850641D01*
X125502170Y-112945879D01*
X125549789Y-112993498D01*
X125645027Y-113041117D01*
X125787884Y-113041117D01*
X125883122Y-112993498D01*
X125930741Y-112945879D01*
X125978360Y-112850641D01*
X125978360Y-112469688D01*
X126454550Y-113517307D02*
X126454550Y-113707784D01*
X126406931Y-113803022D01*
X126359312Y-113850641D01*
X126216455Y-113945879D01*
X126025979Y-113993498D01*
X125645027Y-113993498D01*
X125549789Y-113945879D01*
X125502170Y-113898260D01*
X125454550Y-113803022D01*
X125454550Y-113612545D01*
X125502170Y-113517307D01*
X125549789Y-113469688D01*
X125645027Y-113422069D01*
X125883122Y-113422069D01*
X125978360Y-113469688D01*
X126025979Y-113517307D01*
X126073598Y-113612545D01*
X126073598Y-113803022D01*
X126025979Y-113898260D01*
X125978360Y-113945879D01*
X125883122Y-113993498D01*
G04 #@! TO.C,R11*
X128994550Y-112564926D02*
X128518360Y-112231593D01*
X128994550Y-111993498D02*
X127994550Y-111993498D01*
X127994550Y-112374450D01*
X128042170Y-112469688D01*
X128089789Y-112517307D01*
X128185027Y-112564926D01*
X128327884Y-112564926D01*
X128423122Y-112517307D01*
X128470741Y-112469688D01*
X128518360Y-112374450D01*
X128518360Y-111993498D01*
X128994550Y-113517307D02*
X128994550Y-112945879D01*
X128994550Y-113231593D02*
X127994550Y-113231593D01*
X128137408Y-113136355D01*
X128232646Y-113041117D01*
X128280265Y-112945879D01*
X128994550Y-114469688D02*
X128994550Y-113898260D01*
X128994550Y-114183974D02*
X127994550Y-114183974D01*
X128137408Y-114088736D01*
X128232646Y-113993498D01*
X128280265Y-113898260D01*
G04 #@! TO.C,R18*
X160400380Y-132421142D02*
X159924190Y-132087809D01*
X160400380Y-131849714D02*
X159400380Y-131849714D01*
X159400380Y-132230666D01*
X159448000Y-132325904D01*
X159495619Y-132373523D01*
X159590857Y-132421142D01*
X159733714Y-132421142D01*
X159828952Y-132373523D01*
X159876571Y-132325904D01*
X159924190Y-132230666D01*
X159924190Y-131849714D01*
X160400380Y-133373523D02*
X160400380Y-132802095D01*
X160400380Y-133087809D02*
X159400380Y-133087809D01*
X159543238Y-132992571D01*
X159638476Y-132897333D01*
X159686095Y-132802095D01*
X159828952Y-133944952D02*
X159781333Y-133849714D01*
X159733714Y-133802095D01*
X159638476Y-133754476D01*
X159590857Y-133754476D01*
X159495619Y-133802095D01*
X159448000Y-133849714D01*
X159400380Y-133944952D01*
X159400380Y-134135428D01*
X159448000Y-134230666D01*
X159495619Y-134278285D01*
X159590857Y-134325904D01*
X159638476Y-134325904D01*
X159733714Y-134278285D01*
X159781333Y-134230666D01*
X159828952Y-134135428D01*
X159828952Y-133944952D01*
X159876571Y-133849714D01*
X159924190Y-133802095D01*
X160019428Y-133754476D01*
X160209904Y-133754476D01*
X160305142Y-133802095D01*
X160352761Y-133849714D01*
X160400380Y-133944952D01*
X160400380Y-134135428D01*
X160352761Y-134230666D01*
X160305142Y-134278285D01*
X160209904Y-134325904D01*
X160019428Y-134325904D01*
X159924190Y-134278285D01*
X159876571Y-134230666D01*
X159828952Y-134135428D01*
G04 #@! TO.C,R19*
X164210380Y-132231142D02*
X163734190Y-131897809D01*
X164210380Y-131659714D02*
X163210380Y-131659714D01*
X163210380Y-132040666D01*
X163258000Y-132135904D01*
X163305619Y-132183523D01*
X163400857Y-132231142D01*
X163543714Y-132231142D01*
X163638952Y-132183523D01*
X163686571Y-132135904D01*
X163734190Y-132040666D01*
X163734190Y-131659714D01*
X164210380Y-133183523D02*
X164210380Y-132612095D01*
X164210380Y-132897809D02*
X163210380Y-132897809D01*
X163353238Y-132802571D01*
X163448476Y-132707333D01*
X163496095Y-132612095D01*
X164210380Y-133659714D02*
X164210380Y-133850190D01*
X164162761Y-133945428D01*
X164115142Y-133993047D01*
X163972285Y-134088285D01*
X163781809Y-134135904D01*
X163400857Y-134135904D01*
X163305619Y-134088285D01*
X163258000Y-134040666D01*
X163210380Y-133945428D01*
X163210380Y-133754952D01*
X163258000Y-133659714D01*
X163305619Y-133612095D01*
X163400857Y-133564476D01*
X163638952Y-133564476D01*
X163734190Y-133612095D01*
X163781809Y-133659714D01*
X163829428Y-133754952D01*
X163829428Y-133945428D01*
X163781809Y-134040666D01*
X163734190Y-134088285D01*
X163638952Y-134135904D01*
G04 #@! TD*
M02*
